ARM GAS  C:\Users\admin\AppData\Local\Temp\ccZEVLam.s 			page 1


   1              		.syntax unified
   2              		.cpu cortex-m3
   3              		.fpu softvfp
   4              		.eabi_attribute 20, 1
   5              		.eabi_attribute 21, 1
   6              		.eabi_attribute 23, 3
   7              		.eabi_attribute 24, 1
   8              		.eabi_attribute 25, 1
   9              		.eabi_attribute 26, 1
  10              		.eabi_attribute 30, 1
  11              		.eabi_attribute 34, 1
  12              		.eabi_attribute 18, 4
  13              		.thumb
  14              		.syntax unified
  15              		.file	"WaveDAC_2.c"
  16              		.text
  17              	.Ltext0:
  18              		.cfi_sections	.debug_frame
  19              		.section	.text.WaveDAC_2_Enable,"ax",%progbits
  20              		.align	2
  21              		.global	WaveDAC_2_Enable
  22              		.thumb
  23              		.thumb_func
  24              		.type	WaveDAC_2_Enable, %function
  25              	WaveDAC_2_Enable:
  26              	.LFB1:
  27              		.file 1 "Generated_Source\\PSoC5\\WaveDAC_2.c"
   1:Generated_Source\PSoC5/WaveDAC_2.c **** /*******************************************************************************
   2:Generated_Source\PSoC5/WaveDAC_2.c **** * File Name: WaveDAC_2.c
   3:Generated_Source\PSoC5/WaveDAC_2.c **** * Version 2.10
   4:Generated_Source\PSoC5/WaveDAC_2.c **** *
   5:Generated_Source\PSoC5/WaveDAC_2.c **** * Description:
   6:Generated_Source\PSoC5/WaveDAC_2.c **** *  This file provides the source code for the 8-bit Waveform DAC 
   7:Generated_Source\PSoC5/WaveDAC_2.c **** *  (WaveDAC8) Component.
   8:Generated_Source\PSoC5/WaveDAC_2.c **** *
   9:Generated_Source\PSoC5/WaveDAC_2.c **** ********************************************************************************
  10:Generated_Source\PSoC5/WaveDAC_2.c **** * Copyright 2013, Cypress Semiconductor Corporation.  All rights reserved.
  11:Generated_Source\PSoC5/WaveDAC_2.c **** * You may use this file only in accordance with the license, terms, conditions,
  12:Generated_Source\PSoC5/WaveDAC_2.c **** * disclaimers, and limitations in the end user license agreement accompanying
  13:Generated_Source\PSoC5/WaveDAC_2.c **** * the software package with which this file was provided.
  14:Generated_Source\PSoC5/WaveDAC_2.c **** *******************************************************************************/
  15:Generated_Source\PSoC5/WaveDAC_2.c **** 
  16:Generated_Source\PSoC5/WaveDAC_2.c **** #include "WaveDAC_2.h"
  17:Generated_Source\PSoC5/WaveDAC_2.c **** 
  18:Generated_Source\PSoC5/WaveDAC_2.c **** uint8  WaveDAC_2_initVar = 0u;
  19:Generated_Source\PSoC5/WaveDAC_2.c **** 
  20:Generated_Source\PSoC5/WaveDAC_2.c **** const uint8 CYCODE WaveDAC_2_wave1[WaveDAC_2_WAVE1_LENGTH] = { 128u,135u,143u,151u,159u,166u,174u,1
  21:Generated_Source\PSoC5/WaveDAC_2.c **** const uint8 CYCODE WaveDAC_2_wave2[WaveDAC_2_WAVE2_LENGTH] = { 128u,132u,138u,143u,148u,152u,158u,1
  22:Generated_Source\PSoC5/WaveDAC_2.c **** 
  23:Generated_Source\PSoC5/WaveDAC_2.c **** static uint8  WaveDAC_2_Wave1Chan;
  24:Generated_Source\PSoC5/WaveDAC_2.c **** static uint8  WaveDAC_2_Wave2Chan;
  25:Generated_Source\PSoC5/WaveDAC_2.c **** static uint8  WaveDAC_2_Wave1TD;
  26:Generated_Source\PSoC5/WaveDAC_2.c **** static uint8  WaveDAC_2_Wave2TD;
  27:Generated_Source\PSoC5/WaveDAC_2.c **** 
  28:Generated_Source\PSoC5/WaveDAC_2.c **** 
  29:Generated_Source\PSoC5/WaveDAC_2.c **** /*******************************************************************************
  30:Generated_Source\PSoC5/WaveDAC_2.c **** * Function Name: WaveDAC_2_Init
ARM GAS  C:\Users\admin\AppData\Local\Temp\ccZEVLam.s 			page 2


  31:Generated_Source\PSoC5/WaveDAC_2.c **** ********************************************************************************
  32:Generated_Source\PSoC5/WaveDAC_2.c **** *
  33:Generated_Source\PSoC5/WaveDAC_2.c **** * Summary:
  34:Generated_Source\PSoC5/WaveDAC_2.c **** *  Initializes component with parameters set in the customizer.
  35:Generated_Source\PSoC5/WaveDAC_2.c **** *
  36:Generated_Source\PSoC5/WaveDAC_2.c **** * Parameters:  
  37:Generated_Source\PSoC5/WaveDAC_2.c **** *  None
  38:Generated_Source\PSoC5/WaveDAC_2.c **** *
  39:Generated_Source\PSoC5/WaveDAC_2.c **** * Return: 
  40:Generated_Source\PSoC5/WaveDAC_2.c **** *  None
  41:Generated_Source\PSoC5/WaveDAC_2.c **** *
  42:Generated_Source\PSoC5/WaveDAC_2.c **** *******************************************************************************/
  43:Generated_Source\PSoC5/WaveDAC_2.c **** void WaveDAC_2_Init(void) 
  44:Generated_Source\PSoC5/WaveDAC_2.c **** {
  45:Generated_Source\PSoC5/WaveDAC_2.c **** 	WaveDAC_2_VDAC8_Init();
  46:Generated_Source\PSoC5/WaveDAC_2.c **** 	WaveDAC_2_VDAC8_SetSpeed(WaveDAC_2_HIGHSPEED);
  47:Generated_Source\PSoC5/WaveDAC_2.c **** 	WaveDAC_2_VDAC8_SetRange(WaveDAC_2_DAC_RANGE);
  48:Generated_Source\PSoC5/WaveDAC_2.c **** 
  49:Generated_Source\PSoC5/WaveDAC_2.c **** 	#if(WaveDAC_2_DAC_MODE == WaveDAC_2_CURRENT_MODE)
  50:Generated_Source\PSoC5/WaveDAC_2.c **** 		WaveDAC_2_IDAC8_SetPolarity(WaveDAC_2_DAC_POL);
  51:Generated_Source\PSoC5/WaveDAC_2.c **** 	#endif /* WaveDAC_2_DAC_MODE == WaveDAC_2_CURRENT_MODE */
  52:Generated_Source\PSoC5/WaveDAC_2.c **** 
  53:Generated_Source\PSoC5/WaveDAC_2.c **** 	#if(WaveDAC_2_OUT_MODE == WaveDAC_2_BUFFER_MODE)
  54:Generated_Source\PSoC5/WaveDAC_2.c **** 	   WaveDAC_2_BuffAmp_Init();
  55:Generated_Source\PSoC5/WaveDAC_2.c **** 	#endif /* WaveDAC_2_OUT_MODE == WaveDAC_2_BUFFER_MODE */
  56:Generated_Source\PSoC5/WaveDAC_2.c **** 
  57:Generated_Source\PSoC5/WaveDAC_2.c **** 	/* Get the TD Number for the DMA channel 1 and 2   */
  58:Generated_Source\PSoC5/WaveDAC_2.c **** 	WaveDAC_2_Wave1TD = CyDmaTdAllocate();
  59:Generated_Source\PSoC5/WaveDAC_2.c **** 	WaveDAC_2_Wave2TD = CyDmaTdAllocate();
  60:Generated_Source\PSoC5/WaveDAC_2.c **** 	
  61:Generated_Source\PSoC5/WaveDAC_2.c **** 	/* Initialize waveform pointers  */
  62:Generated_Source\PSoC5/WaveDAC_2.c **** 	WaveDAC_2_Wave1Setup(WaveDAC_2_wave1, WaveDAC_2_WAVE1_LENGTH) ;
  63:Generated_Source\PSoC5/WaveDAC_2.c **** 	WaveDAC_2_Wave2Setup(WaveDAC_2_wave2, WaveDAC_2_WAVE2_LENGTH) ;
  64:Generated_Source\PSoC5/WaveDAC_2.c **** 	
  65:Generated_Source\PSoC5/WaveDAC_2.c **** 	/* Initialize the internal clock if one present  */
  66:Generated_Source\PSoC5/WaveDAC_2.c **** 	#if defined(WaveDAC_2_DacClk_PHASE)
  67:Generated_Source\PSoC5/WaveDAC_2.c **** 	   WaveDAC_2_DacClk_SetPhase(WaveDAC_2_CLK_PHASE_0nS);
  68:Generated_Source\PSoC5/WaveDAC_2.c **** 	#endif /* defined(WaveDAC_2_DacClk_PHASE) */
  69:Generated_Source\PSoC5/WaveDAC_2.c **** }
  70:Generated_Source\PSoC5/WaveDAC_2.c **** 
  71:Generated_Source\PSoC5/WaveDAC_2.c **** 
  72:Generated_Source\PSoC5/WaveDAC_2.c **** /*******************************************************************************
  73:Generated_Source\PSoC5/WaveDAC_2.c **** * Function Name: WaveDAC_2_Enable
  74:Generated_Source\PSoC5/WaveDAC_2.c **** ********************************************************************************
  75:Generated_Source\PSoC5/WaveDAC_2.c **** *  
  76:Generated_Source\PSoC5/WaveDAC_2.c **** * Summary: 
  77:Generated_Source\PSoC5/WaveDAC_2.c **** *  Enables the DAC block and DMA operation.
  78:Generated_Source\PSoC5/WaveDAC_2.c **** *
  79:Generated_Source\PSoC5/WaveDAC_2.c **** * Parameters:  
  80:Generated_Source\PSoC5/WaveDAC_2.c **** *  None
  81:Generated_Source\PSoC5/WaveDAC_2.c **** *
  82:Generated_Source\PSoC5/WaveDAC_2.c **** * Return: 
  83:Generated_Source\PSoC5/WaveDAC_2.c **** *  None
  84:Generated_Source\PSoC5/WaveDAC_2.c **** *
  85:Generated_Source\PSoC5/WaveDAC_2.c **** *******************************************************************************/
  86:Generated_Source\PSoC5/WaveDAC_2.c **** void WaveDAC_2_Enable(void) 
  87:Generated_Source\PSoC5/WaveDAC_2.c **** {
ARM GAS  C:\Users\admin\AppData\Local\Temp\ccZEVLam.s 			page 3


  28              		.loc 1 87 0
  29              		.cfi_startproc
  30              		@ args = 0, pretend = 0, frame = 0
  31              		@ frame_needed = 0, uses_anonymous_args = 0
  32 0000 10B5     		push	{r4, lr}
  33              		.cfi_def_cfa_offset 8
  34              		.cfi_offset 4, -8
  35              		.cfi_offset 14, -4
  88:Generated_Source\PSoC5/WaveDAC_2.c **** 	WaveDAC_2_VDAC8_Enable();
  36              		.loc 1 88 0
  37 0002 FFF7FEFF 		bl	WaveDAC_2_VDAC8_Enable
  38              	.LVL0:
  89:Generated_Source\PSoC5/WaveDAC_2.c **** 
  90:Generated_Source\PSoC5/WaveDAC_2.c **** 	#if(WaveDAC_2_OUT_MODE == WaveDAC_2_BUFFER_MODE)
  91:Generated_Source\PSoC5/WaveDAC_2.c **** 	   WaveDAC_2_BuffAmp_Enable();
  92:Generated_Source\PSoC5/WaveDAC_2.c **** 	#endif /* WaveDAC_2_OUT_MODE == WaveDAC_2_BUFFER_MODE */
  93:Generated_Source\PSoC5/WaveDAC_2.c **** 
  94:Generated_Source\PSoC5/WaveDAC_2.c **** 	/* 
  95:Generated_Source\PSoC5/WaveDAC_2.c **** 	* Enable the channel. It is configured to remember the TD value so that
  96:Generated_Source\PSoC5/WaveDAC_2.c **** 	* it can be restored from the place where it has been stopped.
  97:Generated_Source\PSoC5/WaveDAC_2.c **** 	*/
  98:Generated_Source\PSoC5/WaveDAC_2.c **** 	(void)CyDmaChEnable(WaveDAC_2_Wave1Chan, 1u);
  39              		.loc 1 98 0
  40 0006 064C     		ldr	r4, .L3
  41 0008 0121     		movs	r1, #1
  42 000a 2078     		ldrb	r0, [r4]	@ zero_extendqisi2
  43 000c FFF7FEFF 		bl	CyDmaChEnable
  44              	.LVL1:
  99:Generated_Source\PSoC5/WaveDAC_2.c **** 	(void)CyDmaChEnable(WaveDAC_2_Wave2Chan, 1u);
  45              		.loc 1 99 0
  46 0010 0121     		movs	r1, #1
  47 0012 6078     		ldrb	r0, [r4, #1]	@ zero_extendqisi2
  48 0014 FFF7FEFF 		bl	CyDmaChEnable
  49              	.LVL2:
 100:Generated_Source\PSoC5/WaveDAC_2.c **** 	
 101:Generated_Source\PSoC5/WaveDAC_2.c **** 	/* set the initial value */
 102:Generated_Source\PSoC5/WaveDAC_2.c **** 	WaveDAC_2_SetValue(0u);
  50              		.loc 1 102 0
  51 0018 0020     		movs	r0, #0
  52 001a FFF7FEFF 		bl	WaveDAC_2_VDAC8_SetValue
  53              	.LVL3:
  54 001e 10BD     		pop	{r4, pc}
  55              	.L4:
  56              		.align	2
  57              	.L3:
  58 0020 00000000 		.word	.LANCHOR0
  59              		.cfi_endproc
  60              	.LFE1:
  61              		.size	WaveDAC_2_Enable, .-WaveDAC_2_Enable
  62              		.section	.text.WaveDAC_2_Stop,"ax",%progbits
  63              		.align	2
  64              		.global	WaveDAC_2_Stop
  65              		.thumb
  66              		.thumb_func
  67              		.type	WaveDAC_2_Stop, %function
  68              	WaveDAC_2_Stop:
  69              	.LFB4:
ARM GAS  C:\Users\admin\AppData\Local\Temp\ccZEVLam.s 			page 4


 103:Generated_Source\PSoC5/WaveDAC_2.c **** 	
 104:Generated_Source\PSoC5/WaveDAC_2.c **** 	#if(WaveDAC_2_CLOCK_SRC == WaveDAC_2_CLOCK_INT)  	
 105:Generated_Source\PSoC5/WaveDAC_2.c **** 	   WaveDAC_2_DacClk_Start();
 106:Generated_Source\PSoC5/WaveDAC_2.c **** 	#endif /* WaveDAC_2_CLOCK_SRC == WaveDAC_2_CLOCK_INT */
 107:Generated_Source\PSoC5/WaveDAC_2.c **** }
 108:Generated_Source\PSoC5/WaveDAC_2.c **** 
 109:Generated_Source\PSoC5/WaveDAC_2.c **** 
 110:Generated_Source\PSoC5/WaveDAC_2.c **** /*******************************************************************************
 111:Generated_Source\PSoC5/WaveDAC_2.c **** * Function Name: WaveDAC_2_Start
 112:Generated_Source\PSoC5/WaveDAC_2.c **** ********************************************************************************
 113:Generated_Source\PSoC5/WaveDAC_2.c **** *
 114:Generated_Source\PSoC5/WaveDAC_2.c **** * Summary:
 115:Generated_Source\PSoC5/WaveDAC_2.c **** *  The start function initializes the voltage DAC with the default values, 
 116:Generated_Source\PSoC5/WaveDAC_2.c **** *  and sets the power to the given level.  A power level of 0, is the same as 
 117:Generated_Source\PSoC5/WaveDAC_2.c **** *  executing the stop function.
 118:Generated_Source\PSoC5/WaveDAC_2.c **** *
 119:Generated_Source\PSoC5/WaveDAC_2.c **** * Parameters:  
 120:Generated_Source\PSoC5/WaveDAC_2.c **** *  None
 121:Generated_Source\PSoC5/WaveDAC_2.c **** *
 122:Generated_Source\PSoC5/WaveDAC_2.c **** * Return: 
 123:Generated_Source\PSoC5/WaveDAC_2.c **** *  None
 124:Generated_Source\PSoC5/WaveDAC_2.c **** *
 125:Generated_Source\PSoC5/WaveDAC_2.c **** * Reentrant:
 126:Generated_Source\PSoC5/WaveDAC_2.c **** *  No
 127:Generated_Source\PSoC5/WaveDAC_2.c **** *
 128:Generated_Source\PSoC5/WaveDAC_2.c **** *******************************************************************************/
 129:Generated_Source\PSoC5/WaveDAC_2.c **** void WaveDAC_2_Start(void) 
 130:Generated_Source\PSoC5/WaveDAC_2.c **** {
 131:Generated_Source\PSoC5/WaveDAC_2.c **** 	/* If not Initialized then initialize all required hardware and software */
 132:Generated_Source\PSoC5/WaveDAC_2.c **** 	if(WaveDAC_2_initVar == 0u)
 133:Generated_Source\PSoC5/WaveDAC_2.c **** 	{
 134:Generated_Source\PSoC5/WaveDAC_2.c **** 		WaveDAC_2_Init();
 135:Generated_Source\PSoC5/WaveDAC_2.c **** 		WaveDAC_2_initVar = 1u;
 136:Generated_Source\PSoC5/WaveDAC_2.c **** 	}
 137:Generated_Source\PSoC5/WaveDAC_2.c **** 	
 138:Generated_Source\PSoC5/WaveDAC_2.c **** 	WaveDAC_2_Enable();
 139:Generated_Source\PSoC5/WaveDAC_2.c **** }
 140:Generated_Source\PSoC5/WaveDAC_2.c **** 
 141:Generated_Source\PSoC5/WaveDAC_2.c **** 
 142:Generated_Source\PSoC5/WaveDAC_2.c **** /*******************************************************************************
 143:Generated_Source\PSoC5/WaveDAC_2.c **** * Function Name: WaveDAC_2_StartEx
 144:Generated_Source\PSoC5/WaveDAC_2.c **** ********************************************************************************
 145:Generated_Source\PSoC5/WaveDAC_2.c **** *
 146:Generated_Source\PSoC5/WaveDAC_2.c **** * Summary:
 147:Generated_Source\PSoC5/WaveDAC_2.c **** *  The StartEx function sets pointers and sizes for both waveforms
 148:Generated_Source\PSoC5/WaveDAC_2.c **** *  and then starts the component.
 149:Generated_Source\PSoC5/WaveDAC_2.c **** *
 150:Generated_Source\PSoC5/WaveDAC_2.c **** * Parameters:  
 151:Generated_Source\PSoC5/WaveDAC_2.c **** *   uint8 * wavePtr1:     Pointer to the waveform 1 array.
 152:Generated_Source\PSoC5/WaveDAC_2.c **** *   uint16  sampleSize1:  The amount of samples in the waveform 1.
 153:Generated_Source\PSoC5/WaveDAC_2.c **** *   uint8 * wavePtr2:     Pointer to the waveform 2 array.
 154:Generated_Source\PSoC5/WaveDAC_2.c **** *   uint16  sampleSize2:  The amount of samples in the waveform 2.
 155:Generated_Source\PSoC5/WaveDAC_2.c **** *
 156:Generated_Source\PSoC5/WaveDAC_2.c **** * Return: 
 157:Generated_Source\PSoC5/WaveDAC_2.c **** *  None
 158:Generated_Source\PSoC5/WaveDAC_2.c **** *
 159:Generated_Source\PSoC5/WaveDAC_2.c **** * Reentrant:
ARM GAS  C:\Users\admin\AppData\Local\Temp\ccZEVLam.s 			page 5


 160:Generated_Source\PSoC5/WaveDAC_2.c **** *  No
 161:Generated_Source\PSoC5/WaveDAC_2.c **** *
 162:Generated_Source\PSoC5/WaveDAC_2.c **** *******************************************************************************/
 163:Generated_Source\PSoC5/WaveDAC_2.c **** void WaveDAC_2_StartEx(const uint8 * wavePtr1, uint16 sampleSize1, const uint8 * wavePtr2, uint16 s
 164:Generated_Source\PSoC5/WaveDAC_2.c **** 
 165:Generated_Source\PSoC5/WaveDAC_2.c **** {
 166:Generated_Source\PSoC5/WaveDAC_2.c **** 	WaveDAC_2_Wave1Setup(wavePtr1, sampleSize1);
 167:Generated_Source\PSoC5/WaveDAC_2.c **** 	WaveDAC_2_Wave2Setup(wavePtr2, sampleSize2);
 168:Generated_Source\PSoC5/WaveDAC_2.c **** 	WaveDAC_2_Start();
 169:Generated_Source\PSoC5/WaveDAC_2.c **** }
 170:Generated_Source\PSoC5/WaveDAC_2.c **** 
 171:Generated_Source\PSoC5/WaveDAC_2.c **** 
 172:Generated_Source\PSoC5/WaveDAC_2.c **** /*******************************************************************************
 173:Generated_Source\PSoC5/WaveDAC_2.c **** * Function Name: WaveDAC_2_Stop
 174:Generated_Source\PSoC5/WaveDAC_2.c **** ********************************************************************************
 175:Generated_Source\PSoC5/WaveDAC_2.c **** *
 176:Generated_Source\PSoC5/WaveDAC_2.c **** * Summary:
 177:Generated_Source\PSoC5/WaveDAC_2.c **** *  Stops the clock (if internal), disables the DMA channels
 178:Generated_Source\PSoC5/WaveDAC_2.c **** *  and powers down the DAC.
 179:Generated_Source\PSoC5/WaveDAC_2.c **** *
 180:Generated_Source\PSoC5/WaveDAC_2.c **** * Parameters:  
 181:Generated_Source\PSoC5/WaveDAC_2.c **** *  None  
 182:Generated_Source\PSoC5/WaveDAC_2.c **** *
 183:Generated_Source\PSoC5/WaveDAC_2.c **** * Return: 
 184:Generated_Source\PSoC5/WaveDAC_2.c **** *  None
 185:Generated_Source\PSoC5/WaveDAC_2.c **** *
 186:Generated_Source\PSoC5/WaveDAC_2.c **** *******************************************************************************/
 187:Generated_Source\PSoC5/WaveDAC_2.c **** void WaveDAC_2_Stop(void) 
 188:Generated_Source\PSoC5/WaveDAC_2.c **** {
  70              		.loc 1 188 0
  71              		.cfi_startproc
  72              		@ args = 0, pretend = 0, frame = 0
  73              		@ frame_needed = 0, uses_anonymous_args = 0
  74 0000 10B5     		push	{r4, lr}
  75              		.cfi_def_cfa_offset 8
  76              		.cfi_offset 4, -8
  77              		.cfi_offset 14, -4
 189:Generated_Source\PSoC5/WaveDAC_2.c **** 	/* Turn off internal clock, if one present */
 190:Generated_Source\PSoC5/WaveDAC_2.c **** 	#if(WaveDAC_2_CLOCK_SRC == WaveDAC_2_CLOCK_INT)  	
 191:Generated_Source\PSoC5/WaveDAC_2.c **** 	   WaveDAC_2_DacClk_Stop();
 192:Generated_Source\PSoC5/WaveDAC_2.c **** 	#endif /* WaveDAC_2_CLOCK_SRC == WaveDAC_2_CLOCK_INT */
 193:Generated_Source\PSoC5/WaveDAC_2.c **** 	
 194:Generated_Source\PSoC5/WaveDAC_2.c **** 	/* Disble DMA channels */
 195:Generated_Source\PSoC5/WaveDAC_2.c **** 	(void)CyDmaChDisable(WaveDAC_2_Wave1Chan);
  78              		.loc 1 195 0
  79 0002 054C     		ldr	r4, .L7
  80 0004 2078     		ldrb	r0, [r4]	@ zero_extendqisi2
  81 0006 FFF7FEFF 		bl	CyDmaChDisable
  82              	.LVL4:
 196:Generated_Source\PSoC5/WaveDAC_2.c **** 	(void)CyDmaChDisable(WaveDAC_2_Wave2Chan);
  83              		.loc 1 196 0
  84 000a 6078     		ldrb	r0, [r4, #1]	@ zero_extendqisi2
  85 000c FFF7FEFF 		bl	CyDmaChDisable
  86              	.LVL5:
 197:Generated_Source\PSoC5/WaveDAC_2.c **** 
 198:Generated_Source\PSoC5/WaveDAC_2.c **** 	/* Disable power to DAC */
 199:Generated_Source\PSoC5/WaveDAC_2.c **** 	WaveDAC_2_VDAC8_Stop();
ARM GAS  C:\Users\admin\AppData\Local\Temp\ccZEVLam.s 			page 6


  87              		.loc 1 199 0
  88 0010 FFF7FEFF 		bl	WaveDAC_2_VDAC8_Stop
  89              	.LVL6:
  90 0014 10BD     		pop	{r4, pc}
  91              	.L8:
  92 0016 00BF     		.align	2
  93              	.L7:
  94 0018 00000000 		.word	.LANCHOR0
  95              		.cfi_endproc
  96              	.LFE4:
  97              		.size	WaveDAC_2_Stop, .-WaveDAC_2_Stop
  98              		.section	.text.WaveDAC_2_Wave1Setup,"ax",%progbits
  99              		.align	2
 100              		.global	WaveDAC_2_Wave1Setup
 101              		.thumb
 102              		.thumb_func
 103              		.type	WaveDAC_2_Wave1Setup, %function
 104              	WaveDAC_2_Wave1Setup:
 105              	.LFB5:
 200:Generated_Source\PSoC5/WaveDAC_2.c **** }
 201:Generated_Source\PSoC5/WaveDAC_2.c **** 
 202:Generated_Source\PSoC5/WaveDAC_2.c **** 
 203:Generated_Source\PSoC5/WaveDAC_2.c **** /*******************************************************************************
 204:Generated_Source\PSoC5/WaveDAC_2.c **** * Function Name: WaveDAC_2_Wave1Setup
 205:Generated_Source\PSoC5/WaveDAC_2.c **** ********************************************************************************
 206:Generated_Source\PSoC5/WaveDAC_2.c **** *
 207:Generated_Source\PSoC5/WaveDAC_2.c **** * Summary:
 208:Generated_Source\PSoC5/WaveDAC_2.c **** *  Sets pointer and size for waveform 1.                                    
 209:Generated_Source\PSoC5/WaveDAC_2.c **** *
 210:Generated_Source\PSoC5/WaveDAC_2.c **** * Parameters:  
 211:Generated_Source\PSoC5/WaveDAC_2.c **** *  uint8 * WavePtr:     Pointer to the waveform array.
 212:Generated_Source\PSoC5/WaveDAC_2.c **** *  uint16  SampleSize:  The amount of samples in the waveform.
 213:Generated_Source\PSoC5/WaveDAC_2.c **** *
 214:Generated_Source\PSoC5/WaveDAC_2.c **** * Return: 
 215:Generated_Source\PSoC5/WaveDAC_2.c **** *  None 
 216:Generated_Source\PSoC5/WaveDAC_2.c **** *
 217:Generated_Source\PSoC5/WaveDAC_2.c **** *******************************************************************************/
 218:Generated_Source\PSoC5/WaveDAC_2.c **** void WaveDAC_2_Wave1Setup(const uint8 * wavePtr, uint16 sampleSize)
 219:Generated_Source\PSoC5/WaveDAC_2.c **** 
 220:Generated_Source\PSoC5/WaveDAC_2.c **** {
 106              		.loc 1 220 0
 107              		.cfi_startproc
 108              		@ args = 0, pretend = 0, frame = 0
 109              		@ frame_needed = 0, uses_anonymous_args = 0
 110              	.LVL7:
 111 0000 70B5     		push	{r4, r5, r6, lr}
 112              		.cfi_def_cfa_offset 16
 113              		.cfi_offset 4, -16
 114              		.cfi_offset 5, -12
 115              		.cfi_offset 6, -8
 116              		.cfi_offset 14, -4
 117 0002 0546     		mov	r5, r0
 118 0004 0E46     		mov	r6, r1
 221:Generated_Source\PSoC5/WaveDAC_2.c **** 	#if (CY_PSOC3)
 222:Generated_Source\PSoC5/WaveDAC_2.c **** 		uint16 memoryType; /* determining the source memory type */
 223:Generated_Source\PSoC5/WaveDAC_2.c **** 		memoryType = (WaveDAC_2_HI16FLASHPTR == HI16(wavePtr)) ? HI16(CYDEV_FLS_BASE) : HI16(CYDEV_SRAM_B
 224:Generated_Source\PSoC5/WaveDAC_2.c **** 		
ARM GAS  C:\Users\admin\AppData\Local\Temp\ccZEVLam.s 			page 7


 225:Generated_Source\PSoC5/WaveDAC_2.c **** 		WaveDAC_2_Wave1Chan = WaveDAC_2_Wave1_DMA_DmaInitialize(
 226:Generated_Source\PSoC5/WaveDAC_2.c **** 		WaveDAC_2_Wave1_DMA_BYTES_PER_BURST, WaveDAC_2_Wave1_DMA_REQUEST_PER_BURST,
 227:Generated_Source\PSoC5/WaveDAC_2.c **** 		memoryType, HI16(CYDEV_PERIPH_BASE));
 228:Generated_Source\PSoC5/WaveDAC_2.c **** 	#else /* PSoC 5 */
 229:Generated_Source\PSoC5/WaveDAC_2.c **** 		WaveDAC_2_Wave1Chan = WaveDAC_2_Wave1_DMA_DmaInitialize(
 119              		.loc 1 229 0
 120 0006 4FF48043 		mov	r3, #16384
 121 000a 020C     		lsrs	r2, r0, #16
 122 000c 0121     		movs	r1, #1
 123              	.LVL8:
 124 000e 0846     		mov	r0, r1
 125              	.LVL9:
 126 0010 FFF7FEFF 		bl	WaveDAC_2_Wave1_DMA_DmaInitialize
 127              	.LVL10:
 128 0014 094C     		ldr	r4, .L11
 129 0016 2070     		strb	r0, [r4]
 230:Generated_Source\PSoC5/WaveDAC_2.c **** 		WaveDAC_2_Wave1_DMA_BYTES_PER_BURST, WaveDAC_2_Wave1_DMA_REQUEST_PER_BURST,
 231:Generated_Source\PSoC5/WaveDAC_2.c **** 		HI16(wavePtr), HI16(WaveDAC_2_DAC8__D));
 232:Generated_Source\PSoC5/WaveDAC_2.c **** 	#endif /* CY_PSOC3 */
 233:Generated_Source\PSoC5/WaveDAC_2.c **** 	
 234:Generated_Source\PSoC5/WaveDAC_2.c **** 	/*
 235:Generated_Source\PSoC5/WaveDAC_2.c **** 	* TD is looping on itself. 
 236:Generated_Source\PSoC5/WaveDAC_2.c ****     * Increment the source address, but not the destination address. 
 237:Generated_Source\PSoC5/WaveDAC_2.c **** 	*/
 238:Generated_Source\PSoC5/WaveDAC_2.c **** 	(void)CyDmaTdSetConfiguration(WaveDAC_2_Wave1TD, sampleSize, WaveDAC_2_Wave1TD, 
 130              		.loc 1 238 0
 131 0018 A078     		ldrb	r0, [r4, #2]	@ zero_extendqisi2
 132 001a 0123     		movs	r3, #1
 133 001c 0246     		mov	r2, r0
 134 001e 3146     		mov	r1, r6
 135 0020 FFF7FEFF 		bl	CyDmaTdSetConfiguration
 136              	.LVL11:
 239:Generated_Source\PSoC5/WaveDAC_2.c ****                                     (uint8)CY_DMA_TD_INC_SRC_ADR | (uint8)WaveDAC_2_Wave1_DMA__TD_T
 240:Generated_Source\PSoC5/WaveDAC_2.c **** 	
 241:Generated_Source\PSoC5/WaveDAC_2.c **** 	/* Set the TD source and destination address */
 242:Generated_Source\PSoC5/WaveDAC_2.c **** 	(void)CyDmaTdSetAddress(WaveDAC_2_Wave1TD, LO16((uint32)wavePtr), LO16(WaveDAC_2_DAC8__D));
 137              		.loc 1 242 0
 138 0024 4FF4B742 		mov	r2, #23424
 139 0028 A9B2     		uxth	r1, r5
 140 002a A078     		ldrb	r0, [r4, #2]	@ zero_extendqisi2
 141 002c FFF7FEFF 		bl	CyDmaTdSetAddress
 142              	.LVL12:
 243:Generated_Source\PSoC5/WaveDAC_2.c **** 	
 244:Generated_Source\PSoC5/WaveDAC_2.c **** 	/* Associate the TD with the channel */
 245:Generated_Source\PSoC5/WaveDAC_2.c **** 	(void)CyDmaChSetInitialTd(WaveDAC_2_Wave1Chan, WaveDAC_2_Wave1TD);
 143              		.loc 1 245 0
 144 0030 A178     		ldrb	r1, [r4, #2]	@ zero_extendqisi2
 145 0032 2078     		ldrb	r0, [r4]	@ zero_extendqisi2
 146 0034 FFF7FEFF 		bl	CyDmaChSetInitialTd
 147              	.LVL13:
 148 0038 70BD     		pop	{r4, r5, r6, pc}
 149              	.LVL14:
 150              	.L12:
 151 003a 00BF     		.align	2
 152              	.L11:
 153 003c 00000000 		.word	.LANCHOR0
 154              		.cfi_endproc
ARM GAS  C:\Users\admin\AppData\Local\Temp\ccZEVLam.s 			page 8


 155              	.LFE5:
 156              		.size	WaveDAC_2_Wave1Setup, .-WaveDAC_2_Wave1Setup
 157              		.section	.text.WaveDAC_2_Wave2Setup,"ax",%progbits
 158              		.align	2
 159              		.global	WaveDAC_2_Wave2Setup
 160              		.thumb
 161              		.thumb_func
 162              		.type	WaveDAC_2_Wave2Setup, %function
 163              	WaveDAC_2_Wave2Setup:
 164              	.LFB6:
 246:Generated_Source\PSoC5/WaveDAC_2.c **** }
 247:Generated_Source\PSoC5/WaveDAC_2.c **** 
 248:Generated_Source\PSoC5/WaveDAC_2.c **** 
 249:Generated_Source\PSoC5/WaveDAC_2.c **** /*******************************************************************************
 250:Generated_Source\PSoC5/WaveDAC_2.c **** * Function Name: WaveDAC_2_Wave2Setup
 251:Generated_Source\PSoC5/WaveDAC_2.c **** ********************************************************************************
 252:Generated_Source\PSoC5/WaveDAC_2.c **** *
 253:Generated_Source\PSoC5/WaveDAC_2.c **** * Summary:
 254:Generated_Source\PSoC5/WaveDAC_2.c **** *  Sets pointer and size for waveform 2.                                    
 255:Generated_Source\PSoC5/WaveDAC_2.c **** *
 256:Generated_Source\PSoC5/WaveDAC_2.c **** * Parameters:  
 257:Generated_Source\PSoC5/WaveDAC_2.c **** *  uint8 * WavePtr:     Pointer to the waveform array.
 258:Generated_Source\PSoC5/WaveDAC_2.c **** *  uint16  SampleSize:  The amount of samples in the waveform.
 259:Generated_Source\PSoC5/WaveDAC_2.c **** *
 260:Generated_Source\PSoC5/WaveDAC_2.c **** * Return: 
 261:Generated_Source\PSoC5/WaveDAC_2.c **** *  None
 262:Generated_Source\PSoC5/WaveDAC_2.c **** *
 263:Generated_Source\PSoC5/WaveDAC_2.c **** *******************************************************************************/
 264:Generated_Source\PSoC5/WaveDAC_2.c **** void WaveDAC_2_Wave2Setup(const uint8 * wavePtr, uint16 sampleSize)
 265:Generated_Source\PSoC5/WaveDAC_2.c ****  
 266:Generated_Source\PSoC5/WaveDAC_2.c **** {
 165              		.loc 1 266 0
 166              		.cfi_startproc
 167              		@ args = 0, pretend = 0, frame = 0
 168              		@ frame_needed = 0, uses_anonymous_args = 0
 169              	.LVL15:
 170 0000 70B5     		push	{r4, r5, r6, lr}
 171              		.cfi_def_cfa_offset 16
 172              		.cfi_offset 4, -16
 173              		.cfi_offset 5, -12
 174              		.cfi_offset 6, -8
 175              		.cfi_offset 14, -4
 176 0002 0546     		mov	r5, r0
 177 0004 0E46     		mov	r6, r1
 267:Generated_Source\PSoC5/WaveDAC_2.c **** 	#if (CY_PSOC3)
 268:Generated_Source\PSoC5/WaveDAC_2.c **** 		uint16 memoryType; /* determining the source memory type */
 269:Generated_Source\PSoC5/WaveDAC_2.c **** 		memoryType = (WaveDAC_2_HI16FLASHPTR == HI16(wavePtr)) ? HI16(CYDEV_FLS_BASE) : HI16(CYDEV_SRAM_B
 270:Generated_Source\PSoC5/WaveDAC_2.c **** 			
 271:Generated_Source\PSoC5/WaveDAC_2.c **** 		WaveDAC_2_Wave2Chan = WaveDAC_2_Wave2_DMA_DmaInitialize(
 272:Generated_Source\PSoC5/WaveDAC_2.c **** 		WaveDAC_2_Wave2_DMA_BYTES_PER_BURST, WaveDAC_2_Wave2_DMA_REQUEST_PER_BURST,
 273:Generated_Source\PSoC5/WaveDAC_2.c **** 		memoryType, HI16(CYDEV_PERIPH_BASE));
 274:Generated_Source\PSoC5/WaveDAC_2.c **** 	#else /* PSoC 5 */
 275:Generated_Source\PSoC5/WaveDAC_2.c **** 		WaveDAC_2_Wave2Chan = WaveDAC_2_Wave2_DMA_DmaInitialize(
 178              		.loc 1 275 0
 179 0006 4FF48043 		mov	r3, #16384
 180 000a 020C     		lsrs	r2, r0, #16
 181 000c 0121     		movs	r1, #1
ARM GAS  C:\Users\admin\AppData\Local\Temp\ccZEVLam.s 			page 9


 182              	.LVL16:
 183 000e 0846     		mov	r0, r1
 184              	.LVL17:
 185 0010 FFF7FEFF 		bl	WaveDAC_2_Wave2_DMA_DmaInitialize
 186              	.LVL18:
 187 0014 094C     		ldr	r4, .L15
 188 0016 6070     		strb	r0, [r4, #1]
 276:Generated_Source\PSoC5/WaveDAC_2.c **** 		WaveDAC_2_Wave2_DMA_BYTES_PER_BURST, WaveDAC_2_Wave2_DMA_REQUEST_PER_BURST,
 277:Generated_Source\PSoC5/WaveDAC_2.c **** 		HI16(wavePtr), HI16(WaveDAC_2_DAC8__D));
 278:Generated_Source\PSoC5/WaveDAC_2.c **** 	#endif /* CY_PSOC3 */
 279:Generated_Source\PSoC5/WaveDAC_2.c **** 	
 280:Generated_Source\PSoC5/WaveDAC_2.c **** 	/*
 281:Generated_Source\PSoC5/WaveDAC_2.c **** 	* TD is looping on itself. 
 282:Generated_Source\PSoC5/WaveDAC_2.c **** 	* Increment the source address, but not the destination address. 
 283:Generated_Source\PSoC5/WaveDAC_2.c **** 	*/
 284:Generated_Source\PSoC5/WaveDAC_2.c **** 	(void)CyDmaTdSetConfiguration(WaveDAC_2_Wave2TD, sampleSize, WaveDAC_2_Wave2TD, 
 189              		.loc 1 284 0
 190 0018 E078     		ldrb	r0, [r4, #3]	@ zero_extendqisi2
 191 001a 0123     		movs	r3, #1
 192 001c 0246     		mov	r2, r0
 193 001e 3146     		mov	r1, r6
 194 0020 FFF7FEFF 		bl	CyDmaTdSetConfiguration
 195              	.LVL19:
 285:Generated_Source\PSoC5/WaveDAC_2.c ****                                     (uint8)CY_DMA_TD_INC_SRC_ADR | (uint8)WaveDAC_2_Wave2_DMA__TD_T
 286:Generated_Source\PSoC5/WaveDAC_2.c **** 	
 287:Generated_Source\PSoC5/WaveDAC_2.c **** 	/* Set the TD source and destination address */
 288:Generated_Source\PSoC5/WaveDAC_2.c **** 	(void)CyDmaTdSetAddress(WaveDAC_2_Wave2TD, LO16((uint32)wavePtr), LO16(WaveDAC_2_DAC8__D));
 196              		.loc 1 288 0
 197 0024 4FF4B742 		mov	r2, #23424
 198 0028 A9B2     		uxth	r1, r5
 199 002a E078     		ldrb	r0, [r4, #3]	@ zero_extendqisi2
 200 002c FFF7FEFF 		bl	CyDmaTdSetAddress
 201              	.LVL20:
 289:Generated_Source\PSoC5/WaveDAC_2.c **** 	
 290:Generated_Source\PSoC5/WaveDAC_2.c **** 	/* Associate the TD with the channel */
 291:Generated_Source\PSoC5/WaveDAC_2.c **** 	(void)CyDmaChSetInitialTd(WaveDAC_2_Wave2Chan, WaveDAC_2_Wave2TD);
 202              		.loc 1 291 0
 203 0030 E178     		ldrb	r1, [r4, #3]	@ zero_extendqisi2
 204 0032 6078     		ldrb	r0, [r4, #1]	@ zero_extendqisi2
 205 0034 FFF7FEFF 		bl	CyDmaChSetInitialTd
 206              	.LVL21:
 207 0038 70BD     		pop	{r4, r5, r6, pc}
 208              	.LVL22:
 209              	.L16:
 210 003a 00BF     		.align	2
 211              	.L15:
 212 003c 00000000 		.word	.LANCHOR0
 213              		.cfi_endproc
 214              	.LFE6:
 215              		.size	WaveDAC_2_Wave2Setup, .-WaveDAC_2_Wave2Setup
 216              		.section	.text.WaveDAC_2_Init,"ax",%progbits
 217              		.align	2
 218              		.global	WaveDAC_2_Init
 219              		.thumb
 220              		.thumb_func
 221              		.type	WaveDAC_2_Init, %function
 222              	WaveDAC_2_Init:
ARM GAS  C:\Users\admin\AppData\Local\Temp\ccZEVLam.s 			page 10


 223              	.LFB0:
  44:Generated_Source\PSoC5/WaveDAC_2.c **** 	WaveDAC_2_VDAC8_Init();
 224              		.loc 1 44 0
 225              		.cfi_startproc
 226              		@ args = 0, pretend = 0, frame = 0
 227              		@ frame_needed = 0, uses_anonymous_args = 0
 228 0000 10B5     		push	{r4, lr}
 229              		.cfi_def_cfa_offset 8
 230              		.cfi_offset 4, -8
 231              		.cfi_offset 14, -4
  45:Generated_Source\PSoC5/WaveDAC_2.c **** 	WaveDAC_2_VDAC8_SetSpeed(WaveDAC_2_HIGHSPEED);
 232              		.loc 1 45 0
 233 0002 FFF7FEFF 		bl	WaveDAC_2_VDAC8_Init
 234              	.LVL23:
  46:Generated_Source\PSoC5/WaveDAC_2.c **** 	WaveDAC_2_VDAC8_SetRange(WaveDAC_2_DAC_RANGE);
 235              		.loc 1 46 0
 236 0006 0220     		movs	r0, #2
 237 0008 FFF7FEFF 		bl	WaveDAC_2_VDAC8_SetSpeed
 238              	.LVL24:
  47:Generated_Source\PSoC5/WaveDAC_2.c **** 
 239              		.loc 1 47 0
 240 000c 0420     		movs	r0, #4
 241 000e FFF7FEFF 		bl	WaveDAC_2_VDAC8_SetRange
 242              	.LVL25:
  58:Generated_Source\PSoC5/WaveDAC_2.c **** 	WaveDAC_2_Wave2TD = CyDmaTdAllocate();
 243              		.loc 1 58 0
 244 0012 FFF7FEFF 		bl	CyDmaTdAllocate
 245              	.LVL26:
 246 0016 074C     		ldr	r4, .L19
 247 0018 A070     		strb	r0, [r4, #2]
  59:Generated_Source\PSoC5/WaveDAC_2.c **** 	
 248              		.loc 1 59 0
 249 001a FFF7FEFF 		bl	CyDmaTdAllocate
 250              	.LVL27:
 251 001e E070     		strb	r0, [r4, #3]
  62:Generated_Source\PSoC5/WaveDAC_2.c **** 	WaveDAC_2_Wave2Setup(WaveDAC_2_wave2, WaveDAC_2_WAVE2_LENGTH) ;
 252              		.loc 1 62 0
 253 0020 054C     		ldr	r4, .L19+4
 254 0022 6421     		movs	r1, #100
 255 0024 2046     		mov	r0, r4
 256 0026 FFF7FEFF 		bl	WaveDAC_2_Wave1Setup
 257              	.LVL28:
  63:Generated_Source\PSoC5/WaveDAC_2.c **** 	
 258              		.loc 1 63 0
 259 002a 6421     		movs	r1, #100
 260 002c 6018     		adds	r0, r4, r1
 261 002e FFF7FEFF 		bl	WaveDAC_2_Wave2Setup
 262              	.LVL29:
 263 0032 10BD     		pop	{r4, pc}
 264              	.L20:
 265              		.align	2
 266              	.L19:
 267 0034 00000000 		.word	.LANCHOR0
 268 0038 00000000 		.word	.LANCHOR1
 269              		.cfi_endproc
 270              	.LFE0:
 271              		.size	WaveDAC_2_Init, .-WaveDAC_2_Init
ARM GAS  C:\Users\admin\AppData\Local\Temp\ccZEVLam.s 			page 11


 272              		.section	.text.WaveDAC_2_Start,"ax",%progbits
 273              		.align	2
 274              		.global	WaveDAC_2_Start
 275              		.thumb
 276              		.thumb_func
 277              		.type	WaveDAC_2_Start, %function
 278              	WaveDAC_2_Start:
 279              	.LFB2:
 130:Generated_Source\PSoC5/WaveDAC_2.c **** 	/* If not Initialized then initialize all required hardware and software */
 280              		.loc 1 130 0
 281              		.cfi_startproc
 282              		@ args = 0, pretend = 0, frame = 0
 283              		@ frame_needed = 0, uses_anonymous_args = 0
 284 0000 08B5     		push	{r3, lr}
 285              		.cfi_def_cfa_offset 8
 286              		.cfi_offset 3, -8
 287              		.cfi_offset 14, -4
 132:Generated_Source\PSoC5/WaveDAC_2.c **** 	{
 288              		.loc 1 132 0
 289 0002 054B     		ldr	r3, .L24
 290 0004 1B79     		ldrb	r3, [r3, #4]	@ zero_extendqisi2
 291 0006 23B9     		cbnz	r3, .L22
 134:Generated_Source\PSoC5/WaveDAC_2.c **** 		WaveDAC_2_initVar = 1u;
 292              		.loc 1 134 0
 293 0008 FFF7FEFF 		bl	WaveDAC_2_Init
 294              	.LVL30:
 135:Generated_Source\PSoC5/WaveDAC_2.c **** 	}
 295              		.loc 1 135 0
 296 000c 0122     		movs	r2, #1
 297 000e 024B     		ldr	r3, .L24
 298 0010 1A71     		strb	r2, [r3, #4]
 299              	.L22:
 138:Generated_Source\PSoC5/WaveDAC_2.c **** }
 300              		.loc 1 138 0
 301 0012 FFF7FEFF 		bl	WaveDAC_2_Enable
 302              	.LVL31:
 303 0016 08BD     		pop	{r3, pc}
 304              	.L25:
 305              		.align	2
 306              	.L24:
 307 0018 00000000 		.word	.LANCHOR0
 308              		.cfi_endproc
 309              	.LFE2:
 310              		.size	WaveDAC_2_Start, .-WaveDAC_2_Start
 311              		.section	.text.WaveDAC_2_StartEx,"ax",%progbits
 312              		.align	2
 313              		.global	WaveDAC_2_StartEx
 314              		.thumb
 315              		.thumb_func
 316              		.type	WaveDAC_2_StartEx, %function
 317              	WaveDAC_2_StartEx:
 318              	.LFB3:
 165:Generated_Source\PSoC5/WaveDAC_2.c **** 	WaveDAC_2_Wave1Setup(wavePtr1, sampleSize1);
 319              		.loc 1 165 0
 320              		.cfi_startproc
 321              		@ args = 0, pretend = 0, frame = 0
 322              		@ frame_needed = 0, uses_anonymous_args = 0
ARM GAS  C:\Users\admin\AppData\Local\Temp\ccZEVLam.s 			page 12


 323              	.LVL32:
 324 0000 38B5     		push	{r3, r4, r5, lr}
 325              		.cfi_def_cfa_offset 16
 326              		.cfi_offset 3, -16
 327              		.cfi_offset 4, -12
 328              		.cfi_offset 5, -8
 329              		.cfi_offset 14, -4
 330 0002 1446     		mov	r4, r2
 331 0004 1D46     		mov	r5, r3
 166:Generated_Source\PSoC5/WaveDAC_2.c **** 	WaveDAC_2_Wave2Setup(wavePtr2, sampleSize2);
 332              		.loc 1 166 0
 333 0006 FFF7FEFF 		bl	WaveDAC_2_Wave1Setup
 334              	.LVL33:
 167:Generated_Source\PSoC5/WaveDAC_2.c **** 	WaveDAC_2_Start();
 335              		.loc 1 167 0
 336 000a 2946     		mov	r1, r5
 337 000c 2046     		mov	r0, r4
 338 000e FFF7FEFF 		bl	WaveDAC_2_Wave2Setup
 339              	.LVL34:
 168:Generated_Source\PSoC5/WaveDAC_2.c **** }
 340              		.loc 1 168 0
 341 0012 FFF7FEFF 		bl	WaveDAC_2_Start
 342              	.LVL35:
 343 0016 38BD     		pop	{r3, r4, r5, pc}
 344              		.cfi_endproc
 345              	.LFE3:
 346              		.size	WaveDAC_2_StartEx, .-WaveDAC_2_StartEx
 347              		.global	WaveDAC_2_wave2
 348              		.global	WaveDAC_2_wave1
 349              		.global	WaveDAC_2_initVar
 350              		.section	.rodata
 351              		.align	2
 352              		.set	.LANCHOR1,. + 0
 353              		.type	WaveDAC_2_wave1, %object
 354              		.size	WaveDAC_2_wave1, 100
 355              	WaveDAC_2_wave1:
 356 0000 80       		.byte	-128
 357 0001 87       		.byte	-121
 358 0002 8F       		.byte	-113
 359 0003 97       		.byte	-105
 360 0004 9F       		.byte	-97
 361 0005 A6       		.byte	-90
 362 0006 AE       		.byte	-82
 363 0007 B5       		.byte	-75
 364 0008 BC       		.byte	-68
 365 0009 C2       		.byte	-62
 366 000a C9       		.byte	-55
 367 000b CF       		.byte	-49
 368 000c D5       		.byte	-43
 369 000d DB       		.byte	-37
 370 000e E0       		.byte	-32
 371 000f E5       		.byte	-27
 372 0010 E9       		.byte	-23
 373 0011 ED       		.byte	-19
 374 0012 F1       		.byte	-15
 375 0013 F4       		.byte	-12
 376 0014 F6       		.byte	-10
ARM GAS  C:\Users\admin\AppData\Local\Temp\ccZEVLam.s 			page 13


 377 0015 F9       		.byte	-7
 378 0016 FA       		.byte	-6
 379 0017 FC       		.byte	-4
 380 0018 FC       		.byte	-4
 381 0019 FC       		.byte	-4
 382 001a FC       		.byte	-4
 383 001b FC       		.byte	-4
 384 001c FA       		.byte	-6
 385 001d F9       		.byte	-7
 386 001e F6       		.byte	-10
 387 001f F4       		.byte	-12
 388 0020 F1       		.byte	-15
 389 0021 ED       		.byte	-19
 390 0022 E9       		.byte	-23
 391 0023 E5       		.byte	-27
 392 0024 E0       		.byte	-32
 393 0025 DB       		.byte	-37
 394 0026 D5       		.byte	-43
 395 0027 CF       		.byte	-49
 396 0028 C9       		.byte	-55
 397 0029 C2       		.byte	-62
 398 002a BC       		.byte	-68
 399 002b B5       		.byte	-75
 400 002c AE       		.byte	-82
 401 002d A6       		.byte	-90
 402 002e 9F       		.byte	-97
 403 002f 97       		.byte	-105
 404 0030 8F       		.byte	-113
 405 0031 87       		.byte	-121
 406 0032 80       		.byte	-128
 407 0033 78       		.byte	120
 408 0034 70       		.byte	112
 409 0035 68       		.byte	104
 410 0036 60       		.byte	96
 411 0037 59       		.byte	89
 412 0038 51       		.byte	81
 413 0039 4A       		.byte	74
 414 003a 43       		.byte	67
 415 003b 3D       		.byte	61
 416 003c 36       		.byte	54
 417 003d 30       		.byte	48
 418 003e 2A       		.byte	42
 419 003f 24       		.byte	36
 420 0040 1F       		.byte	31
 421 0041 1A       		.byte	26
 422 0042 16       		.byte	22
 423 0043 12       		.byte	18
 424 0044 0E       		.byte	14
 425 0045 0B       		.byte	11
 426 0046 09       		.byte	9
 427 0047 06       		.byte	6
 428 0048 05       		.byte	5
 429 0049 03       		.byte	3
 430 004a 03       		.byte	3
 431 004b 03       		.byte	3
 432 004c 03       		.byte	3
 433 004d 03       		.byte	3
ARM GAS  C:\Users\admin\AppData\Local\Temp\ccZEVLam.s 			page 14


 434 004e 05       		.byte	5
 435 004f 06       		.byte	6
 436 0050 09       		.byte	9
 437 0051 0B       		.byte	11
 438 0052 0E       		.byte	14
 439 0053 12       		.byte	18
 440 0054 16       		.byte	22
 441 0055 1A       		.byte	26
 442 0056 1F       		.byte	31
 443 0057 24       		.byte	36
 444 0058 2A       		.byte	42
 445 0059 30       		.byte	48
 446 005a 36       		.byte	54
 447 005b 3D       		.byte	61
 448 005c 43       		.byte	67
 449 005d 4A       		.byte	74
 450 005e 51       		.byte	81
 451 005f 59       		.byte	89
 452 0060 60       		.byte	96
 453 0061 68       		.byte	104
 454 0062 70       		.byte	112
 455 0063 78       		.byte	120
 456              		.type	WaveDAC_2_wave2, %object
 457              		.size	WaveDAC_2_wave2, 100
 458              	WaveDAC_2_wave2:
 459 0064 80       		.byte	-128
 460 0065 84       		.byte	-124
 461 0066 8A       		.byte	-118
 462 0067 8F       		.byte	-113
 463 0068 94       		.byte	-108
 464 0069 98       		.byte	-104
 465 006a 9E       		.byte	-98
 466 006b A2       		.byte	-94
 467 006c A8       		.byte	-88
 468 006d AC       		.byte	-84
 469 006e B2       		.byte	-78
 470 006f B6       		.byte	-74
 471 0070 BC       		.byte	-68
 472 0071 C0       		.byte	-64
 473 0072 C6       		.byte	-58
 474 0073 CA       		.byte	-54
 475 0074 D0       		.byte	-48
 476 0075 D5       		.byte	-43
 477 0076 DA       		.byte	-38
 478 0077 DE       		.byte	-34
 479 0078 E4       		.byte	-28
 480 0079 E8       		.byte	-24
 481 007a EE       		.byte	-18
 482 007b F2       		.byte	-14
 483 007c F8       		.byte	-8
 484 007d FC       		.byte	-4
 485 007e F8       		.byte	-8
 486 007f F2       		.byte	-14
 487 0080 EE       		.byte	-18
 488 0081 E8       		.byte	-24
 489 0082 E4       		.byte	-28
 490 0083 DE       		.byte	-34
ARM GAS  C:\Users\admin\AppData\Local\Temp\ccZEVLam.s 			page 15


 491 0084 DA       		.byte	-38
 492 0085 D4       		.byte	-44
 493 0086 D0       		.byte	-48
 494 0087 CA       		.byte	-54
 495 0088 C6       		.byte	-58
 496 0089 C0       		.byte	-64
 497 008a BC       		.byte	-68
 498 008b B6       		.byte	-74
 499 008c B2       		.byte	-78
 500 008d AD       		.byte	-83
 501 008e A8       		.byte	-88
 502 008f A2       		.byte	-94
 503 0090 9E       		.byte	-98
 504 0091 98       		.byte	-104
 505 0092 94       		.byte	-108
 506 0093 8F       		.byte	-113
 507 0094 8A       		.byte	-118
 508 0095 84       		.byte	-124
 509 0096 80       		.byte	-128
 510 0097 7A       		.byte	122
 511 0098 76       		.byte	118
 512 0099 70       		.byte	112
 513 009a 6B       		.byte	107
 514 009b 66       		.byte	102
 515 009c 61       		.byte	97
 516 009d 5D       		.byte	93
 517 009e 58       		.byte	88
 518 009f 53       		.byte	83
 519 00a0 4E       		.byte	78
 520 00a1 49       		.byte	73
 521 00a2 44       		.byte	68
 522 00a3 3E       		.byte	62
 523 00a4 39       		.byte	57
 524 00a5 34       		.byte	52
 525 00a6 2F       		.byte	47
 526 00a7 2A       		.byte	42
 527 00a8 25       		.byte	37
 528 00a9 21       		.byte	33
 529 00aa 1C       		.byte	28
 530 00ab 17       		.byte	23
 531 00ac 12       		.byte	18
 532 00ad 0D       		.byte	13
 533 00ae 08       		.byte	8
 534 00af 03       		.byte	3
 535 00b0 08       		.byte	8
 536 00b1 0D       		.byte	13
 537 00b2 12       		.byte	18
 538 00b3 17       		.byte	23
 539 00b4 1C       		.byte	28
 540 00b5 21       		.byte	33
 541 00b6 25       		.byte	37
 542 00b7 2A       		.byte	42
 543 00b8 2F       		.byte	47
 544 00b9 34       		.byte	52
 545 00ba 39       		.byte	57
 546 00bb 3E       		.byte	62
 547 00bc 44       		.byte	68
ARM GAS  C:\Users\admin\AppData\Local\Temp\ccZEVLam.s 			page 16


 548 00bd 49       		.byte	73
 549 00be 4E       		.byte	78
 550 00bf 53       		.byte	83
 551 00c0 58       		.byte	88
 552 00c1 5D       		.byte	93
 553 00c2 61       		.byte	97
 554 00c3 66       		.byte	102
 555 00c4 6B       		.byte	107
 556 00c5 70       		.byte	112
 557 00c6 76       		.byte	118
 558 00c7 7A       		.byte	122
 559              		.bss
 560              		.set	.LANCHOR0,. + 0
 561              		.type	WaveDAC_2_Wave1Chan, %object
 562              		.size	WaveDAC_2_Wave1Chan, 1
 563              	WaveDAC_2_Wave1Chan:
 564 0000 00       		.space	1
 565              		.type	WaveDAC_2_Wave2Chan, %object
 566              		.size	WaveDAC_2_Wave2Chan, 1
 567              	WaveDAC_2_Wave2Chan:
 568 0001 00       		.space	1
 569              		.type	WaveDAC_2_Wave1TD, %object
 570              		.size	WaveDAC_2_Wave1TD, 1
 571              	WaveDAC_2_Wave1TD:
 572 0002 00       		.space	1
 573              		.type	WaveDAC_2_Wave2TD, %object
 574              		.size	WaveDAC_2_Wave2TD, 1
 575              	WaveDAC_2_Wave2TD:
 576 0003 00       		.space	1
 577              		.type	WaveDAC_2_initVar, %object
 578              		.size	WaveDAC_2_initVar, 1
 579              	WaveDAC_2_initVar:
 580 0004 00       		.space	1
 581              		.text
 582              	.Letext0:
 583              		.file 2 "Generated_Source\\PSoC5\\cytypes.h"
 584              		.file 3 "Generated_Source\\PSoC5/WaveDAC_2_VDAC8.h"
 585              		.file 4 "Generated_Source\\PSoC5/CYDMAC.H"
 586              		.file 5 "Generated_Source\\PSoC5/WaveDAC_2_Wave1_DMA_dma.h"
 587              		.file 6 "Generated_Source\\PSoC5/WaveDAC_2_Wave2_DMA_dma.h"
 588              		.section	.debug_info,"",%progbits
 589              	.Ldebug_info0:
 590 0000 D7040000 		.4byte	0x4d7
 591 0004 0400     		.2byte	0x4
 592 0006 00000000 		.4byte	.Ldebug_abbrev0
 593 000a 04       		.byte	0x4
 594 000b 01       		.uleb128 0x1
 595 000c BE010000 		.4byte	.LASF51
 596 0010 0C       		.byte	0xc
 597 0011 CC000000 		.4byte	.LASF52
 598 0015 23000000 		.4byte	.LASF53
 599 0019 00000000 		.4byte	.Ldebug_ranges0+0
 600 001d 00000000 		.4byte	0
 601 0021 00000000 		.4byte	.Ldebug_line0
 602 0025 02       		.uleb128 0x2
 603 0026 01       		.byte	0x1
 604 0027 06       		.byte	0x6
ARM GAS  C:\Users\admin\AppData\Local\Temp\ccZEVLam.s 			page 17


 605 0028 03040000 		.4byte	.LASF0
 606 002c 02       		.uleb128 0x2
 607 002d 01       		.byte	0x1
 608 002e 08       		.byte	0x8
 609 002f BC020000 		.4byte	.LASF1
 610 0033 02       		.uleb128 0x2
 611 0034 02       		.byte	0x2
 612 0035 05       		.byte	0x5
 613 0036 A6030000 		.4byte	.LASF2
 614 003a 02       		.uleb128 0x2
 615 003b 02       		.byte	0x2
 616 003c 07       		.byte	0x7
 617 003d 1A010000 		.4byte	.LASF3
 618 0041 02       		.uleb128 0x2
 619 0042 04       		.byte	0x4
 620 0043 05       		.byte	0x5
 621 0044 E8030000 		.4byte	.LASF4
 622 0048 02       		.uleb128 0x2
 623 0049 04       		.byte	0x4
 624 004a 07       		.byte	0x7
 625 004b 74020000 		.4byte	.LASF5
 626 004f 02       		.uleb128 0x2
 627 0050 08       		.byte	0x8
 628 0051 05       		.byte	0x5
 629 0052 71030000 		.4byte	.LASF6
 630 0056 02       		.uleb128 0x2
 631 0057 08       		.byte	0x8
 632 0058 07       		.byte	0x7
 633 0059 2A030000 		.4byte	.LASF7
 634 005d 03       		.uleb128 0x3
 635 005e 04       		.byte	0x4
 636 005f 05       		.byte	0x5
 637 0060 696E7400 		.ascii	"int\000"
 638 0064 02       		.uleb128 0x2
 639 0065 04       		.byte	0x4
 640 0066 07       		.byte	0x7
 641 0067 1D030000 		.4byte	.LASF8
 642 006b 04       		.uleb128 0x4
 643 006c 8E020000 		.4byte	.LASF9
 644 0070 02       		.byte	0x2
 645 0071 E401     		.2byte	0x1e4
 646 0073 2C000000 		.4byte	0x2c
 647 0077 04       		.uleb128 0x4
 648 0078 0F030000 		.4byte	.LASF10
 649 007c 02       		.byte	0x2
 650 007d E501     		.2byte	0x1e5
 651 007f 3A000000 		.4byte	0x3a
 652 0083 04       		.uleb128 0x4
 653 0084 16030000 		.4byte	.LASF11
 654 0088 02       		.byte	0x2
 655 0089 E601     		.2byte	0x1e6
 656 008b 48000000 		.4byte	0x48
 657 008f 02       		.uleb128 0x2
 658 0090 04       		.byte	0x4
 659 0091 04       		.byte	0x4
 660 0092 FD030000 		.4byte	.LASF12
 661 0096 02       		.uleb128 0x2
ARM GAS  C:\Users\admin\AppData\Local\Temp\ccZEVLam.s 			page 18


 662 0097 08       		.byte	0x8
 663 0098 04       		.byte	0x4
 664 0099 E3020000 		.4byte	.LASF13
 665 009d 02       		.uleb128 0x2
 666 009e 01       		.byte	0x1
 667 009f 08       		.byte	0x8
 668 00a0 8F030000 		.4byte	.LASF14
 669 00a4 02       		.uleb128 0x2
 670 00a5 08       		.byte	0x8
 671 00a6 04       		.byte	0x4
 672 00a7 F1030000 		.4byte	.LASF15
 673 00ab 02       		.uleb128 0x2
 674 00ac 04       		.byte	0x4
 675 00ad 07       		.byte	0x7
 676 00ae 68030000 		.4byte	.LASF16
 677 00b2 05       		.uleb128 0x5
 678 00b3 12000000 		.4byte	.LASF17
 679 00b7 01       		.byte	0x1
 680 00b8 56       		.byte	0x56
 681 00b9 00000000 		.4byte	.LFB1
 682 00bd 24000000 		.4byte	.LFE1-.LFB1
 683 00c1 01       		.uleb128 0x1
 684 00c2 9C       		.byte	0x9c
 685 00c3 06010000 		.4byte	0x106
 686 00c7 06       		.uleb128 0x6
 687 00c8 06000000 		.4byte	.LVL0
 688 00cc 40040000 		.4byte	0x440
 689 00d0 07       		.uleb128 0x7
 690 00d1 10000000 		.4byte	.LVL1
 691 00d5 4B040000 		.4byte	0x44b
 692 00d9 E3000000 		.4byte	0xe3
 693 00dd 08       		.uleb128 0x8
 694 00de 01       		.uleb128 0x1
 695 00df 51       		.byte	0x51
 696 00e0 01       		.uleb128 0x1
 697 00e1 31       		.byte	0x31
 698 00e2 00       		.byte	0
 699 00e3 07       		.uleb128 0x7
 700 00e4 18000000 		.4byte	.LVL2
 701 00e8 4B040000 		.4byte	0x44b
 702 00ec F6000000 		.4byte	0xf6
 703 00f0 08       		.uleb128 0x8
 704 00f1 01       		.uleb128 0x1
 705 00f2 51       		.byte	0x51
 706 00f3 01       		.uleb128 0x1
 707 00f4 31       		.byte	0x31
 708 00f5 00       		.byte	0
 709 00f6 09       		.uleb128 0x9
 710 00f7 1E000000 		.4byte	.LVL3
 711 00fb 56040000 		.4byte	0x456
 712 00ff 08       		.uleb128 0x8
 713 0100 01       		.uleb128 0x1
 714 0101 50       		.byte	0x50
 715 0102 01       		.uleb128 0x1
 716 0103 30       		.byte	0x30
 717 0104 00       		.byte	0
 718 0105 00       		.byte	0
ARM GAS  C:\Users\admin\AppData\Local\Temp\ccZEVLam.s 			page 19


 719 0106 05       		.uleb128 0x5
 720 0107 D9030000 		.4byte	.LASF18
 721 010b 01       		.byte	0x1
 722 010c BB       		.byte	0xbb
 723 010d 00000000 		.4byte	.LFB4
 724 0111 1C000000 		.4byte	.LFE4-.LFB4
 725 0115 01       		.uleb128 0x1
 726 0116 9C       		.byte	0x9c
 727 0117 37010000 		.4byte	0x137
 728 011b 06       		.uleb128 0x6
 729 011c 0A000000 		.4byte	.LVL4
 730 0120 61040000 		.4byte	0x461
 731 0124 06       		.uleb128 0x6
 732 0125 10000000 		.4byte	.LVL5
 733 0129 61040000 		.4byte	0x461
 734 012d 06       		.uleb128 0x6
 735 012e 14000000 		.4byte	.LVL6
 736 0132 6C040000 		.4byte	0x46c
 737 0136 00       		.byte	0
 738 0137 05       		.uleb128 0x5
 739 0138 41030000 		.4byte	.LASF19
 740 013c 01       		.byte	0x1
 741 013d DA       		.byte	0xda
 742 013e 00000000 		.4byte	.LFB5
 743 0142 40000000 		.4byte	.LFE5-.LFB5
 744 0146 01       		.uleb128 0x1
 745 0147 9C       		.byte	0x9c
 746 0148 CF010000 		.4byte	0x1cf
 747 014c 0A       		.uleb128 0xa
 748 014d 86020000 		.4byte	.LASF20
 749 0151 01       		.byte	0x1
 750 0152 DA       		.byte	0xda
 751 0153 CF010000 		.4byte	0x1cf
 752 0157 00000000 		.4byte	.LLST0
 753 015b 0A       		.uleb128 0xa
 754 015c B3010000 		.4byte	.LASF21
 755 0160 01       		.byte	0x1
 756 0161 DA       		.byte	0xda
 757 0162 77000000 		.4byte	0x77
 758 0166 2C000000 		.4byte	.LLST1
 759 016a 07       		.uleb128 0x7
 760 016b 14000000 		.4byte	.LVL10
 761 016f 77040000 		.4byte	0x477
 762 0173 91010000 		.4byte	0x191
 763 0177 08       		.uleb128 0x8
 764 0178 01       		.uleb128 0x1
 765 0179 50       		.byte	0x50
 766 017a 01       		.uleb128 0x1
 767 017b 31       		.byte	0x31
 768 017c 08       		.uleb128 0x8
 769 017d 01       		.uleb128 0x1
 770 017e 51       		.byte	0x51
 771 017f 01       		.uleb128 0x1
 772 0180 31       		.byte	0x31
 773 0181 08       		.uleb128 0x8
 774 0182 01       		.uleb128 0x1
 775 0183 52       		.byte	0x52
ARM GAS  C:\Users\admin\AppData\Local\Temp\ccZEVLam.s 			page 20


 776 0184 04       		.uleb128 0x4
 777 0185 75       		.byte	0x75
 778 0186 00       		.sleb128 0
 779 0187 40       		.byte	0x40
 780 0188 25       		.byte	0x25
 781 0189 08       		.uleb128 0x8
 782 018a 01       		.uleb128 0x1
 783 018b 53       		.byte	0x53
 784 018c 03       		.uleb128 0x3
 785 018d 0A       		.byte	0xa
 786 018e 0040     		.2byte	0x4000
 787 0190 00       		.byte	0
 788 0191 07       		.uleb128 0x7
 789 0192 24000000 		.4byte	.LVL11
 790 0196 82040000 		.4byte	0x482
 791 019a AA010000 		.4byte	0x1aa
 792 019e 08       		.uleb128 0x8
 793 019f 01       		.uleb128 0x1
 794 01a0 51       		.byte	0x51
 795 01a1 02       		.uleb128 0x2
 796 01a2 76       		.byte	0x76
 797 01a3 00       		.sleb128 0
 798 01a4 08       		.uleb128 0x8
 799 01a5 01       		.uleb128 0x1
 800 01a6 53       		.byte	0x53
 801 01a7 01       		.uleb128 0x1
 802 01a8 31       		.byte	0x31
 803 01a9 00       		.byte	0
 804 01aa 07       		.uleb128 0x7
 805 01ab 30000000 		.4byte	.LVL12
 806 01af 8D040000 		.4byte	0x48d
 807 01b3 C5010000 		.4byte	0x1c5
 808 01b7 08       		.uleb128 0x8
 809 01b8 01       		.uleb128 0x1
 810 01b9 51       		.byte	0x51
 811 01ba 02       		.uleb128 0x2
 812 01bb 75       		.byte	0x75
 813 01bc 00       		.sleb128 0
 814 01bd 08       		.uleb128 0x8
 815 01be 01       		.uleb128 0x1
 816 01bf 52       		.byte	0x52
 817 01c0 03       		.uleb128 0x3
 818 01c1 0A       		.byte	0xa
 819 01c2 805B     		.2byte	0x5b80
 820 01c4 00       		.byte	0
 821 01c5 06       		.uleb128 0x6
 822 01c6 38000000 		.4byte	.LVL13
 823 01ca 98040000 		.4byte	0x498
 824 01ce 00       		.byte	0
 825 01cf 0B       		.uleb128 0xb
 826 01d0 04       		.byte	0x4
 827 01d1 D5010000 		.4byte	0x1d5
 828 01d5 0C       		.uleb128 0xc
 829 01d6 6B000000 		.4byte	0x6b
 830 01da 0D       		.uleb128 0xd
 831 01db 2D040000 		.4byte	.LASF22
 832 01df 01       		.byte	0x1
ARM GAS  C:\Users\admin\AppData\Local\Temp\ccZEVLam.s 			page 21


 833 01e0 0801     		.2byte	0x108
 834 01e2 00000000 		.4byte	.LFB6
 835 01e6 40000000 		.4byte	.LFE6-.LFB6
 836 01ea 01       		.uleb128 0x1
 837 01eb 9C       		.byte	0x9c
 838 01ec 75020000 		.4byte	0x275
 839 01f0 0E       		.uleb128 0xe
 840 01f1 86020000 		.4byte	.LASF20
 841 01f5 01       		.byte	0x1
 842 01f6 0801     		.2byte	0x108
 843 01f8 CF010000 		.4byte	0x1cf
 844 01fc 4D000000 		.4byte	.LLST2
 845 0200 0E       		.uleb128 0xe
 846 0201 B3010000 		.4byte	.LASF21
 847 0205 01       		.byte	0x1
 848 0206 0801     		.2byte	0x108
 849 0208 77000000 		.4byte	0x77
 850 020c 79000000 		.4byte	.LLST3
 851 0210 07       		.uleb128 0x7
 852 0211 14000000 		.4byte	.LVL18
 853 0215 A3040000 		.4byte	0x4a3
 854 0219 37020000 		.4byte	0x237
 855 021d 08       		.uleb128 0x8
 856 021e 01       		.uleb128 0x1
 857 021f 50       		.byte	0x50
 858 0220 01       		.uleb128 0x1
 859 0221 31       		.byte	0x31
 860 0222 08       		.uleb128 0x8
 861 0223 01       		.uleb128 0x1
 862 0224 51       		.byte	0x51
 863 0225 01       		.uleb128 0x1
 864 0226 31       		.byte	0x31
 865 0227 08       		.uleb128 0x8
 866 0228 01       		.uleb128 0x1
 867 0229 52       		.byte	0x52
 868 022a 04       		.uleb128 0x4
 869 022b 75       		.byte	0x75
 870 022c 00       		.sleb128 0
 871 022d 40       		.byte	0x40
 872 022e 25       		.byte	0x25
 873 022f 08       		.uleb128 0x8
 874 0230 01       		.uleb128 0x1
 875 0231 53       		.byte	0x53
 876 0232 03       		.uleb128 0x3
 877 0233 0A       		.byte	0xa
 878 0234 0040     		.2byte	0x4000
 879 0236 00       		.byte	0
 880 0237 07       		.uleb128 0x7
 881 0238 24000000 		.4byte	.LVL19
 882 023c 82040000 		.4byte	0x482
 883 0240 50020000 		.4byte	0x250
 884 0244 08       		.uleb128 0x8
 885 0245 01       		.uleb128 0x1
 886 0246 51       		.byte	0x51
 887 0247 02       		.uleb128 0x2
 888 0248 76       		.byte	0x76
 889 0249 00       		.sleb128 0
ARM GAS  C:\Users\admin\AppData\Local\Temp\ccZEVLam.s 			page 22


 890 024a 08       		.uleb128 0x8
 891 024b 01       		.uleb128 0x1
 892 024c 53       		.byte	0x53
 893 024d 01       		.uleb128 0x1
 894 024e 31       		.byte	0x31
 895 024f 00       		.byte	0
 896 0250 07       		.uleb128 0x7
 897 0251 30000000 		.4byte	.LVL20
 898 0255 8D040000 		.4byte	0x48d
 899 0259 6B020000 		.4byte	0x26b
 900 025d 08       		.uleb128 0x8
 901 025e 01       		.uleb128 0x1
 902 025f 51       		.byte	0x51
 903 0260 02       		.uleb128 0x2
 904 0261 75       		.byte	0x75
 905 0262 00       		.sleb128 0
 906 0263 08       		.uleb128 0x8
 907 0264 01       		.uleb128 0x1
 908 0265 52       		.byte	0x52
 909 0266 03       		.uleb128 0x3
 910 0267 0A       		.byte	0xa
 911 0268 805B     		.2byte	0x5b80
 912 026a 00       		.byte	0
 913 026b 06       		.uleb128 0x6
 914 026c 38000000 		.4byte	.LVL21
 915 0270 98040000 		.4byte	0x498
 916 0274 00       		.byte	0
 917 0275 05       		.uleb128 0x5
 918 0276 1E040000 		.4byte	.LASF23
 919 027a 01       		.byte	0x1
 920 027b 2B       		.byte	0x2b
 921 027c 00000000 		.4byte	.LFB0
 922 0280 3C000000 		.4byte	.LFE0-.LFB0
 923 0284 01       		.uleb128 0x1
 924 0285 9C       		.byte	0x9c
 925 0286 FD020000 		.4byte	0x2fd
 926 028a 06       		.uleb128 0x6
 927 028b 06000000 		.4byte	.LVL23
 928 028f AE040000 		.4byte	0x4ae
 929 0293 07       		.uleb128 0x7
 930 0294 0C000000 		.4byte	.LVL24
 931 0298 B9040000 		.4byte	0x4b9
 932 029c A6020000 		.4byte	0x2a6
 933 02a0 08       		.uleb128 0x8
 934 02a1 01       		.uleb128 0x1
 935 02a2 50       		.byte	0x50
 936 02a3 01       		.uleb128 0x1
 937 02a4 32       		.byte	0x32
 938 02a5 00       		.byte	0
 939 02a6 07       		.uleb128 0x7
 940 02a7 12000000 		.4byte	.LVL25
 941 02ab C4040000 		.4byte	0x4c4
 942 02af B9020000 		.4byte	0x2b9
 943 02b3 08       		.uleb128 0x8
 944 02b4 01       		.uleb128 0x1
 945 02b5 50       		.byte	0x50
 946 02b6 01       		.uleb128 0x1
ARM GAS  C:\Users\admin\AppData\Local\Temp\ccZEVLam.s 			page 23


 947 02b7 34       		.byte	0x34
 948 02b8 00       		.byte	0
 949 02b9 06       		.uleb128 0x6
 950 02ba 16000000 		.4byte	.LVL26
 951 02be CF040000 		.4byte	0x4cf
 952 02c2 06       		.uleb128 0x6
 953 02c3 1E000000 		.4byte	.LVL27
 954 02c7 CF040000 		.4byte	0x4cf
 955 02cb 07       		.uleb128 0x7
 956 02cc 2A000000 		.4byte	.LVL28
 957 02d0 37010000 		.4byte	0x137
 958 02d4 E5020000 		.4byte	0x2e5
 959 02d8 08       		.uleb128 0x8
 960 02d9 01       		.uleb128 0x1
 961 02da 50       		.byte	0x50
 962 02db 02       		.uleb128 0x2
 963 02dc 74       		.byte	0x74
 964 02dd 00       		.sleb128 0
 965 02de 08       		.uleb128 0x8
 966 02df 01       		.uleb128 0x1
 967 02e0 51       		.byte	0x51
 968 02e1 02       		.uleb128 0x2
 969 02e2 08       		.byte	0x8
 970 02e3 64       		.byte	0x64
 971 02e4 00       		.byte	0
 972 02e5 09       		.uleb128 0x9
 973 02e6 32000000 		.4byte	.LVL29
 974 02ea DA010000 		.4byte	0x1da
 975 02ee 08       		.uleb128 0x8
 976 02ef 01       		.uleb128 0x1
 977 02f0 50       		.byte	0x50
 978 02f1 03       		.uleb128 0x3
 979 02f2 74       		.byte	0x74
 980 02f3 E400     		.sleb128 100
 981 02f5 08       		.uleb128 0x8
 982 02f6 01       		.uleb128 0x1
 983 02f7 51       		.byte	0x51
 984 02f8 02       		.uleb128 0x2
 985 02f9 08       		.byte	0x8
 986 02fa 64       		.byte	0x64
 987 02fb 00       		.byte	0
 988 02fc 00       		.byte	0
 989 02fd 05       		.uleb128 0x5
 990 02fe 7F030000 		.4byte	.LASF24
 991 0302 01       		.byte	0x1
 992 0303 81       		.byte	0x81
 993 0304 00000000 		.4byte	.LFB2
 994 0308 1C000000 		.4byte	.LFE2-.LFB2
 995 030c 01       		.uleb128 0x1
 996 030d 9C       		.byte	0x9c
 997 030e 25030000 		.4byte	0x325
 998 0312 06       		.uleb128 0x6
 999 0313 0C000000 		.4byte	.LVL30
 1000 0317 75020000 		.4byte	0x275
 1001 031b 06       		.uleb128 0x6
 1002 031c 16000000 		.4byte	.LVL31
 1003 0320 B2000000 		.4byte	0xb2
ARM GAS  C:\Users\admin\AppData\Local\Temp\ccZEVLam.s 			page 24


 1004 0324 00       		.byte	0
 1005 0325 05       		.uleb128 0x5
 1006 0326 00000000 		.4byte	.LASF25
 1007 032a 01       		.byte	0x1
 1008 032b A3       		.byte	0xa3
 1009 032c 00000000 		.4byte	.LFB3
 1010 0330 18000000 		.4byte	.LFE3-.LFB3
 1011 0334 01       		.uleb128 0x1
 1012 0335 9C       		.byte	0x9c
 1013 0336 AF030000 		.4byte	0x3af
 1014 033a 0A       		.uleb128 0xa
 1015 033b 41010000 		.4byte	.LASF26
 1016 033f 01       		.byte	0x1
 1017 0340 A3       		.byte	0xa3
 1018 0341 CF010000 		.4byte	0x1cf
 1019 0345 9A000000 		.4byte	.LLST4
 1020 0349 0A       		.uleb128 0xa
 1021 034a A4020000 		.4byte	.LASF27
 1022 034e 01       		.byte	0x1
 1023 034f A3       		.byte	0xa3
 1024 0350 77000000 		.4byte	0x77
 1025 0354 BB000000 		.4byte	.LLST5
 1026 0358 0A       		.uleb128 0xa
 1027 0359 4A010000 		.4byte	.LASF28
 1028 035d 01       		.byte	0x1
 1029 035e A3       		.byte	0xa3
 1030 035f CF010000 		.4byte	0x1cf
 1031 0363 DC000000 		.4byte	.LLST6
 1032 0367 0A       		.uleb128 0xa
 1033 0368 B0020000 		.4byte	.LASF29
 1034 036c 01       		.byte	0x1
 1035 036d A3       		.byte	0xa3
 1036 036e 77000000 		.4byte	0x77
 1037 0372 FA000000 		.4byte	.LLST7
 1038 0376 07       		.uleb128 0x7
 1039 0377 0A000000 		.4byte	.LVL33
 1040 037b 37010000 		.4byte	0x137
 1041 037f 8B030000 		.4byte	0x38b
 1042 0383 08       		.uleb128 0x8
 1043 0384 01       		.uleb128 0x1
 1044 0385 50       		.byte	0x50
 1045 0386 03       		.uleb128 0x3
 1046 0387 F3       		.byte	0xf3
 1047 0388 01       		.uleb128 0x1
 1048 0389 50       		.byte	0x50
 1049 038a 00       		.byte	0
 1050 038b 07       		.uleb128 0x7
 1051 038c 12000000 		.4byte	.LVL34
 1052 0390 DA010000 		.4byte	0x1da
 1053 0394 A5030000 		.4byte	0x3a5
 1054 0398 08       		.uleb128 0x8
 1055 0399 01       		.uleb128 0x1
 1056 039a 50       		.byte	0x50
 1057 039b 02       		.uleb128 0x2
 1058 039c 74       		.byte	0x74
 1059 039d 00       		.sleb128 0
 1060 039e 08       		.uleb128 0x8
ARM GAS  C:\Users\admin\AppData\Local\Temp\ccZEVLam.s 			page 25


 1061 039f 01       		.uleb128 0x1
 1062 03a0 51       		.byte	0x51
 1063 03a1 02       		.uleb128 0x2
 1064 03a2 75       		.byte	0x75
 1065 03a3 00       		.sleb128 0
 1066 03a4 00       		.byte	0
 1067 03a5 06       		.uleb128 0x6
 1068 03a6 16000000 		.4byte	.LVL35
 1069 03aa FD020000 		.4byte	0x2fd
 1070 03ae 00       		.byte	0
 1071 03af 0F       		.uleb128 0xf
 1072 03b0 B0030000 		.4byte	.LASF30
 1073 03b4 01       		.byte	0x1
 1074 03b5 17       		.byte	0x17
 1075 03b6 6B000000 		.4byte	0x6b
 1076 03ba 05       		.uleb128 0x5
 1077 03bb 03       		.byte	0x3
 1078 03bc 00000000 		.4byte	WaveDAC_2_Wave1Chan
 1079 03c0 0F       		.uleb128 0xf
 1080 03c1 96000000 		.4byte	.LASF31
 1081 03c5 01       		.byte	0x1
 1082 03c6 18       		.byte	0x18
 1083 03c7 6B000000 		.4byte	0x6b
 1084 03cb 05       		.uleb128 0x5
 1085 03cc 03       		.byte	0x3
 1086 03cd 01000000 		.4byte	WaveDAC_2_Wave2Chan
 1087 03d1 0F       		.uleb128 0xf
 1088 03d2 56030000 		.4byte	.LASF32
 1089 03d6 01       		.byte	0x1
 1090 03d7 19       		.byte	0x19
 1091 03d8 6B000000 		.4byte	0x6b
 1092 03dc 05       		.uleb128 0x5
 1093 03dd 03       		.byte	0x3
 1094 03de 02000000 		.4byte	WaveDAC_2_Wave1TD
 1095 03e2 0F       		.uleb128 0xf
 1096 03e3 42040000 		.4byte	.LASF33
 1097 03e7 01       		.byte	0x1
 1098 03e8 1A       		.byte	0x1a
 1099 03e9 6B000000 		.4byte	0x6b
 1100 03ed 05       		.uleb128 0x5
 1101 03ee 03       		.byte	0x3
 1102 03ef 03000000 		.4byte	WaveDAC_2_Wave2TD
 1103 03f3 10       		.uleb128 0x10
 1104 03f4 94030000 		.4byte	.LASF34
 1105 03f8 01       		.byte	0x1
 1106 03f9 12       		.byte	0x12
 1107 03fa 6B000000 		.4byte	0x6b
 1108 03fe 05       		.uleb128 0x5
 1109 03ff 03       		.byte	0x3
 1110 0400 00000000 		.4byte	WaveDAC_2_initVar
 1111 0404 11       		.uleb128 0x11
 1112 0405 D5010000 		.4byte	0x1d5
 1113 0409 14040000 		.4byte	0x414
 1114 040d 12       		.uleb128 0x12
 1115 040e AB000000 		.4byte	0xab
 1116 0412 63       		.byte	0x63
 1117 0413 00       		.byte	0
ARM GAS  C:\Users\admin\AppData\Local\Temp\ccZEVLam.s 			page 26


 1118 0414 10       		.uleb128 0x10
 1119 0415 4C020000 		.4byte	.LASF35
 1120 0419 01       		.byte	0x1
 1121 041a 14       		.byte	0x14
 1122 041b 25040000 		.4byte	0x425
 1123 041f 05       		.uleb128 0x5
 1124 0420 03       		.byte	0x3
 1125 0421 00000000 		.4byte	WaveDAC_2_wave1
 1126 0425 0C       		.uleb128 0xc
 1127 0426 04040000 		.4byte	0x404
 1128 042a 10       		.uleb128 0x10
 1129 042b 94020000 		.4byte	.LASF36
 1130 042f 01       		.byte	0x1
 1131 0430 15       		.byte	0x15
 1132 0431 3B040000 		.4byte	0x43b
 1133 0435 05       		.uleb128 0x5
 1134 0436 03       		.byte	0x3
 1135 0437 00000000 		.4byte	WaveDAC_2_wave2
 1136 043b 0C       		.uleb128 0xc
 1137 043c 04040000 		.4byte	0x404
 1138 0440 13       		.uleb128 0x13
 1139 0441 EA020000 		.4byte	.LASF37
 1140 0445 EA020000 		.4byte	.LASF37
 1141 0449 03       		.byte	0x3
 1142 044a 3A       		.byte	0x3a
 1143 044b 13       		.uleb128 0x13
 1144 044c 01030000 		.4byte	.LASF38
 1145 0450 01030000 		.4byte	.LASF38
 1146 0454 04       		.byte	0x4
 1147 0455 29       		.byte	0x29
 1148 0456 13       		.uleb128 0x13
 1149 0457 EF000000 		.4byte	.LASF39
 1150 045b EF000000 		.4byte	.LASF39
 1151 045f 03       		.byte	0x3
 1152 0460 37       		.byte	0x37
 1153 0461 13       		.uleb128 0x13
 1154 0462 0F040000 		.4byte	.LASF40
 1155 0466 0F040000 		.4byte	.LASF40
 1156 046a 04       		.byte	0x4
 1157 046b 2A       		.byte	0x2a
 1158 046c 13       		.uleb128 0x13
 1159 046d C4030000 		.4byte	.LASF41
 1160 0471 C4030000 		.4byte	.LASF41
 1161 0475 03       		.byte	0x3
 1162 0476 34       		.byte	0x34
 1163 0477 13       		.uleb128 0x13
 1164 0478 AA000000 		.4byte	.LASF42
 1165 047c AA000000 		.4byte	.LASF42
 1166 0480 05       		.byte	0x5
 1167 0481 1E       		.byte	0x1e
 1168 0482 13       		.uleb128 0x13
 1169 0483 5C020000 		.4byte	.LASF43
 1170 0487 5C020000 		.4byte	.LASF43
 1171 048b 04       		.byte	0x4
 1172 048c 3B       		.byte	0x3b
 1173 048d 13       		.uleb128 0x13
 1174 048e 08010000 		.4byte	.LASF44
ARM GAS  C:\Users\admin\AppData\Local\Temp\ccZEVLam.s 			page 27


 1175 0492 08010000 		.4byte	.LASF44
 1176 0496 04       		.byte	0x4
 1177 0497 3F       		.byte	0x3f
 1178 0498 13       		.uleb128 0x13
 1179 0499 2D010000 		.4byte	.LASF45
 1180 049d 2D010000 		.4byte	.LASF45
 1181 04a1 04       		.byte	0x4
 1182 04a2 2F       		.byte	0x2f
 1183 04a3 13       		.uleb128 0x13
 1184 04a4 91010000 		.4byte	.LASF46
 1185 04a8 91010000 		.4byte	.LASF46
 1186 04ac 06       		.byte	0x6
 1187 04ad 1E       		.byte	0x1e
 1188 04ae 13       		.uleb128 0x13
 1189 04af 63010000 		.4byte	.LASF47
 1190 04b3 63010000 		.4byte	.LASF47
 1191 04b7 03       		.byte	0x3
 1192 04b8 39       		.byte	0x39
 1193 04b9 13       		.uleb128 0x13
 1194 04ba 78010000 		.4byte	.LASF48
 1195 04be 78010000 		.4byte	.LASF48
 1196 04c2 03       		.byte	0x3
 1197 04c3 35       		.byte	0x35
 1198 04c4 13       		.uleb128 0x13
 1199 04c5 CA020000 		.4byte	.LASF49
 1200 04c9 CA020000 		.4byte	.LASF49
 1201 04cd 03       		.byte	0x3
 1202 04ce 36       		.byte	0x36
 1203 04cf 13       		.uleb128 0x13
 1204 04d0 53010000 		.4byte	.LASF50
 1205 04d4 53010000 		.4byte	.LASF50
 1206 04d8 04       		.byte	0x4
 1207 04d9 38       		.byte	0x38
 1208 04da 00       		.byte	0
 1209              		.section	.debug_abbrev,"",%progbits
 1210              	.Ldebug_abbrev0:
 1211 0000 01       		.uleb128 0x1
 1212 0001 11       		.uleb128 0x11
 1213 0002 01       		.byte	0x1
 1214 0003 25       		.uleb128 0x25
 1215 0004 0E       		.uleb128 0xe
 1216 0005 13       		.uleb128 0x13
 1217 0006 0B       		.uleb128 0xb
 1218 0007 03       		.uleb128 0x3
 1219 0008 0E       		.uleb128 0xe
 1220 0009 1B       		.uleb128 0x1b
 1221 000a 0E       		.uleb128 0xe
 1222 000b 55       		.uleb128 0x55
 1223 000c 17       		.uleb128 0x17
 1224 000d 11       		.uleb128 0x11
 1225 000e 01       		.uleb128 0x1
 1226 000f 10       		.uleb128 0x10
 1227 0010 17       		.uleb128 0x17
 1228 0011 00       		.byte	0
 1229 0012 00       		.byte	0
 1230 0013 02       		.uleb128 0x2
 1231 0014 24       		.uleb128 0x24
ARM GAS  C:\Users\admin\AppData\Local\Temp\ccZEVLam.s 			page 28


 1232 0015 00       		.byte	0
 1233 0016 0B       		.uleb128 0xb
 1234 0017 0B       		.uleb128 0xb
 1235 0018 3E       		.uleb128 0x3e
 1236 0019 0B       		.uleb128 0xb
 1237 001a 03       		.uleb128 0x3
 1238 001b 0E       		.uleb128 0xe
 1239 001c 00       		.byte	0
 1240 001d 00       		.byte	0
 1241 001e 03       		.uleb128 0x3
 1242 001f 24       		.uleb128 0x24
 1243 0020 00       		.byte	0
 1244 0021 0B       		.uleb128 0xb
 1245 0022 0B       		.uleb128 0xb
 1246 0023 3E       		.uleb128 0x3e
 1247 0024 0B       		.uleb128 0xb
 1248 0025 03       		.uleb128 0x3
 1249 0026 08       		.uleb128 0x8
 1250 0027 00       		.byte	0
 1251 0028 00       		.byte	0
 1252 0029 04       		.uleb128 0x4
 1253 002a 16       		.uleb128 0x16
 1254 002b 00       		.byte	0
 1255 002c 03       		.uleb128 0x3
 1256 002d 0E       		.uleb128 0xe
 1257 002e 3A       		.uleb128 0x3a
 1258 002f 0B       		.uleb128 0xb
 1259 0030 3B       		.uleb128 0x3b
 1260 0031 05       		.uleb128 0x5
 1261 0032 49       		.uleb128 0x49
 1262 0033 13       		.uleb128 0x13
 1263 0034 00       		.byte	0
 1264 0035 00       		.byte	0
 1265 0036 05       		.uleb128 0x5
 1266 0037 2E       		.uleb128 0x2e
 1267 0038 01       		.byte	0x1
 1268 0039 3F       		.uleb128 0x3f
 1269 003a 19       		.uleb128 0x19
 1270 003b 03       		.uleb128 0x3
 1271 003c 0E       		.uleb128 0xe
 1272 003d 3A       		.uleb128 0x3a
 1273 003e 0B       		.uleb128 0xb
 1274 003f 3B       		.uleb128 0x3b
 1275 0040 0B       		.uleb128 0xb
 1276 0041 27       		.uleb128 0x27
 1277 0042 19       		.uleb128 0x19
 1278 0043 11       		.uleb128 0x11
 1279 0044 01       		.uleb128 0x1
 1280 0045 12       		.uleb128 0x12
 1281 0046 06       		.uleb128 0x6
 1282 0047 40       		.uleb128 0x40
 1283 0048 18       		.uleb128 0x18
 1284 0049 9742     		.uleb128 0x2117
 1285 004b 19       		.uleb128 0x19
 1286 004c 01       		.uleb128 0x1
 1287 004d 13       		.uleb128 0x13
 1288 004e 00       		.byte	0
ARM GAS  C:\Users\admin\AppData\Local\Temp\ccZEVLam.s 			page 29


 1289 004f 00       		.byte	0
 1290 0050 06       		.uleb128 0x6
 1291 0051 898201   		.uleb128 0x4109
 1292 0054 00       		.byte	0
 1293 0055 11       		.uleb128 0x11
 1294 0056 01       		.uleb128 0x1
 1295 0057 31       		.uleb128 0x31
 1296 0058 13       		.uleb128 0x13
 1297 0059 00       		.byte	0
 1298 005a 00       		.byte	0
 1299 005b 07       		.uleb128 0x7
 1300 005c 898201   		.uleb128 0x4109
 1301 005f 01       		.byte	0x1
 1302 0060 11       		.uleb128 0x11
 1303 0061 01       		.uleb128 0x1
 1304 0062 31       		.uleb128 0x31
 1305 0063 13       		.uleb128 0x13
 1306 0064 01       		.uleb128 0x1
 1307 0065 13       		.uleb128 0x13
 1308 0066 00       		.byte	0
 1309 0067 00       		.byte	0
 1310 0068 08       		.uleb128 0x8
 1311 0069 8A8201   		.uleb128 0x410a
 1312 006c 00       		.byte	0
 1313 006d 02       		.uleb128 0x2
 1314 006e 18       		.uleb128 0x18
 1315 006f 9142     		.uleb128 0x2111
 1316 0071 18       		.uleb128 0x18
 1317 0072 00       		.byte	0
 1318 0073 00       		.byte	0
 1319 0074 09       		.uleb128 0x9
 1320 0075 898201   		.uleb128 0x4109
 1321 0078 01       		.byte	0x1
 1322 0079 11       		.uleb128 0x11
 1323 007a 01       		.uleb128 0x1
 1324 007b 31       		.uleb128 0x31
 1325 007c 13       		.uleb128 0x13
 1326 007d 00       		.byte	0
 1327 007e 00       		.byte	0
 1328 007f 0A       		.uleb128 0xa
 1329 0080 05       		.uleb128 0x5
 1330 0081 00       		.byte	0
 1331 0082 03       		.uleb128 0x3
 1332 0083 0E       		.uleb128 0xe
 1333 0084 3A       		.uleb128 0x3a
 1334 0085 0B       		.uleb128 0xb
 1335 0086 3B       		.uleb128 0x3b
 1336 0087 0B       		.uleb128 0xb
 1337 0088 49       		.uleb128 0x49
 1338 0089 13       		.uleb128 0x13
 1339 008a 02       		.uleb128 0x2
 1340 008b 17       		.uleb128 0x17
 1341 008c 00       		.byte	0
 1342 008d 00       		.byte	0
 1343 008e 0B       		.uleb128 0xb
 1344 008f 0F       		.uleb128 0xf
 1345 0090 00       		.byte	0
ARM GAS  C:\Users\admin\AppData\Local\Temp\ccZEVLam.s 			page 30


 1346 0091 0B       		.uleb128 0xb
 1347 0092 0B       		.uleb128 0xb
 1348 0093 49       		.uleb128 0x49
 1349 0094 13       		.uleb128 0x13
 1350 0095 00       		.byte	0
 1351 0096 00       		.byte	0
 1352 0097 0C       		.uleb128 0xc
 1353 0098 26       		.uleb128 0x26
 1354 0099 00       		.byte	0
 1355 009a 49       		.uleb128 0x49
 1356 009b 13       		.uleb128 0x13
 1357 009c 00       		.byte	0
 1358 009d 00       		.byte	0
 1359 009e 0D       		.uleb128 0xd
 1360 009f 2E       		.uleb128 0x2e
 1361 00a0 01       		.byte	0x1
 1362 00a1 3F       		.uleb128 0x3f
 1363 00a2 19       		.uleb128 0x19
 1364 00a3 03       		.uleb128 0x3
 1365 00a4 0E       		.uleb128 0xe
 1366 00a5 3A       		.uleb128 0x3a
 1367 00a6 0B       		.uleb128 0xb
 1368 00a7 3B       		.uleb128 0x3b
 1369 00a8 05       		.uleb128 0x5
 1370 00a9 27       		.uleb128 0x27
 1371 00aa 19       		.uleb128 0x19
 1372 00ab 11       		.uleb128 0x11
 1373 00ac 01       		.uleb128 0x1
 1374 00ad 12       		.uleb128 0x12
 1375 00ae 06       		.uleb128 0x6
 1376 00af 40       		.uleb128 0x40
 1377 00b0 18       		.uleb128 0x18
 1378 00b1 9742     		.uleb128 0x2117
 1379 00b3 19       		.uleb128 0x19
 1380 00b4 01       		.uleb128 0x1
 1381 00b5 13       		.uleb128 0x13
 1382 00b6 00       		.byte	0
 1383 00b7 00       		.byte	0
 1384 00b8 0E       		.uleb128 0xe
 1385 00b9 05       		.uleb128 0x5
 1386 00ba 00       		.byte	0
 1387 00bb 03       		.uleb128 0x3
 1388 00bc 0E       		.uleb128 0xe
 1389 00bd 3A       		.uleb128 0x3a
 1390 00be 0B       		.uleb128 0xb
 1391 00bf 3B       		.uleb128 0x3b
 1392 00c0 05       		.uleb128 0x5
 1393 00c1 49       		.uleb128 0x49
 1394 00c2 13       		.uleb128 0x13
 1395 00c3 02       		.uleb128 0x2
 1396 00c4 17       		.uleb128 0x17
 1397 00c5 00       		.byte	0
 1398 00c6 00       		.byte	0
 1399 00c7 0F       		.uleb128 0xf
 1400 00c8 34       		.uleb128 0x34
 1401 00c9 00       		.byte	0
 1402 00ca 03       		.uleb128 0x3
ARM GAS  C:\Users\admin\AppData\Local\Temp\ccZEVLam.s 			page 31


 1403 00cb 0E       		.uleb128 0xe
 1404 00cc 3A       		.uleb128 0x3a
 1405 00cd 0B       		.uleb128 0xb
 1406 00ce 3B       		.uleb128 0x3b
 1407 00cf 0B       		.uleb128 0xb
 1408 00d0 49       		.uleb128 0x49
 1409 00d1 13       		.uleb128 0x13
 1410 00d2 02       		.uleb128 0x2
 1411 00d3 18       		.uleb128 0x18
 1412 00d4 00       		.byte	0
 1413 00d5 00       		.byte	0
 1414 00d6 10       		.uleb128 0x10
 1415 00d7 34       		.uleb128 0x34
 1416 00d8 00       		.byte	0
 1417 00d9 03       		.uleb128 0x3
 1418 00da 0E       		.uleb128 0xe
 1419 00db 3A       		.uleb128 0x3a
 1420 00dc 0B       		.uleb128 0xb
 1421 00dd 3B       		.uleb128 0x3b
 1422 00de 0B       		.uleb128 0xb
 1423 00df 49       		.uleb128 0x49
 1424 00e0 13       		.uleb128 0x13
 1425 00e1 3F       		.uleb128 0x3f
 1426 00e2 19       		.uleb128 0x19
 1427 00e3 02       		.uleb128 0x2
 1428 00e4 18       		.uleb128 0x18
 1429 00e5 00       		.byte	0
 1430 00e6 00       		.byte	0
 1431 00e7 11       		.uleb128 0x11
 1432 00e8 01       		.uleb128 0x1
 1433 00e9 01       		.byte	0x1
 1434 00ea 49       		.uleb128 0x49
 1435 00eb 13       		.uleb128 0x13
 1436 00ec 01       		.uleb128 0x1
 1437 00ed 13       		.uleb128 0x13
 1438 00ee 00       		.byte	0
 1439 00ef 00       		.byte	0
 1440 00f0 12       		.uleb128 0x12
 1441 00f1 21       		.uleb128 0x21
 1442 00f2 00       		.byte	0
 1443 00f3 49       		.uleb128 0x49
 1444 00f4 13       		.uleb128 0x13
 1445 00f5 2F       		.uleb128 0x2f
 1446 00f6 0B       		.uleb128 0xb
 1447 00f7 00       		.byte	0
 1448 00f8 00       		.byte	0
 1449 00f9 13       		.uleb128 0x13
 1450 00fa 2E       		.uleb128 0x2e
 1451 00fb 00       		.byte	0
 1452 00fc 3F       		.uleb128 0x3f
 1453 00fd 19       		.uleb128 0x19
 1454 00fe 3C       		.uleb128 0x3c
 1455 00ff 19       		.uleb128 0x19
 1456 0100 6E       		.uleb128 0x6e
 1457 0101 0E       		.uleb128 0xe
 1458 0102 03       		.uleb128 0x3
 1459 0103 0E       		.uleb128 0xe
ARM GAS  C:\Users\admin\AppData\Local\Temp\ccZEVLam.s 			page 32


 1460 0104 3A       		.uleb128 0x3a
 1461 0105 0B       		.uleb128 0xb
 1462 0106 3B       		.uleb128 0x3b
 1463 0107 0B       		.uleb128 0xb
 1464 0108 00       		.byte	0
 1465 0109 00       		.byte	0
 1466 010a 00       		.byte	0
 1467              		.section	.debug_loc,"",%progbits
 1468              	.Ldebug_loc0:
 1469              	.LLST0:
 1470 0000 00000000 		.4byte	.LVL7
 1471 0004 10000000 		.4byte	.LVL9
 1472 0008 0100     		.2byte	0x1
 1473 000a 50       		.byte	0x50
 1474 000b 10000000 		.4byte	.LVL9
 1475 000f 3A000000 		.4byte	.LVL14
 1476 0013 0100     		.2byte	0x1
 1477 0015 55       		.byte	0x55
 1478 0016 3A000000 		.4byte	.LVL14
 1479 001a 40000000 		.4byte	.LFE5
 1480 001e 0400     		.2byte	0x4
 1481 0020 F3       		.byte	0xf3
 1482 0021 01       		.uleb128 0x1
 1483 0022 50       		.byte	0x50
 1484 0023 9F       		.byte	0x9f
 1485 0024 00000000 		.4byte	0
 1486 0028 00000000 		.4byte	0
 1487              	.LLST1:
 1488 002c 00000000 		.4byte	.LVL7
 1489 0030 0E000000 		.4byte	.LVL8
 1490 0034 0100     		.2byte	0x1
 1491 0036 51       		.byte	0x51
 1492 0037 0E000000 		.4byte	.LVL8
 1493 003b 40000000 		.4byte	.LFE5
 1494 003f 0400     		.2byte	0x4
 1495 0041 F3       		.byte	0xf3
 1496 0042 01       		.uleb128 0x1
 1497 0043 51       		.byte	0x51
 1498 0044 9F       		.byte	0x9f
 1499 0045 00000000 		.4byte	0
 1500 0049 00000000 		.4byte	0
 1501              	.LLST2:
 1502 004d 00000000 		.4byte	.LVL15
 1503 0051 10000000 		.4byte	.LVL17
 1504 0055 0100     		.2byte	0x1
 1505 0057 50       		.byte	0x50
 1506 0058 10000000 		.4byte	.LVL17
 1507 005c 3A000000 		.4byte	.LVL22
 1508 0060 0100     		.2byte	0x1
 1509 0062 55       		.byte	0x55
 1510 0063 3A000000 		.4byte	.LVL22
 1511 0067 40000000 		.4byte	.LFE6
 1512 006b 0400     		.2byte	0x4
 1513 006d F3       		.byte	0xf3
 1514 006e 01       		.uleb128 0x1
 1515 006f 50       		.byte	0x50
 1516 0070 9F       		.byte	0x9f
ARM GAS  C:\Users\admin\AppData\Local\Temp\ccZEVLam.s 			page 33


 1517 0071 00000000 		.4byte	0
 1518 0075 00000000 		.4byte	0
 1519              	.LLST3:
 1520 0079 00000000 		.4byte	.LVL15
 1521 007d 0E000000 		.4byte	.LVL16
 1522 0081 0100     		.2byte	0x1
 1523 0083 51       		.byte	0x51
 1524 0084 0E000000 		.4byte	.LVL16
 1525 0088 40000000 		.4byte	.LFE6
 1526 008c 0400     		.2byte	0x4
 1527 008e F3       		.byte	0xf3
 1528 008f 01       		.uleb128 0x1
 1529 0090 51       		.byte	0x51
 1530 0091 9F       		.byte	0x9f
 1531 0092 00000000 		.4byte	0
 1532 0096 00000000 		.4byte	0
 1533              	.LLST4:
 1534 009a 00000000 		.4byte	.LVL32
 1535 009e 09000000 		.4byte	.LVL33-1
 1536 00a2 0100     		.2byte	0x1
 1537 00a4 50       		.byte	0x50
 1538 00a5 09000000 		.4byte	.LVL33-1
 1539 00a9 18000000 		.4byte	.LFE3
 1540 00ad 0400     		.2byte	0x4
 1541 00af F3       		.byte	0xf3
 1542 00b0 01       		.uleb128 0x1
 1543 00b1 50       		.byte	0x50
 1544 00b2 9F       		.byte	0x9f
 1545 00b3 00000000 		.4byte	0
 1546 00b7 00000000 		.4byte	0
 1547              	.LLST5:
 1548 00bb 00000000 		.4byte	.LVL32
 1549 00bf 09000000 		.4byte	.LVL33-1
 1550 00c3 0100     		.2byte	0x1
 1551 00c5 51       		.byte	0x51
 1552 00c6 09000000 		.4byte	.LVL33-1
 1553 00ca 18000000 		.4byte	.LFE3
 1554 00ce 0400     		.2byte	0x4
 1555 00d0 F3       		.byte	0xf3
 1556 00d1 01       		.uleb128 0x1
 1557 00d2 51       		.byte	0x51
 1558 00d3 9F       		.byte	0x9f
 1559 00d4 00000000 		.4byte	0
 1560 00d8 00000000 		.4byte	0
 1561              	.LLST6:
 1562 00dc 00000000 		.4byte	.LVL32
 1563 00e0 09000000 		.4byte	.LVL33-1
 1564 00e4 0100     		.2byte	0x1
 1565 00e6 52       		.byte	0x52
 1566 00e7 09000000 		.4byte	.LVL33-1
 1567 00eb 18000000 		.4byte	.LFE3
 1568 00ef 0100     		.2byte	0x1
 1569 00f1 54       		.byte	0x54
 1570 00f2 00000000 		.4byte	0
 1571 00f6 00000000 		.4byte	0
 1572              	.LLST7:
 1573 00fa 00000000 		.4byte	.LVL32
ARM GAS  C:\Users\admin\AppData\Local\Temp\ccZEVLam.s 			page 34


 1574 00fe 09000000 		.4byte	.LVL33-1
 1575 0102 0100     		.2byte	0x1
 1576 0104 53       		.byte	0x53
 1577 0105 09000000 		.4byte	.LVL33-1
 1578 0109 18000000 		.4byte	.LFE3
 1579 010d 0400     		.2byte	0x4
 1580 010f F3       		.byte	0xf3
 1581 0110 01       		.uleb128 0x1
 1582 0111 53       		.byte	0x53
 1583 0112 9F       		.byte	0x9f
 1584 0113 00000000 		.4byte	0
 1585 0117 00000000 		.4byte	0
 1586              		.section	.debug_aranges,"",%progbits
 1587 0000 4C000000 		.4byte	0x4c
 1588 0004 0200     		.2byte	0x2
 1589 0006 00000000 		.4byte	.Ldebug_info0
 1590 000a 04       		.byte	0x4
 1591 000b 00       		.byte	0
 1592 000c 0000     		.2byte	0
 1593 000e 0000     		.2byte	0
 1594 0010 00000000 		.4byte	.LFB1
 1595 0014 24000000 		.4byte	.LFE1-.LFB1
 1596 0018 00000000 		.4byte	.LFB4
 1597 001c 1C000000 		.4byte	.LFE4-.LFB4
 1598 0020 00000000 		.4byte	.LFB5
 1599 0024 40000000 		.4byte	.LFE5-.LFB5
 1600 0028 00000000 		.4byte	.LFB6
 1601 002c 40000000 		.4byte	.LFE6-.LFB6
 1602 0030 00000000 		.4byte	.LFB0
 1603 0034 3C000000 		.4byte	.LFE0-.LFB0
 1604 0038 00000000 		.4byte	.LFB2
 1605 003c 1C000000 		.4byte	.LFE2-.LFB2
 1606 0040 00000000 		.4byte	.LFB3
 1607 0044 18000000 		.4byte	.LFE3-.LFB3
 1608 0048 00000000 		.4byte	0
 1609 004c 00000000 		.4byte	0
 1610              		.section	.debug_ranges,"",%progbits
 1611              	.Ldebug_ranges0:
 1612 0000 00000000 		.4byte	.LFB1
 1613 0004 24000000 		.4byte	.LFE1
 1614 0008 00000000 		.4byte	.LFB4
 1615 000c 1C000000 		.4byte	.LFE4
 1616 0010 00000000 		.4byte	.LFB5
 1617 0014 40000000 		.4byte	.LFE5
 1618 0018 00000000 		.4byte	.LFB6
 1619 001c 40000000 		.4byte	.LFE6
 1620 0020 00000000 		.4byte	.LFB0
 1621 0024 3C000000 		.4byte	.LFE0
 1622 0028 00000000 		.4byte	.LFB2
 1623 002c 1C000000 		.4byte	.LFE2
 1624 0030 00000000 		.4byte	.LFB3
 1625 0034 18000000 		.4byte	.LFE3
 1626 0038 00000000 		.4byte	0
 1627 003c 00000000 		.4byte	0
 1628              		.section	.debug_line,"",%progbits
 1629              	.Ldebug_line0:
 1630 0000 3F010000 		.section	.debug_str,"MS",%progbits,1
ARM GAS  C:\Users\admin\AppData\Local\Temp\ccZEVLam.s 			page 35


 1630      0200A100 
 1630      00000201 
 1630      FB0E0D00 
 1630      01010101 
 1631              	.LASF25:
 1632 0000 57617665 		.ascii	"WaveDAC_2_StartEx\000"
 1632      4441435F 
 1632      325F5374 
 1632      61727445 
 1632      7800
 1633              	.LASF17:
 1634 0012 57617665 		.ascii	"WaveDAC_2_Enable\000"
 1634      4441435F 
 1634      325F456E 
 1634      61626C65 
 1634      00
 1635              	.LASF53:
 1636 0023 433A5C55 		.ascii	"C:\\Users\\admin\\Documents\\pxl\\Microcontrollers_"
 1636      73657273 
 1636      5C61646D 
 1636      696E5C44 
 1636      6F63756D 
 1637 0051 73686F77 		.ascii	"showcase\\12eai1012_mc_showcase_8bitmusic\\src\\wav"
 1637      63617365 
 1637      5C313265 
 1637      61693130 
 1637      31325F6D 
 1638 0081 65746573 		.ascii	"etest\\wavetest.cydsn\000"
 1638      745C7761 
 1638      76657465 
 1638      73742E63 
 1638      7964736E 
 1639              	.LASF31:
 1640 0096 57617665 		.ascii	"WaveDAC_2_Wave2Chan\000"
 1640      4441435F 
 1640      325F5761 
 1640      76653243 
 1640      68616E00 
 1641              	.LASF42:
 1642 00aa 57617665 		.ascii	"WaveDAC_2_Wave1_DMA_DmaInitialize\000"
 1642      4441435F 
 1642      325F5761 
 1642      7665315F 
 1642      444D415F 
 1643              	.LASF52:
 1644 00cc 47656E65 		.ascii	"Generated_Source\\PSoC5\\WaveDAC_2.c\000"
 1644      72617465 
 1644      645F536F 
 1644      75726365 
 1644      5C50536F 
 1645              	.LASF39:
 1646 00ef 57617665 		.ascii	"WaveDAC_2_VDAC8_SetValue\000"
 1646      4441435F 
 1646      325F5644 
 1646      4143385F 
 1646      53657456 
 1647              	.LASF44:
ARM GAS  C:\Users\admin\AppData\Local\Temp\ccZEVLam.s 			page 36


 1648 0108 4379446D 		.ascii	"CyDmaTdSetAddress\000"
 1648      61546453 
 1648      65744164 
 1648      64726573 
 1648      7300
 1649              	.LASF3:
 1650 011a 73686F72 		.ascii	"short unsigned int\000"
 1650      7420756E 
 1650      7369676E 
 1650      65642069 
 1650      6E7400
 1651              	.LASF45:
 1652 012d 4379446D 		.ascii	"CyDmaChSetInitialTd\000"
 1652      61436853 
 1652      6574496E 
 1652      69746961 
 1652      6C546400 
 1653              	.LASF26:
 1654 0141 77617665 		.ascii	"wavePtr1\000"
 1654      50747231 
 1654      00
 1655              	.LASF28:
 1656 014a 77617665 		.ascii	"wavePtr2\000"
 1656      50747232 
 1656      00
 1657              	.LASF50:
 1658 0153 4379446D 		.ascii	"CyDmaTdAllocate\000"
 1658      61546441 
 1658      6C6C6F63 
 1658      61746500 
 1659              	.LASF47:
 1660 0163 57617665 		.ascii	"WaveDAC_2_VDAC8_Init\000"
 1660      4441435F 
 1660      325F5644 
 1660      4143385F 
 1660      496E6974 
 1661              	.LASF48:
 1662 0178 57617665 		.ascii	"WaveDAC_2_VDAC8_SetSpeed\000"
 1662      4441435F 
 1662      325F5644 
 1662      4143385F 
 1662      53657453 
 1663              	.LASF46:
 1664 0191 57617665 		.ascii	"WaveDAC_2_Wave2_DMA_DmaInitialize\000"
 1664      4441435F 
 1664      325F5761 
 1664      7665325F 
 1664      444D415F 
 1665              	.LASF21:
 1666 01b3 73616D70 		.ascii	"sampleSize\000"
 1666      6C655369 
 1666      7A6500
 1667              	.LASF51:
 1668 01be 474E5520 		.ascii	"GNU C11 5.4.1 20160609 (release) [ARM/embedded-5-br"
 1668      43313120 
 1668      352E342E 
 1668      31203230 
ARM GAS  C:\Users\admin\AppData\Local\Temp\ccZEVLam.s 			page 37


 1668      31363036 
 1669 01f1 616E6368 		.ascii	"anch revision 237715] -mcpu=cortex-m3 -mthumb -g -O"
 1669      20726576 
 1669      6973696F 
 1669      6E203233 
 1669      37373135 
 1670 0224 67202D66 		.ascii	"g -ffunction-sections -ffat-lto-objects\000"
 1670      66756E63 
 1670      74696F6E 
 1670      2D736563 
 1670      74696F6E 
 1671              	.LASF35:
 1672 024c 57617665 		.ascii	"WaveDAC_2_wave1\000"
 1672      4441435F 
 1672      325F7761 
 1672      76653100 
 1673              	.LASF43:
 1674 025c 4379446D 		.ascii	"CyDmaTdSetConfiguration\000"
 1674      61546453 
 1674      6574436F 
 1674      6E666967 
 1674      75726174 
 1675              	.LASF5:
 1676 0274 6C6F6E67 		.ascii	"long unsigned int\000"
 1676      20756E73 
 1676      69676E65 
 1676      6420696E 
 1676      7400
 1677              	.LASF20:
 1678 0286 77617665 		.ascii	"wavePtr\000"
 1678      50747200 
 1679              	.LASF9:
 1680 028e 75696E74 		.ascii	"uint8\000"
 1680      3800
 1681              	.LASF36:
 1682 0294 57617665 		.ascii	"WaveDAC_2_wave2\000"
 1682      4441435F 
 1682      325F7761 
 1682      76653200 
 1683              	.LASF27:
 1684 02a4 73616D70 		.ascii	"sampleSize1\000"
 1684      6C655369 
 1684      7A653100 
 1685              	.LASF29:
 1686 02b0 73616D70 		.ascii	"sampleSize2\000"
 1686      6C655369 
 1686      7A653200 
 1687              	.LASF1:
 1688 02bc 756E7369 		.ascii	"unsigned char\000"
 1688      676E6564 
 1688      20636861 
 1688      7200
 1689              	.LASF49:
 1690 02ca 57617665 		.ascii	"WaveDAC_2_VDAC8_SetRange\000"
 1690      4441435F 
 1690      325F5644 
 1690      4143385F 
ARM GAS  C:\Users\admin\AppData\Local\Temp\ccZEVLam.s 			page 38


 1690      53657452 
 1691              	.LASF13:
 1692 02e3 646F7562 		.ascii	"double\000"
 1692      6C6500
 1693              	.LASF37:
 1694 02ea 57617665 		.ascii	"WaveDAC_2_VDAC8_Enable\000"
 1694      4441435F 
 1694      325F5644 
 1694      4143385F 
 1694      456E6162 
 1695              	.LASF38:
 1696 0301 4379446D 		.ascii	"CyDmaChEnable\000"
 1696      61436845 
 1696      6E61626C 
 1696      6500
 1697              	.LASF10:
 1698 030f 75696E74 		.ascii	"uint16\000"
 1698      313600
 1699              	.LASF11:
 1700 0316 75696E74 		.ascii	"uint32\000"
 1700      333200
 1701              	.LASF8:
 1702 031d 756E7369 		.ascii	"unsigned int\000"
 1702      676E6564 
 1702      20696E74 
 1702      00
 1703              	.LASF7:
 1704 032a 6C6F6E67 		.ascii	"long long unsigned int\000"
 1704      206C6F6E 
 1704      6720756E 
 1704      7369676E 
 1704      65642069 
 1705              	.LASF19:
 1706 0341 57617665 		.ascii	"WaveDAC_2_Wave1Setup\000"
 1706      4441435F 
 1706      325F5761 
 1706      76653153 
 1706      65747570 
 1707              	.LASF32:
 1708 0356 57617665 		.ascii	"WaveDAC_2_Wave1TD\000"
 1708      4441435F 
 1708      325F5761 
 1708      76653154 
 1708      4400
 1709              	.LASF16:
 1710 0368 73697A65 		.ascii	"sizetype\000"
 1710      74797065 
 1710      00
 1711              	.LASF6:
 1712 0371 6C6F6E67 		.ascii	"long long int\000"
 1712      206C6F6E 
 1712      6720696E 
 1712      7400
 1713              	.LASF24:
 1714 037f 57617665 		.ascii	"WaveDAC_2_Start\000"
 1714      4441435F 
 1714      325F5374 
ARM GAS  C:\Users\admin\AppData\Local\Temp\ccZEVLam.s 			page 39


 1714      61727400 
 1715              	.LASF14:
 1716 038f 63686172 		.ascii	"char\000"
 1716      00
 1717              	.LASF34:
 1718 0394 57617665 		.ascii	"WaveDAC_2_initVar\000"
 1718      4441435F 
 1718      325F696E 
 1718      69745661 
 1718      7200
 1719              	.LASF2:
 1720 03a6 73686F72 		.ascii	"short int\000"
 1720      7420696E 
 1720      7400
 1721              	.LASF30:
 1722 03b0 57617665 		.ascii	"WaveDAC_2_Wave1Chan\000"
 1722      4441435F 
 1722      325F5761 
 1722      76653143 
 1722      68616E00 
 1723              	.LASF41:
 1724 03c4 57617665 		.ascii	"WaveDAC_2_VDAC8_Stop\000"
 1724      4441435F 
 1724      325F5644 
 1724      4143385F 
 1724      53746F70 
 1725              	.LASF18:
 1726 03d9 57617665 		.ascii	"WaveDAC_2_Stop\000"
 1726      4441435F 
 1726      325F5374 
 1726      6F7000
 1727              	.LASF4:
 1728 03e8 6C6F6E67 		.ascii	"long int\000"
 1728      20696E74 
 1728      00
 1729              	.LASF15:
 1730 03f1 6C6F6E67 		.ascii	"long double\000"
 1730      20646F75 
 1730      626C6500 
 1731              	.LASF12:
 1732 03fd 666C6F61 		.ascii	"float\000"
 1732      7400
 1733              	.LASF0:
 1734 0403 7369676E 		.ascii	"signed char\000"
 1734      65642063 
 1734      68617200 
 1735              	.LASF40:
 1736 040f 4379446D 		.ascii	"CyDmaChDisable\000"
 1736      61436844 
 1736      69736162 
 1736      6C6500
 1737              	.LASF23:
 1738 041e 57617665 		.ascii	"WaveDAC_2_Init\000"
 1738      4441435F 
 1738      325F496E 
 1738      697400
 1739              	.LASF22:
ARM GAS  C:\Users\admin\AppData\Local\Temp\ccZEVLam.s 			page 40


 1740 042d 57617665 		.ascii	"WaveDAC_2_Wave2Setup\000"
 1740      4441435F 
 1740      325F5761 
 1740      76653253 
 1740      65747570 
 1741              	.LASF33:
 1742 0442 57617665 		.ascii	"WaveDAC_2_Wave2TD\000"
 1742      4441435F 
 1742      325F5761 
 1742      76653254 
 1742      4400
 1743              		.ident	"GCC: (GNU Tools for ARM Embedded Processors) 5.4.1 20160609 (release) [ARM/embedded-5-bran
