ARM GAS  C:\Users\User\AppData\Local\Temp\ccjIN044.s 			page 1


   1              		.syntax unified
   2              		.cpu cortex-m3
   3              		.fpu softvfp
   4              		.eabi_attribute 20, 1
   5              		.eabi_attribute 21, 1
   6              		.eabi_attribute 23, 3
   7              		.eabi_attribute 24, 1
   8              		.eabi_attribute 25, 1
   9              		.eabi_attribute 26, 1
  10              		.eabi_attribute 30, 1
  11              		.eabi_attribute 34, 1
  12              		.eabi_attribute 18, 4
  13              		.thumb
  14              		.syntax unified
  15              		.file	"WaveDAC8_VDAC8.c"
  16              		.text
  17              	.Ltext0:
  18              		.cfi_sections	.debug_frame
  19              		.section	.text.WaveDAC8_VDAC8_Enable,"ax",%progbits
  20              		.align	2
  21              		.global	WaveDAC8_VDAC8_Enable
  22              		.thumb
  23              		.thumb_func
  24              		.type	WaveDAC8_VDAC8_Enable, %function
  25              	WaveDAC8_VDAC8_Enable:
  26              	.LFB1:
  27              		.file 1 "Generated_Source\\PSoC5\\WaveDAC8_VDAC8.c"
   1:Generated_Source\PSoC5/WaveDAC8_VDAC8.c **** /*******************************************************************************
   2:Generated_Source\PSoC5/WaveDAC8_VDAC8.c **** * File Name: WaveDAC8_VDAC8.c  
   3:Generated_Source\PSoC5/WaveDAC8_VDAC8.c **** * Version 1.90
   4:Generated_Source\PSoC5/WaveDAC8_VDAC8.c **** *
   5:Generated_Source\PSoC5/WaveDAC8_VDAC8.c **** * Description:
   6:Generated_Source\PSoC5/WaveDAC8_VDAC8.c **** *  This file provides the source code to the API for the 8-bit Voltage DAC 
   7:Generated_Source\PSoC5/WaveDAC8_VDAC8.c **** *  (VDAC8) User Module.
   8:Generated_Source\PSoC5/WaveDAC8_VDAC8.c **** *
   9:Generated_Source\PSoC5/WaveDAC8_VDAC8.c **** * Note:
  10:Generated_Source\PSoC5/WaveDAC8_VDAC8.c **** *  Any unusual or non-standard behavior should be noted here. Other-
  11:Generated_Source\PSoC5/WaveDAC8_VDAC8.c **** *  wise, this section should remain blank.
  12:Generated_Source\PSoC5/WaveDAC8_VDAC8.c **** *
  13:Generated_Source\PSoC5/WaveDAC8_VDAC8.c **** ********************************************************************************
  14:Generated_Source\PSoC5/WaveDAC8_VDAC8.c **** * Copyright 2008-2012, Cypress Semiconductor Corporation.  All rights reserved.
  15:Generated_Source\PSoC5/WaveDAC8_VDAC8.c **** * You may use this file only in accordance with the license, terms, conditions, 
  16:Generated_Source\PSoC5/WaveDAC8_VDAC8.c **** * disclaimers, and limitations in the end user license agreement accompanying 
  17:Generated_Source\PSoC5/WaveDAC8_VDAC8.c **** * the software package with which this file was provided.
  18:Generated_Source\PSoC5/WaveDAC8_VDAC8.c **** *******************************************************************************/
  19:Generated_Source\PSoC5/WaveDAC8_VDAC8.c **** 
  20:Generated_Source\PSoC5/WaveDAC8_VDAC8.c **** #include "cytypes.h"
  21:Generated_Source\PSoC5/WaveDAC8_VDAC8.c **** #include "WaveDAC8_VDAC8.h"
  22:Generated_Source\PSoC5/WaveDAC8_VDAC8.c **** 
  23:Generated_Source\PSoC5/WaveDAC8_VDAC8.c **** #if (CY_PSOC5A)
  24:Generated_Source\PSoC5/WaveDAC8_VDAC8.c **** #include <CyLib.h>
  25:Generated_Source\PSoC5/WaveDAC8_VDAC8.c **** #endif /* CY_PSOC5A */
  26:Generated_Source\PSoC5/WaveDAC8_VDAC8.c **** 
  27:Generated_Source\PSoC5/WaveDAC8_VDAC8.c **** uint8 WaveDAC8_VDAC8_initVar = 0u;
  28:Generated_Source\PSoC5/WaveDAC8_VDAC8.c **** 
  29:Generated_Source\PSoC5/WaveDAC8_VDAC8.c **** #if (CY_PSOC5A)
  30:Generated_Source\PSoC5/WaveDAC8_VDAC8.c ****     static uint8 WaveDAC8_VDAC8_restoreVal = 0u;
ARM GAS  C:\Users\User\AppData\Local\Temp\ccjIN044.s 			page 2


  31:Generated_Source\PSoC5/WaveDAC8_VDAC8.c **** #endif /* CY_PSOC5A */
  32:Generated_Source\PSoC5/WaveDAC8_VDAC8.c **** 
  33:Generated_Source\PSoC5/WaveDAC8_VDAC8.c **** #if (CY_PSOC5A)
  34:Generated_Source\PSoC5/WaveDAC8_VDAC8.c ****     static WaveDAC8_VDAC8_backupStruct WaveDAC8_VDAC8_backup;
  35:Generated_Source\PSoC5/WaveDAC8_VDAC8.c **** #endif /* CY_PSOC5A */
  36:Generated_Source\PSoC5/WaveDAC8_VDAC8.c **** 
  37:Generated_Source\PSoC5/WaveDAC8_VDAC8.c **** 
  38:Generated_Source\PSoC5/WaveDAC8_VDAC8.c **** /*******************************************************************************
  39:Generated_Source\PSoC5/WaveDAC8_VDAC8.c **** * Function Name: WaveDAC8_VDAC8_Init
  40:Generated_Source\PSoC5/WaveDAC8_VDAC8.c **** ********************************************************************************
  41:Generated_Source\PSoC5/WaveDAC8_VDAC8.c **** * Summary:
  42:Generated_Source\PSoC5/WaveDAC8_VDAC8.c **** *  Initialize to the schematic state.
  43:Generated_Source\PSoC5/WaveDAC8_VDAC8.c **** * 
  44:Generated_Source\PSoC5/WaveDAC8_VDAC8.c **** * Parameters:
  45:Generated_Source\PSoC5/WaveDAC8_VDAC8.c **** *  void:
  46:Generated_Source\PSoC5/WaveDAC8_VDAC8.c **** *
  47:Generated_Source\PSoC5/WaveDAC8_VDAC8.c **** * Return:
  48:Generated_Source\PSoC5/WaveDAC8_VDAC8.c **** *  void
  49:Generated_Source\PSoC5/WaveDAC8_VDAC8.c **** *
  50:Generated_Source\PSoC5/WaveDAC8_VDAC8.c **** * Theory:
  51:Generated_Source\PSoC5/WaveDAC8_VDAC8.c **** *
  52:Generated_Source\PSoC5/WaveDAC8_VDAC8.c **** * Side Effects:
  53:Generated_Source\PSoC5/WaveDAC8_VDAC8.c **** *
  54:Generated_Source\PSoC5/WaveDAC8_VDAC8.c **** *******************************************************************************/
  55:Generated_Source\PSoC5/WaveDAC8_VDAC8.c **** void WaveDAC8_VDAC8_Init(void) 
  56:Generated_Source\PSoC5/WaveDAC8_VDAC8.c **** {
  57:Generated_Source\PSoC5/WaveDAC8_VDAC8.c ****     WaveDAC8_VDAC8_CR0 = (WaveDAC8_VDAC8_MODE_V );
  58:Generated_Source\PSoC5/WaveDAC8_VDAC8.c **** 
  59:Generated_Source\PSoC5/WaveDAC8_VDAC8.c ****     /* Set default data source */
  60:Generated_Source\PSoC5/WaveDAC8_VDAC8.c ****     #if(WaveDAC8_VDAC8_DEFAULT_DATA_SRC != 0 )
  61:Generated_Source\PSoC5/WaveDAC8_VDAC8.c ****         WaveDAC8_VDAC8_CR1 = (WaveDAC8_VDAC8_DEFAULT_CNTL | WaveDAC8_VDAC8_DACBUS_ENABLE) ;
  62:Generated_Source\PSoC5/WaveDAC8_VDAC8.c ****     #else
  63:Generated_Source\PSoC5/WaveDAC8_VDAC8.c ****         WaveDAC8_VDAC8_CR1 = (WaveDAC8_VDAC8_DEFAULT_CNTL | WaveDAC8_VDAC8_DACBUS_DISABLE) ;
  64:Generated_Source\PSoC5/WaveDAC8_VDAC8.c ****     #endif /* (WaveDAC8_VDAC8_DEFAULT_DATA_SRC != 0 ) */
  65:Generated_Source\PSoC5/WaveDAC8_VDAC8.c **** 
  66:Generated_Source\PSoC5/WaveDAC8_VDAC8.c ****     /* Set default strobe mode */
  67:Generated_Source\PSoC5/WaveDAC8_VDAC8.c ****     #if(WaveDAC8_VDAC8_DEFAULT_STRB != 0)
  68:Generated_Source\PSoC5/WaveDAC8_VDAC8.c ****         WaveDAC8_VDAC8_Strobe |= WaveDAC8_VDAC8_STRB_EN ;
  69:Generated_Source\PSoC5/WaveDAC8_VDAC8.c ****     #endif/* (WaveDAC8_VDAC8_DEFAULT_STRB != 0) */
  70:Generated_Source\PSoC5/WaveDAC8_VDAC8.c **** 
  71:Generated_Source\PSoC5/WaveDAC8_VDAC8.c ****     /* Set default range */
  72:Generated_Source\PSoC5/WaveDAC8_VDAC8.c ****     WaveDAC8_VDAC8_SetRange(WaveDAC8_VDAC8_DEFAULT_RANGE); 
  73:Generated_Source\PSoC5/WaveDAC8_VDAC8.c **** 
  74:Generated_Source\PSoC5/WaveDAC8_VDAC8.c ****     /* Set default speed */
  75:Generated_Source\PSoC5/WaveDAC8_VDAC8.c ****     WaveDAC8_VDAC8_SetSpeed(WaveDAC8_VDAC8_DEFAULT_SPEED);
  76:Generated_Source\PSoC5/WaveDAC8_VDAC8.c **** }
  77:Generated_Source\PSoC5/WaveDAC8_VDAC8.c **** 
  78:Generated_Source\PSoC5/WaveDAC8_VDAC8.c **** 
  79:Generated_Source\PSoC5/WaveDAC8_VDAC8.c **** /*******************************************************************************
  80:Generated_Source\PSoC5/WaveDAC8_VDAC8.c **** * Function Name: WaveDAC8_VDAC8_Enable
  81:Generated_Source\PSoC5/WaveDAC8_VDAC8.c **** ********************************************************************************
  82:Generated_Source\PSoC5/WaveDAC8_VDAC8.c **** * Summary:
  83:Generated_Source\PSoC5/WaveDAC8_VDAC8.c **** *  Enable the VDAC8
  84:Generated_Source\PSoC5/WaveDAC8_VDAC8.c **** * 
  85:Generated_Source\PSoC5/WaveDAC8_VDAC8.c **** * Parameters:
  86:Generated_Source\PSoC5/WaveDAC8_VDAC8.c **** *  void
  87:Generated_Source\PSoC5/WaveDAC8_VDAC8.c **** *
ARM GAS  C:\Users\User\AppData\Local\Temp\ccjIN044.s 			page 3


  88:Generated_Source\PSoC5/WaveDAC8_VDAC8.c **** * Return:
  89:Generated_Source\PSoC5/WaveDAC8_VDAC8.c **** *  void
  90:Generated_Source\PSoC5/WaveDAC8_VDAC8.c **** *
  91:Generated_Source\PSoC5/WaveDAC8_VDAC8.c **** * Theory:
  92:Generated_Source\PSoC5/WaveDAC8_VDAC8.c **** *
  93:Generated_Source\PSoC5/WaveDAC8_VDAC8.c **** * Side Effects:
  94:Generated_Source\PSoC5/WaveDAC8_VDAC8.c **** *
  95:Generated_Source\PSoC5/WaveDAC8_VDAC8.c **** *******************************************************************************/
  96:Generated_Source\PSoC5/WaveDAC8_VDAC8.c **** void WaveDAC8_VDAC8_Enable(void) 
  97:Generated_Source\PSoC5/WaveDAC8_VDAC8.c **** {
  28              		.loc 1 97 0
  29              		.cfi_startproc
  30              		@ args = 0, pretend = 0, frame = 0
  31              		@ frame_needed = 0, uses_anonymous_args = 0
  32              		@ link register save eliminated.
  98:Generated_Source\PSoC5/WaveDAC8_VDAC8.c ****     WaveDAC8_VDAC8_PWRMGR |= WaveDAC8_VDAC8_ACT_PWR_EN;
  33              		.loc 1 98 0
  34 0000 054A     		ldr	r2, .L2
  35 0002 1378     		ldrb	r3, [r2]	@ zero_extendqisi2
  36 0004 43F00803 		orr	r3, r3, #8
  37 0008 1370     		strb	r3, [r2]
  99:Generated_Source\PSoC5/WaveDAC8_VDAC8.c ****     WaveDAC8_VDAC8_STBY_PWRMGR |= WaveDAC8_VDAC8_STBY_PWR_EN;
  38              		.loc 1 99 0
  39 000a 1032     		adds	r2, r2, #16
  40 000c 1378     		ldrb	r3, [r2]	@ zero_extendqisi2
  41 000e 43F00803 		orr	r3, r3, #8
  42 0012 1370     		strb	r3, [r2]
  43 0014 7047     		bx	lr
  44              	.L3:
  45 0016 00BF     		.align	2
  46              	.L2:
  47 0018 A8430040 		.word	1073759144
  48              		.cfi_endproc
  49              	.LFE1:
  50              		.size	WaveDAC8_VDAC8_Enable, .-WaveDAC8_VDAC8_Enable
  51              		.section	.text.WaveDAC8_VDAC8_Stop,"ax",%progbits
  52              		.align	2
  53              		.global	WaveDAC8_VDAC8_Stop
  54              		.thumb
  55              		.thumb_func
  56              		.type	WaveDAC8_VDAC8_Stop, %function
  57              	WaveDAC8_VDAC8_Stop:
  58              	.LFB3:
 100:Generated_Source\PSoC5/WaveDAC8_VDAC8.c **** 
 101:Generated_Source\PSoC5/WaveDAC8_VDAC8.c ****     /*This is to restore the value of register CR0 ,
 102:Generated_Source\PSoC5/WaveDAC8_VDAC8.c ****     which is modified  in Stop API , this prevents misbehaviour of VDAC */
 103:Generated_Source\PSoC5/WaveDAC8_VDAC8.c ****     #if (CY_PSOC5A)
 104:Generated_Source\PSoC5/WaveDAC8_VDAC8.c ****         if(WaveDAC8_VDAC8_restoreVal == 1u) 
 105:Generated_Source\PSoC5/WaveDAC8_VDAC8.c ****         {
 106:Generated_Source\PSoC5/WaveDAC8_VDAC8.c ****              WaveDAC8_VDAC8_CR0 = WaveDAC8_VDAC8_backup.data_value;
 107:Generated_Source\PSoC5/WaveDAC8_VDAC8.c ****              WaveDAC8_VDAC8_restoreVal = 0u;
 108:Generated_Source\PSoC5/WaveDAC8_VDAC8.c ****         }
 109:Generated_Source\PSoC5/WaveDAC8_VDAC8.c ****     #endif /* CY_PSOC5A */
 110:Generated_Source\PSoC5/WaveDAC8_VDAC8.c **** }
 111:Generated_Source\PSoC5/WaveDAC8_VDAC8.c **** 
 112:Generated_Source\PSoC5/WaveDAC8_VDAC8.c **** 
 113:Generated_Source\PSoC5/WaveDAC8_VDAC8.c **** /*******************************************************************************
ARM GAS  C:\Users\User\AppData\Local\Temp\ccjIN044.s 			page 4


 114:Generated_Source\PSoC5/WaveDAC8_VDAC8.c **** * Function Name: WaveDAC8_VDAC8_Start
 115:Generated_Source\PSoC5/WaveDAC8_VDAC8.c **** ********************************************************************************
 116:Generated_Source\PSoC5/WaveDAC8_VDAC8.c **** *
 117:Generated_Source\PSoC5/WaveDAC8_VDAC8.c **** * Summary:
 118:Generated_Source\PSoC5/WaveDAC8_VDAC8.c **** *  The start function initializes the voltage DAC with the default values, 
 119:Generated_Source\PSoC5/WaveDAC8_VDAC8.c **** *  and sets the power to the given level.  A power level of 0, is the same as
 120:Generated_Source\PSoC5/WaveDAC8_VDAC8.c **** *  executing the stop function.
 121:Generated_Source\PSoC5/WaveDAC8_VDAC8.c **** *
 122:Generated_Source\PSoC5/WaveDAC8_VDAC8.c **** * Parameters:
 123:Generated_Source\PSoC5/WaveDAC8_VDAC8.c **** *  Power: Sets power level between off (0) and (3) high power
 124:Generated_Source\PSoC5/WaveDAC8_VDAC8.c **** *
 125:Generated_Source\PSoC5/WaveDAC8_VDAC8.c **** * Return:
 126:Generated_Source\PSoC5/WaveDAC8_VDAC8.c **** *  void 
 127:Generated_Source\PSoC5/WaveDAC8_VDAC8.c **** *
 128:Generated_Source\PSoC5/WaveDAC8_VDAC8.c **** * Global variables:
 129:Generated_Source\PSoC5/WaveDAC8_VDAC8.c **** *  WaveDAC8_VDAC8_initVar: Is modified when this function is called for the 
 130:Generated_Source\PSoC5/WaveDAC8_VDAC8.c **** *  first time. Is used to ensure that initialization happens only once.
 131:Generated_Source\PSoC5/WaveDAC8_VDAC8.c **** *
 132:Generated_Source\PSoC5/WaveDAC8_VDAC8.c **** *******************************************************************************/
 133:Generated_Source\PSoC5/WaveDAC8_VDAC8.c **** void WaveDAC8_VDAC8_Start(void)  
 134:Generated_Source\PSoC5/WaveDAC8_VDAC8.c **** {
 135:Generated_Source\PSoC5/WaveDAC8_VDAC8.c ****     /* Hardware initiazation only needs to occure the first time */
 136:Generated_Source\PSoC5/WaveDAC8_VDAC8.c ****     if(WaveDAC8_VDAC8_initVar == 0u)
 137:Generated_Source\PSoC5/WaveDAC8_VDAC8.c ****     { 
 138:Generated_Source\PSoC5/WaveDAC8_VDAC8.c ****         WaveDAC8_VDAC8_Init();
 139:Generated_Source\PSoC5/WaveDAC8_VDAC8.c ****         WaveDAC8_VDAC8_initVar = 1u;
 140:Generated_Source\PSoC5/WaveDAC8_VDAC8.c ****     }
 141:Generated_Source\PSoC5/WaveDAC8_VDAC8.c **** 
 142:Generated_Source\PSoC5/WaveDAC8_VDAC8.c ****     /* Enable power to DAC */
 143:Generated_Source\PSoC5/WaveDAC8_VDAC8.c ****     WaveDAC8_VDAC8_Enable();
 144:Generated_Source\PSoC5/WaveDAC8_VDAC8.c **** 
 145:Generated_Source\PSoC5/WaveDAC8_VDAC8.c ****     /* Set default value */
 146:Generated_Source\PSoC5/WaveDAC8_VDAC8.c ****     WaveDAC8_VDAC8_SetValue(WaveDAC8_VDAC8_DEFAULT_DATA); 
 147:Generated_Source\PSoC5/WaveDAC8_VDAC8.c **** }
 148:Generated_Source\PSoC5/WaveDAC8_VDAC8.c **** 
 149:Generated_Source\PSoC5/WaveDAC8_VDAC8.c **** 
 150:Generated_Source\PSoC5/WaveDAC8_VDAC8.c **** /*******************************************************************************
 151:Generated_Source\PSoC5/WaveDAC8_VDAC8.c **** * Function Name: WaveDAC8_VDAC8_Stop
 152:Generated_Source\PSoC5/WaveDAC8_VDAC8.c **** ********************************************************************************
 153:Generated_Source\PSoC5/WaveDAC8_VDAC8.c **** *
 154:Generated_Source\PSoC5/WaveDAC8_VDAC8.c **** * Summary:
 155:Generated_Source\PSoC5/WaveDAC8_VDAC8.c **** *  Powers down DAC to lowest power state.
 156:Generated_Source\PSoC5/WaveDAC8_VDAC8.c **** *
 157:Generated_Source\PSoC5/WaveDAC8_VDAC8.c **** * Parameters:
 158:Generated_Source\PSoC5/WaveDAC8_VDAC8.c **** *  void
 159:Generated_Source\PSoC5/WaveDAC8_VDAC8.c **** *
 160:Generated_Source\PSoC5/WaveDAC8_VDAC8.c **** * Return:
 161:Generated_Source\PSoC5/WaveDAC8_VDAC8.c **** *  void
 162:Generated_Source\PSoC5/WaveDAC8_VDAC8.c **** *
 163:Generated_Source\PSoC5/WaveDAC8_VDAC8.c **** * Theory:
 164:Generated_Source\PSoC5/WaveDAC8_VDAC8.c **** *
 165:Generated_Source\PSoC5/WaveDAC8_VDAC8.c **** * Side Effects:
 166:Generated_Source\PSoC5/WaveDAC8_VDAC8.c **** *
 167:Generated_Source\PSoC5/WaveDAC8_VDAC8.c **** *******************************************************************************/
 168:Generated_Source\PSoC5/WaveDAC8_VDAC8.c **** void WaveDAC8_VDAC8_Stop(void) 
 169:Generated_Source\PSoC5/WaveDAC8_VDAC8.c **** {
  59              		.loc 1 169 0
ARM GAS  C:\Users\User\AppData\Local\Temp\ccjIN044.s 			page 5


  60              		.cfi_startproc
  61              		@ args = 0, pretend = 0, frame = 0
  62              		@ frame_needed = 0, uses_anonymous_args = 0
  63              		@ link register save eliminated.
 170:Generated_Source\PSoC5/WaveDAC8_VDAC8.c ****     /* Disble power to DAC */
 171:Generated_Source\PSoC5/WaveDAC8_VDAC8.c ****     WaveDAC8_VDAC8_PWRMGR &= (uint8)(~WaveDAC8_VDAC8_ACT_PWR_EN);
  64              		.loc 1 171 0
  65 0000 054A     		ldr	r2, .L5
  66 0002 1378     		ldrb	r3, [r2]	@ zero_extendqisi2
  67 0004 03F0F703 		and	r3, r3, #247
  68 0008 1370     		strb	r3, [r2]
 172:Generated_Source\PSoC5/WaveDAC8_VDAC8.c ****     WaveDAC8_VDAC8_STBY_PWRMGR &= (uint8)(~WaveDAC8_VDAC8_STBY_PWR_EN);
  69              		.loc 1 172 0
  70 000a 1032     		adds	r2, r2, #16
  71 000c 1378     		ldrb	r3, [r2]	@ zero_extendqisi2
  72 000e 03F0F703 		and	r3, r3, #247
  73 0012 1370     		strb	r3, [r2]
  74 0014 7047     		bx	lr
  75              	.L6:
  76 0016 00BF     		.align	2
  77              	.L5:
  78 0018 A8430040 		.word	1073759144
  79              		.cfi_endproc
  80              	.LFE3:
  81              		.size	WaveDAC8_VDAC8_Stop, .-WaveDAC8_VDAC8_Stop
  82              		.section	.text.WaveDAC8_VDAC8_SetSpeed,"ax",%progbits
  83              		.align	2
  84              		.global	WaveDAC8_VDAC8_SetSpeed
  85              		.thumb
  86              		.thumb_func
  87              		.type	WaveDAC8_VDAC8_SetSpeed, %function
  88              	WaveDAC8_VDAC8_SetSpeed:
  89              	.LFB4:
 173:Generated_Source\PSoC5/WaveDAC8_VDAC8.c **** 
 174:Generated_Source\PSoC5/WaveDAC8_VDAC8.c ****     /* This is a work around for PSoC5A  ,
 175:Generated_Source\PSoC5/WaveDAC8_VDAC8.c ****     this sets VDAC to current mode with output off */
 176:Generated_Source\PSoC5/WaveDAC8_VDAC8.c ****     #if (CY_PSOC5A)
 177:Generated_Source\PSoC5/WaveDAC8_VDAC8.c ****         WaveDAC8_VDAC8_backup.data_value = WaveDAC8_VDAC8_CR0;
 178:Generated_Source\PSoC5/WaveDAC8_VDAC8.c ****         WaveDAC8_VDAC8_CR0 = WaveDAC8_VDAC8_CUR_MODE_OUT_OFF;
 179:Generated_Source\PSoC5/WaveDAC8_VDAC8.c ****         WaveDAC8_VDAC8_restoreVal = 1u;
 180:Generated_Source\PSoC5/WaveDAC8_VDAC8.c ****     #endif /* CY_PSOC5A */
 181:Generated_Source\PSoC5/WaveDAC8_VDAC8.c **** }
 182:Generated_Source\PSoC5/WaveDAC8_VDAC8.c **** 
 183:Generated_Source\PSoC5/WaveDAC8_VDAC8.c **** 
 184:Generated_Source\PSoC5/WaveDAC8_VDAC8.c **** /*******************************************************************************
 185:Generated_Source\PSoC5/WaveDAC8_VDAC8.c **** * Function Name: WaveDAC8_VDAC8_SetSpeed
 186:Generated_Source\PSoC5/WaveDAC8_VDAC8.c **** ********************************************************************************
 187:Generated_Source\PSoC5/WaveDAC8_VDAC8.c **** *
 188:Generated_Source\PSoC5/WaveDAC8_VDAC8.c **** * Summary:
 189:Generated_Source\PSoC5/WaveDAC8_VDAC8.c **** *  Set DAC speed
 190:Generated_Source\PSoC5/WaveDAC8_VDAC8.c **** *
 191:Generated_Source\PSoC5/WaveDAC8_VDAC8.c **** * Parameters:
 192:Generated_Source\PSoC5/WaveDAC8_VDAC8.c **** *  power: Sets speed value
 193:Generated_Source\PSoC5/WaveDAC8_VDAC8.c **** *
 194:Generated_Source\PSoC5/WaveDAC8_VDAC8.c **** * Return:
 195:Generated_Source\PSoC5/WaveDAC8_VDAC8.c **** *  void
 196:Generated_Source\PSoC5/WaveDAC8_VDAC8.c **** *
ARM GAS  C:\Users\User\AppData\Local\Temp\ccjIN044.s 			page 6


 197:Generated_Source\PSoC5/WaveDAC8_VDAC8.c **** * Theory:
 198:Generated_Source\PSoC5/WaveDAC8_VDAC8.c **** *
 199:Generated_Source\PSoC5/WaveDAC8_VDAC8.c **** * Side Effects:
 200:Generated_Source\PSoC5/WaveDAC8_VDAC8.c **** *
 201:Generated_Source\PSoC5/WaveDAC8_VDAC8.c **** *******************************************************************************/
 202:Generated_Source\PSoC5/WaveDAC8_VDAC8.c **** void WaveDAC8_VDAC8_SetSpeed(uint8 speed) 
 203:Generated_Source\PSoC5/WaveDAC8_VDAC8.c **** {
  90              		.loc 1 203 0
  91              		.cfi_startproc
  92              		@ args = 0, pretend = 0, frame = 0
  93              		@ frame_needed = 0, uses_anonymous_args = 0
  94              		@ link register save eliminated.
  95              	.LVL0:
 204:Generated_Source\PSoC5/WaveDAC8_VDAC8.c ****     /* Clear power mask then write in new value */
 205:Generated_Source\PSoC5/WaveDAC8_VDAC8.c ****     WaveDAC8_VDAC8_CR0 &= (uint8)(~WaveDAC8_VDAC8_HS_MASK);
  96              		.loc 1 205 0
  97 0000 054B     		ldr	r3, .L8
  98 0002 1A78     		ldrb	r2, [r3]	@ zero_extendqisi2
  99 0004 02F0FD02 		and	r2, r2, #253
 100 0008 1A70     		strb	r2, [r3]
 206:Generated_Source\PSoC5/WaveDAC8_VDAC8.c ****     WaveDAC8_VDAC8_CR0 |=  (speed & WaveDAC8_VDAC8_HS_MASK);
 101              		.loc 1 206 0
 102 000a 1A78     		ldrb	r2, [r3]	@ zero_extendqisi2
 103 000c 00F00200 		and	r0, r0, #2
 104              	.LVL1:
 105 0010 1043     		orrs	r0, r0, r2
 106 0012 1870     		strb	r0, [r3]
 107 0014 7047     		bx	lr
 108              	.L9:
 109 0016 00BF     		.align	2
 110              	.L8:
 111 0018 2C580040 		.word	1073764396
 112              		.cfi_endproc
 113              	.LFE4:
 114              		.size	WaveDAC8_VDAC8_SetSpeed, .-WaveDAC8_VDAC8_SetSpeed
 115              		.section	.text.WaveDAC8_VDAC8_SetValue,"ax",%progbits
 116              		.align	2
 117              		.global	WaveDAC8_VDAC8_SetValue
 118              		.thumb
 119              		.thumb_func
 120              		.type	WaveDAC8_VDAC8_SetValue, %function
 121              	WaveDAC8_VDAC8_SetValue:
 122              	.LFB6:
 207:Generated_Source\PSoC5/WaveDAC8_VDAC8.c **** }
 208:Generated_Source\PSoC5/WaveDAC8_VDAC8.c **** 
 209:Generated_Source\PSoC5/WaveDAC8_VDAC8.c **** 
 210:Generated_Source\PSoC5/WaveDAC8_VDAC8.c **** /*******************************************************************************
 211:Generated_Source\PSoC5/WaveDAC8_VDAC8.c **** * Function Name: WaveDAC8_VDAC8_SetRange
 212:Generated_Source\PSoC5/WaveDAC8_VDAC8.c **** ********************************************************************************
 213:Generated_Source\PSoC5/WaveDAC8_VDAC8.c **** *
 214:Generated_Source\PSoC5/WaveDAC8_VDAC8.c **** * Summary:
 215:Generated_Source\PSoC5/WaveDAC8_VDAC8.c **** *  Set one of three current ranges.
 216:Generated_Source\PSoC5/WaveDAC8_VDAC8.c **** *
 217:Generated_Source\PSoC5/WaveDAC8_VDAC8.c **** * Parameters:
 218:Generated_Source\PSoC5/WaveDAC8_VDAC8.c **** *  Range: Sets one of Three valid ranges.
 219:Generated_Source\PSoC5/WaveDAC8_VDAC8.c **** *
 220:Generated_Source\PSoC5/WaveDAC8_VDAC8.c **** * Return:
ARM GAS  C:\Users\User\AppData\Local\Temp\ccjIN044.s 			page 7


 221:Generated_Source\PSoC5/WaveDAC8_VDAC8.c **** *  void 
 222:Generated_Source\PSoC5/WaveDAC8_VDAC8.c **** *
 223:Generated_Source\PSoC5/WaveDAC8_VDAC8.c **** * Theory:
 224:Generated_Source\PSoC5/WaveDAC8_VDAC8.c **** *
 225:Generated_Source\PSoC5/WaveDAC8_VDAC8.c **** * Side Effects:
 226:Generated_Source\PSoC5/WaveDAC8_VDAC8.c **** *
 227:Generated_Source\PSoC5/WaveDAC8_VDAC8.c **** *******************************************************************************/
 228:Generated_Source\PSoC5/WaveDAC8_VDAC8.c **** void WaveDAC8_VDAC8_SetRange(uint8 range) 
 229:Generated_Source\PSoC5/WaveDAC8_VDAC8.c **** {
 230:Generated_Source\PSoC5/WaveDAC8_VDAC8.c ****     WaveDAC8_VDAC8_CR0 &= (uint8)(~WaveDAC8_VDAC8_RANGE_MASK);      /* Clear existing mode */
 231:Generated_Source\PSoC5/WaveDAC8_VDAC8.c ****     WaveDAC8_VDAC8_CR0 |= (range & WaveDAC8_VDAC8_RANGE_MASK);      /*  Set Range  */
 232:Generated_Source\PSoC5/WaveDAC8_VDAC8.c ****     WaveDAC8_VDAC8_DacTrim();
 233:Generated_Source\PSoC5/WaveDAC8_VDAC8.c **** }
 234:Generated_Source\PSoC5/WaveDAC8_VDAC8.c **** 
 235:Generated_Source\PSoC5/WaveDAC8_VDAC8.c **** 
 236:Generated_Source\PSoC5/WaveDAC8_VDAC8.c **** /*******************************************************************************
 237:Generated_Source\PSoC5/WaveDAC8_VDAC8.c **** * Function Name: WaveDAC8_VDAC8_SetValue
 238:Generated_Source\PSoC5/WaveDAC8_VDAC8.c **** ********************************************************************************
 239:Generated_Source\PSoC5/WaveDAC8_VDAC8.c **** *
 240:Generated_Source\PSoC5/WaveDAC8_VDAC8.c **** * Summary:
 241:Generated_Source\PSoC5/WaveDAC8_VDAC8.c **** *  Set 8-bit DAC value
 242:Generated_Source\PSoC5/WaveDAC8_VDAC8.c **** *
 243:Generated_Source\PSoC5/WaveDAC8_VDAC8.c **** * Parameters:  
 244:Generated_Source\PSoC5/WaveDAC8_VDAC8.c **** *  value:  Sets DAC value between 0 and 255.
 245:Generated_Source\PSoC5/WaveDAC8_VDAC8.c **** *
 246:Generated_Source\PSoC5/WaveDAC8_VDAC8.c **** * Return: 
 247:Generated_Source\PSoC5/WaveDAC8_VDAC8.c **** *  void 
 248:Generated_Source\PSoC5/WaveDAC8_VDAC8.c **** *
 249:Generated_Source\PSoC5/WaveDAC8_VDAC8.c **** * Theory: 
 250:Generated_Source\PSoC5/WaveDAC8_VDAC8.c **** *
 251:Generated_Source\PSoC5/WaveDAC8_VDAC8.c **** * Side Effects:
 252:Generated_Source\PSoC5/WaveDAC8_VDAC8.c **** *
 253:Generated_Source\PSoC5/WaveDAC8_VDAC8.c **** *******************************************************************************/
 254:Generated_Source\PSoC5/WaveDAC8_VDAC8.c **** void WaveDAC8_VDAC8_SetValue(uint8 value) 
 255:Generated_Source\PSoC5/WaveDAC8_VDAC8.c **** {
 123              		.loc 1 255 0
 124              		.cfi_startproc
 125              		@ args = 0, pretend = 0, frame = 0
 126              		@ frame_needed = 0, uses_anonymous_args = 0
 127              		@ link register save eliminated.
 128              	.LVL2:
 256:Generated_Source\PSoC5/WaveDAC8_VDAC8.c ****     #if (CY_PSOC5A)
 257:Generated_Source\PSoC5/WaveDAC8_VDAC8.c ****         uint8 WaveDAC8_VDAC8_intrStatus = CyEnterCriticalSection();
 258:Generated_Source\PSoC5/WaveDAC8_VDAC8.c ****     #endif /* CY_PSOC5A */
 259:Generated_Source\PSoC5/WaveDAC8_VDAC8.c **** 
 260:Generated_Source\PSoC5/WaveDAC8_VDAC8.c ****     WaveDAC8_VDAC8_Data = value;                /*  Set Value  */
 129              		.loc 1 260 0
 130 0000 014B     		ldr	r3, .L11
 131 0002 1870     		strb	r0, [r3]
 132 0004 7047     		bx	lr
 133              	.L12:
 134 0006 00BF     		.align	2
 135              	.L11:
 136 0008 835B0040 		.word	1073765251
 137              		.cfi_endproc
 138              	.LFE6:
 139              		.size	WaveDAC8_VDAC8_SetValue, .-WaveDAC8_VDAC8_SetValue
ARM GAS  C:\Users\User\AppData\Local\Temp\ccjIN044.s 			page 8


 140              		.section	.text.WaveDAC8_VDAC8_DacTrim,"ax",%progbits
 141              		.align	2
 142              		.global	WaveDAC8_VDAC8_DacTrim
 143              		.thumb
 144              		.thumb_func
 145              		.type	WaveDAC8_VDAC8_DacTrim, %function
 146              	WaveDAC8_VDAC8_DacTrim:
 147              	.LFB7:
 261:Generated_Source\PSoC5/WaveDAC8_VDAC8.c **** 
 262:Generated_Source\PSoC5/WaveDAC8_VDAC8.c ****     /* PSOC5A requires a double write */
 263:Generated_Source\PSoC5/WaveDAC8_VDAC8.c ****     /* Exit Critical Section */
 264:Generated_Source\PSoC5/WaveDAC8_VDAC8.c ****     #if (CY_PSOC5A)
 265:Generated_Source\PSoC5/WaveDAC8_VDAC8.c ****         WaveDAC8_VDAC8_Data = value;
 266:Generated_Source\PSoC5/WaveDAC8_VDAC8.c ****         CyExitCriticalSection(WaveDAC8_VDAC8_intrStatus);
 267:Generated_Source\PSoC5/WaveDAC8_VDAC8.c ****     #endif /* CY_PSOC5A */
 268:Generated_Source\PSoC5/WaveDAC8_VDAC8.c **** }
 269:Generated_Source\PSoC5/WaveDAC8_VDAC8.c **** 
 270:Generated_Source\PSoC5/WaveDAC8_VDAC8.c **** 
 271:Generated_Source\PSoC5/WaveDAC8_VDAC8.c **** /*******************************************************************************
 272:Generated_Source\PSoC5/WaveDAC8_VDAC8.c **** * Function Name: WaveDAC8_VDAC8_DacTrim
 273:Generated_Source\PSoC5/WaveDAC8_VDAC8.c **** ********************************************************************************
 274:Generated_Source\PSoC5/WaveDAC8_VDAC8.c **** *
 275:Generated_Source\PSoC5/WaveDAC8_VDAC8.c **** * Summary:
 276:Generated_Source\PSoC5/WaveDAC8_VDAC8.c **** *  Set the trim value for the given range.
 277:Generated_Source\PSoC5/WaveDAC8_VDAC8.c **** *
 278:Generated_Source\PSoC5/WaveDAC8_VDAC8.c **** * Parameters:
 279:Generated_Source\PSoC5/WaveDAC8_VDAC8.c **** *  range:  1V or 4V range.  See constants.
 280:Generated_Source\PSoC5/WaveDAC8_VDAC8.c **** *
 281:Generated_Source\PSoC5/WaveDAC8_VDAC8.c **** * Return:
 282:Generated_Source\PSoC5/WaveDAC8_VDAC8.c **** *  void
 283:Generated_Source\PSoC5/WaveDAC8_VDAC8.c **** *
 284:Generated_Source\PSoC5/WaveDAC8_VDAC8.c **** * Theory: 
 285:Generated_Source\PSoC5/WaveDAC8_VDAC8.c **** *
 286:Generated_Source\PSoC5/WaveDAC8_VDAC8.c **** * Side Effects:
 287:Generated_Source\PSoC5/WaveDAC8_VDAC8.c **** *
 288:Generated_Source\PSoC5/WaveDAC8_VDAC8.c **** *******************************************************************************/
 289:Generated_Source\PSoC5/WaveDAC8_VDAC8.c **** void WaveDAC8_VDAC8_DacTrim(void) 
 290:Generated_Source\PSoC5/WaveDAC8_VDAC8.c **** {
 148              		.loc 1 290 0
 149              		.cfi_startproc
 150              		@ args = 0, pretend = 0, frame = 0
 151              		@ frame_needed = 0, uses_anonymous_args = 0
 152              		@ link register save eliminated.
 291:Generated_Source\PSoC5/WaveDAC8_VDAC8.c ****     uint8 mode;
 292:Generated_Source\PSoC5/WaveDAC8_VDAC8.c **** 
 293:Generated_Source\PSoC5/WaveDAC8_VDAC8.c ****     mode = (uint8)((WaveDAC8_VDAC8_CR0 & WaveDAC8_VDAC8_RANGE_MASK) >> 2) + WaveDAC8_VDAC8_TRIM_M7_
 153              		.loc 1 293 0
 154 0000 064B     		ldr	r3, .L14
 155 0002 1B78     		ldrb	r3, [r3]	@ zero_extendqisi2
 156 0004 C3F38103 		ubfx	r3, r3, #2, #2
 157              	.LVL3:
 294:Generated_Source\PSoC5/WaveDAC8_VDAC8.c ****     WaveDAC8_VDAC8_TR = CY_GET_XTND_REG8((uint8 *)(WaveDAC8_VDAC8_DAC_TRIM_BASE + mode));
 158              		.loc 1 294 0
 159 0008 03F19243 		add	r3, r3, #1224736768
 160              	.LVL4:
 161 000c 0633     		adds	r3, r3, #6
 162              	.LVL5:
ARM GAS  C:\Users\User\AppData\Local\Temp\ccjIN044.s 			page 9


 163 000e 93F83831 		ldrb	r3, [r3, #312]	@ zero_extendqisi2
 164              	.LVL6:
 165 0012 DBB2     		uxtb	r3, r3
 166 0014 024A     		ldr	r2, .L14+4
 167 0016 1370     		strb	r3, [r2]
 168 0018 7047     		bx	lr
 169              	.L15:
 170 001a 00BF     		.align	2
 171              	.L14:
 172 001c 2C580040 		.word	1073764396
 173 0020 0B460040 		.word	1073759755
 174              		.cfi_endproc
 175              	.LFE7:
 176              		.size	WaveDAC8_VDAC8_DacTrim, .-WaveDAC8_VDAC8_DacTrim
 177              		.section	.text.WaveDAC8_VDAC8_SetRange,"ax",%progbits
 178              		.align	2
 179              		.global	WaveDAC8_VDAC8_SetRange
 180              		.thumb
 181              		.thumb_func
 182              		.type	WaveDAC8_VDAC8_SetRange, %function
 183              	WaveDAC8_VDAC8_SetRange:
 184              	.LFB5:
 229:Generated_Source\PSoC5/WaveDAC8_VDAC8.c ****     WaveDAC8_VDAC8_CR0 &= (uint8)(~WaveDAC8_VDAC8_RANGE_MASK);      /* Clear existing mode */
 185              		.loc 1 229 0
 186              		.cfi_startproc
 187              		@ args = 0, pretend = 0, frame = 0
 188              		@ frame_needed = 0, uses_anonymous_args = 0
 189              	.LVL7:
 190 0000 08B5     		push	{r3, lr}
 191              		.cfi_def_cfa_offset 8
 192              		.cfi_offset 3, -8
 193              		.cfi_offset 14, -4
 230:Generated_Source\PSoC5/WaveDAC8_VDAC8.c ****     WaveDAC8_VDAC8_CR0 |= (range & WaveDAC8_VDAC8_RANGE_MASK);      /*  Set Range  */
 194              		.loc 1 230 0
 195 0002 064B     		ldr	r3, .L18
 196 0004 1A78     		ldrb	r2, [r3]	@ zero_extendqisi2
 197 0006 02F0F302 		and	r2, r2, #243
 198 000a 1A70     		strb	r2, [r3]
 231:Generated_Source\PSoC5/WaveDAC8_VDAC8.c ****     WaveDAC8_VDAC8_DacTrim();
 199              		.loc 1 231 0
 200 000c 1A78     		ldrb	r2, [r3]	@ zero_extendqisi2
 201 000e 00F00C00 		and	r0, r0, #12
 202              	.LVL8:
 203 0012 1043     		orrs	r0, r0, r2
 204 0014 1870     		strb	r0, [r3]
 232:Generated_Source\PSoC5/WaveDAC8_VDAC8.c **** }
 205              		.loc 1 232 0
 206 0016 FFF7FEFF 		bl	WaveDAC8_VDAC8_DacTrim
 207              	.LVL9:
 208 001a 08BD     		pop	{r3, pc}
 209              	.L19:
 210              		.align	2
 211              	.L18:
 212 001c 2C580040 		.word	1073764396
 213              		.cfi_endproc
 214              	.LFE5:
 215              		.size	WaveDAC8_VDAC8_SetRange, .-WaveDAC8_VDAC8_SetRange
ARM GAS  C:\Users\User\AppData\Local\Temp\ccjIN044.s 			page 10


 216              		.section	.text.WaveDAC8_VDAC8_Init,"ax",%progbits
 217              		.align	2
 218              		.global	WaveDAC8_VDAC8_Init
 219              		.thumb
 220              		.thumb_func
 221              		.type	WaveDAC8_VDAC8_Init, %function
 222              	WaveDAC8_VDAC8_Init:
 223              	.LFB0:
  56:Generated_Source\PSoC5/WaveDAC8_VDAC8.c ****     WaveDAC8_VDAC8_CR0 = (WaveDAC8_VDAC8_MODE_V );
 224              		.loc 1 56 0
 225              		.cfi_startproc
 226              		@ args = 0, pretend = 0, frame = 0
 227              		@ frame_needed = 0, uses_anonymous_args = 0
 228 0000 08B5     		push	{r3, lr}
 229              		.cfi_def_cfa_offset 8
 230              		.cfi_offset 3, -8
 231              		.cfi_offset 14, -4
  57:Generated_Source\PSoC5/WaveDAC8_VDAC8.c **** 
 232              		.loc 1 57 0
 233 0002 0020     		movs	r0, #0
 234 0004 074B     		ldr	r3, .L22
 235 0006 1870     		strb	r0, [r3]
  63:Generated_Source\PSoC5/WaveDAC8_VDAC8.c ****     #endif /* (WaveDAC8_VDAC8_DEFAULT_DATA_SRC != 0 ) */
 236              		.loc 1 63 0
 237 0008 0133     		adds	r3, r3, #1
 238 000a 1870     		strb	r0, [r3]
  68:Generated_Source\PSoC5/WaveDAC8_VDAC8.c ****     #endif/* (WaveDAC8_VDAC8_DEFAULT_STRB != 0) */
 239              		.loc 1 68 0
 240 000c 064A     		ldr	r2, .L22+4
 241 000e 1378     		ldrb	r3, [r2]	@ zero_extendqisi2
 242 0010 43F00803 		orr	r3, r3, #8
 243 0014 1370     		strb	r3, [r2]
  72:Generated_Source\PSoC5/WaveDAC8_VDAC8.c **** 
 244              		.loc 1 72 0
 245 0016 FFF7FEFF 		bl	WaveDAC8_VDAC8_SetRange
 246              	.LVL10:
  75:Generated_Source\PSoC5/WaveDAC8_VDAC8.c **** }
 247              		.loc 1 75 0
 248 001a 0220     		movs	r0, #2
 249 001c FFF7FEFF 		bl	WaveDAC8_VDAC8_SetSpeed
 250              	.LVL11:
 251 0020 08BD     		pop	{r3, pc}
 252              	.L23:
 253 0022 00BF     		.align	2
 254              	.L22:
 255 0024 2C580040 		.word	1073764396
 256 0028 9F5A0040 		.word	1073765023
 257              		.cfi_endproc
 258              	.LFE0:
 259              		.size	WaveDAC8_VDAC8_Init, .-WaveDAC8_VDAC8_Init
 260              		.section	.text.WaveDAC8_VDAC8_Start,"ax",%progbits
 261              		.align	2
 262              		.global	WaveDAC8_VDAC8_Start
 263              		.thumb
 264              		.thumb_func
 265              		.type	WaveDAC8_VDAC8_Start, %function
 266              	WaveDAC8_VDAC8_Start:
ARM GAS  C:\Users\User\AppData\Local\Temp\ccjIN044.s 			page 11


 267              	.LFB2:
 134:Generated_Source\PSoC5/WaveDAC8_VDAC8.c ****     /* Hardware initiazation only needs to occure the first time */
 268              		.loc 1 134 0
 269              		.cfi_startproc
 270              		@ args = 0, pretend = 0, frame = 0
 271              		@ frame_needed = 0, uses_anonymous_args = 0
 272 0000 08B5     		push	{r3, lr}
 273              		.cfi_def_cfa_offset 8
 274              		.cfi_offset 3, -8
 275              		.cfi_offset 14, -4
 136:Generated_Source\PSoC5/WaveDAC8_VDAC8.c ****     { 
 276              		.loc 1 136 0
 277 0002 074B     		ldr	r3, .L27
 278 0004 1B78     		ldrb	r3, [r3]	@ zero_extendqisi2
 279 0006 23B9     		cbnz	r3, .L25
 138:Generated_Source\PSoC5/WaveDAC8_VDAC8.c ****         WaveDAC8_VDAC8_initVar = 1u;
 280              		.loc 1 138 0
 281 0008 FFF7FEFF 		bl	WaveDAC8_VDAC8_Init
 282              	.LVL12:
 139:Generated_Source\PSoC5/WaveDAC8_VDAC8.c ****     }
 283              		.loc 1 139 0
 284 000c 0122     		movs	r2, #1
 285 000e 044B     		ldr	r3, .L27
 286 0010 1A70     		strb	r2, [r3]
 287              	.L25:
 143:Generated_Source\PSoC5/WaveDAC8_VDAC8.c **** 
 288              		.loc 1 143 0
 289 0012 FFF7FEFF 		bl	WaveDAC8_VDAC8_Enable
 290              	.LVL13:
 146:Generated_Source\PSoC5/WaveDAC8_VDAC8.c **** }
 291              		.loc 1 146 0
 292 0016 6420     		movs	r0, #100
 293 0018 FFF7FEFF 		bl	WaveDAC8_VDAC8_SetValue
 294              	.LVL14:
 295 001c 08BD     		pop	{r3, pc}
 296              	.L28:
 297 001e 00BF     		.align	2
 298              	.L27:
 299 0020 00000000 		.word	.LANCHOR0
 300              		.cfi_endproc
 301              	.LFE2:
 302              		.size	WaveDAC8_VDAC8_Start, .-WaveDAC8_VDAC8_Start
 303              		.global	WaveDAC8_VDAC8_initVar
 304              		.bss
 305              		.set	.LANCHOR0,. + 0
 306              		.type	WaveDAC8_VDAC8_initVar, %object
 307              		.size	WaveDAC8_VDAC8_initVar, 1
 308              	WaveDAC8_VDAC8_initVar:
 309 0000 00       		.space	1
 310              		.text
 311              	.Letext0:
 312              		.file 2 "Generated_Source\\PSoC5\\cytypes.h"
 313              		.section	.debug_info,"",%progbits
 314              	.Ldebug_info0:
 315 0000 DA010000 		.4byte	0x1da
 316 0004 0400     		.2byte	0x4
 317 0006 00000000 		.4byte	.Ldebug_abbrev0
ARM GAS  C:\Users\User\AppData\Local\Temp\ccjIN044.s 			page 12


 318 000a 04       		.byte	0x4
 319 000b 01       		.uleb128 0x1
 320 000c 46000000 		.4byte	.LASF25
 321 0010 0C       		.byte	0xc
 322 0011 34010000 		.4byte	.LASF26
 323 0015 BE010000 		.4byte	.LASF27
 324 0019 00000000 		.4byte	.Ldebug_ranges0+0
 325 001d 00000000 		.4byte	0
 326 0021 00000000 		.4byte	.Ldebug_line0
 327 0025 02       		.uleb128 0x2
 328 0026 01       		.byte	0x1
 329 0027 06       		.byte	0x6
 330 0028 33020000 		.4byte	.LASF0
 331 002c 02       		.uleb128 0x2
 332 002d 01       		.byte	0x1
 333 002e 08       		.byte	0x8
 334 002f 38000000 		.4byte	.LASF1
 335 0033 02       		.uleb128 0x2
 336 0034 02       		.byte	0x2
 337 0035 05       		.byte	0x5
 338 0036 B4010000 		.4byte	.LASF2
 339 003a 02       		.uleb128 0x2
 340 003b 02       		.byte	0x2
 341 003c 07       		.byte	0x7
 342 003d FF000000 		.4byte	.LASF3
 343 0041 02       		.uleb128 0x2
 344 0042 04       		.byte	0x4
 345 0043 05       		.byte	0x5
 346 0044 13020000 		.4byte	.LASF4
 347 0048 02       		.uleb128 0x2
 348 0049 04       		.byte	0x4
 349 004a 07       		.byte	0x7
 350 004b ED000000 		.4byte	.LASF5
 351 004f 02       		.uleb128 0x2
 352 0050 08       		.byte	0x8
 353 0051 05       		.byte	0x5
 354 0052 8B010000 		.4byte	.LASF6
 355 0056 02       		.uleb128 0x2
 356 0057 08       		.byte	0x8
 357 0058 07       		.byte	0x7
 358 0059 69010000 		.4byte	.LASF7
 359 005d 03       		.uleb128 0x3
 360 005e 04       		.byte	0x4
 361 005f 05       		.byte	0x5
 362 0060 696E7400 		.ascii	"int\000"
 363 0064 02       		.uleb128 0x2
 364 0065 04       		.byte	0x4
 365 0066 07       		.byte	0x7
 366 0067 5C010000 		.4byte	.LASF8
 367 006b 04       		.uleb128 0x4
 368 006c DD010000 		.4byte	.LASF12
 369 0070 02       		.byte	0x2
 370 0071 E401     		.2byte	0x1e4
 371 0073 2C000000 		.4byte	0x2c
 372 0077 02       		.uleb128 0x2
 373 0078 04       		.byte	0x4
 374 0079 04       		.byte	0x4
ARM GAS  C:\Users\User\AppData\Local\Temp\ccjIN044.s 			page 13


 375 007a 32000000 		.4byte	.LASF9
 376 007e 02       		.uleb128 0x2
 377 007f 08       		.byte	0x8
 378 0080 04       		.byte	0x4
 379 0081 2D010000 		.4byte	.LASF10
 380 0085 02       		.uleb128 0x2
 381 0086 01       		.byte	0x1
 382 0087 08       		.byte	0x8
 383 0088 99010000 		.4byte	.LASF11
 384 008c 04       		.uleb128 0x4
 385 008d D4000000 		.4byte	.LASF13
 386 0091 02       		.byte	0x2
 387 0092 8E02     		.2byte	0x28e
 388 0094 98000000 		.4byte	0x98
 389 0098 05       		.uleb128 0x5
 390 0099 6B000000 		.4byte	0x6b
 391 009d 06       		.uleb128 0x6
 392 009e 9E010000 		.4byte	.LASF14
 393 00a2 01       		.byte	0x1
 394 00a3 60       		.byte	0x60
 395 00a4 00000000 		.4byte	.LFB1
 396 00a8 1C000000 		.4byte	.LFE1-.LFB1
 397 00ac 01       		.uleb128 0x1
 398 00ad 9C       		.byte	0x9c
 399 00ae 06       		.uleb128 0x6
 400 00af D9000000 		.4byte	.LASF15
 401 00b3 01       		.byte	0x1
 402 00b4 A8       		.byte	0xa8
 403 00b5 00000000 		.4byte	.LFB3
 404 00b9 1C000000 		.4byte	.LFE3-.LFB3
 405 00bd 01       		.uleb128 0x1
 406 00be 9C       		.byte	0x9c
 407 00bf 07       		.uleb128 0x7
 408 00c0 E3010000 		.4byte	.LASF16
 409 00c4 01       		.byte	0x1
 410 00c5 CA       		.byte	0xca
 411 00c6 00000000 		.4byte	.LFB4
 412 00ca 1C000000 		.4byte	.LFE4-.LFB4
 413 00ce 01       		.uleb128 0x1
 414 00cf 9C       		.byte	0x9c
 415 00d0 E4000000 		.4byte	0xe4
 416 00d4 08       		.uleb128 0x8
 417 00d5 85010000 		.4byte	.LASF18
 418 00d9 01       		.byte	0x1
 419 00da CA       		.byte	0xca
 420 00db 6B000000 		.4byte	0x6b
 421 00df 00000000 		.4byte	.LLST0
 422 00e3 00       		.byte	0
 423 00e4 07       		.uleb128 0x7
 424 00e5 14000000 		.4byte	.LASF17
 425 00e9 01       		.byte	0x1
 426 00ea FE       		.byte	0xfe
 427 00eb 00000000 		.4byte	.LFB6
 428 00ef 0C000000 		.4byte	.LFE6-.LFB6
 429 00f3 01       		.uleb128 0x1
 430 00f4 9C       		.byte	0x9c
 431 00f5 07010000 		.4byte	0x107
ARM GAS  C:\Users\User\AppData\Local\Temp\ccjIN044.s 			page 14


 432 00f9 09       		.uleb128 0x9
 433 00fa 2C000000 		.4byte	.LASF19
 434 00fe 01       		.byte	0x1
 435 00ff FE       		.byte	0xfe
 436 0100 6B000000 		.4byte	0x6b
 437 0104 01       		.uleb128 0x1
 438 0105 50       		.byte	0x50
 439 0106 00       		.byte	0
 440 0107 0A       		.uleb128 0xa
 441 0108 1C020000 		.4byte	.LASF20
 442 010c 01       		.byte	0x1
 443 010d 2101     		.2byte	0x121
 444 010f 00000000 		.4byte	.LFB7
 445 0113 24000000 		.4byte	.LFE7-.LFB7
 446 0117 01       		.uleb128 0x1
 447 0118 9C       		.byte	0x9c
 448 0119 2E010000 		.4byte	0x12e
 449 011d 0B       		.uleb128 0xb
 450 011e 80010000 		.4byte	.LASF28
 451 0122 01       		.byte	0x1
 452 0123 2301     		.2byte	0x123
 453 0125 6B000000 		.4byte	0x6b
 454 0129 21000000 		.4byte	.LLST1
 455 012d 00       		.byte	0
 456 012e 07       		.uleb128 0x7
 457 012f FB010000 		.4byte	.LASF21
 458 0133 01       		.byte	0x1
 459 0134 E4       		.byte	0xe4
 460 0135 00000000 		.4byte	.LFB5
 461 0139 20000000 		.4byte	.LFE5-.LFB5
 462 013d 01       		.uleb128 0x1
 463 013e 9C       		.byte	0x9c
 464 013f 5C010000 		.4byte	0x15c
 465 0143 08       		.uleb128 0x8
 466 0144 27010000 		.4byte	.LASF22
 467 0148 01       		.byte	0x1
 468 0149 E4       		.byte	0xe4
 469 014a 6B000000 		.4byte	0x6b
 470 014e 58000000 		.4byte	.LLST2
 471 0152 0C       		.uleb128 0xc
 472 0153 1A000000 		.4byte	.LVL9
 473 0157 07010000 		.4byte	0x107
 474 015b 00       		.byte	0
 475 015c 07       		.uleb128 0x7
 476 015d 00000000 		.4byte	.LASF23
 477 0161 01       		.byte	0x1
 478 0162 37       		.byte	0x37
 479 0163 00000000 		.4byte	.LFB0
 480 0167 2C000000 		.4byte	.LFE0-.LFB0
 481 016b 01       		.uleb128 0x1
 482 016c 9C       		.byte	0x9c
 483 016d 94010000 		.4byte	0x194
 484 0171 0D       		.uleb128 0xd
 485 0172 1A000000 		.4byte	.LVL10
 486 0176 2E010000 		.4byte	0x12e
 487 017a 84010000 		.4byte	0x184
 488 017e 0E       		.uleb128 0xe
ARM GAS  C:\Users\User\AppData\Local\Temp\ccjIN044.s 			page 15


 489 017f 01       		.uleb128 0x1
 490 0180 50       		.byte	0x50
 491 0181 01       		.uleb128 0x1
 492 0182 30       		.byte	0x30
 493 0183 00       		.byte	0
 494 0184 0F       		.uleb128 0xf
 495 0185 20000000 		.4byte	.LVL11
 496 0189 BF000000 		.4byte	0xbf
 497 018d 0E       		.uleb128 0xe
 498 018e 01       		.uleb128 0x1
 499 018f 50       		.byte	0x50
 500 0190 01       		.uleb128 0x1
 501 0191 32       		.byte	0x32
 502 0192 00       		.byte	0
 503 0193 00       		.byte	0
 504 0194 07       		.uleb128 0x7
 505 0195 12010000 		.4byte	.LASF24
 506 0199 01       		.byte	0x1
 507 019a 85       		.byte	0x85
 508 019b 00000000 		.4byte	.LFB2
 509 019f 24000000 		.4byte	.LFE2-.LFB2
 510 01a3 01       		.uleb128 0x1
 511 01a4 9C       		.byte	0x9c
 512 01a5 CC010000 		.4byte	0x1cc
 513 01a9 0C       		.uleb128 0xc
 514 01aa 0C000000 		.4byte	.LVL12
 515 01ae 5C010000 		.4byte	0x15c
 516 01b2 0C       		.uleb128 0xc
 517 01b3 16000000 		.4byte	.LVL13
 518 01b7 9D000000 		.4byte	0x9d
 519 01bb 0F       		.uleb128 0xf
 520 01bc 1C000000 		.4byte	.LVL14
 521 01c0 E4000000 		.4byte	0xe4
 522 01c4 0E       		.uleb128 0xe
 523 01c5 01       		.uleb128 0x1
 524 01c6 50       		.byte	0x50
 525 01c7 02       		.uleb128 0x2
 526 01c8 08       		.byte	0x8
 527 01c9 64       		.byte	0x64
 528 01ca 00       		.byte	0
 529 01cb 00       		.byte	0
 530 01cc 10       		.uleb128 0x10
 531 01cd 3F020000 		.4byte	.LASF29
 532 01d1 01       		.byte	0x1
 533 01d2 1B       		.byte	0x1b
 534 01d3 6B000000 		.4byte	0x6b
 535 01d7 05       		.uleb128 0x5
 536 01d8 03       		.byte	0x3
 537 01d9 00000000 		.4byte	WaveDAC8_VDAC8_initVar
 538 01dd 00       		.byte	0
 539              		.section	.debug_abbrev,"",%progbits
 540              	.Ldebug_abbrev0:
 541 0000 01       		.uleb128 0x1
 542 0001 11       		.uleb128 0x11
 543 0002 01       		.byte	0x1
 544 0003 25       		.uleb128 0x25
 545 0004 0E       		.uleb128 0xe
ARM GAS  C:\Users\User\AppData\Local\Temp\ccjIN044.s 			page 16


 546 0005 13       		.uleb128 0x13
 547 0006 0B       		.uleb128 0xb
 548 0007 03       		.uleb128 0x3
 549 0008 0E       		.uleb128 0xe
 550 0009 1B       		.uleb128 0x1b
 551 000a 0E       		.uleb128 0xe
 552 000b 55       		.uleb128 0x55
 553 000c 17       		.uleb128 0x17
 554 000d 11       		.uleb128 0x11
 555 000e 01       		.uleb128 0x1
 556 000f 10       		.uleb128 0x10
 557 0010 17       		.uleb128 0x17
 558 0011 00       		.byte	0
 559 0012 00       		.byte	0
 560 0013 02       		.uleb128 0x2
 561 0014 24       		.uleb128 0x24
 562 0015 00       		.byte	0
 563 0016 0B       		.uleb128 0xb
 564 0017 0B       		.uleb128 0xb
 565 0018 3E       		.uleb128 0x3e
 566 0019 0B       		.uleb128 0xb
 567 001a 03       		.uleb128 0x3
 568 001b 0E       		.uleb128 0xe
 569 001c 00       		.byte	0
 570 001d 00       		.byte	0
 571 001e 03       		.uleb128 0x3
 572 001f 24       		.uleb128 0x24
 573 0020 00       		.byte	0
 574 0021 0B       		.uleb128 0xb
 575 0022 0B       		.uleb128 0xb
 576 0023 3E       		.uleb128 0x3e
 577 0024 0B       		.uleb128 0xb
 578 0025 03       		.uleb128 0x3
 579 0026 08       		.uleb128 0x8
 580 0027 00       		.byte	0
 581 0028 00       		.byte	0
 582 0029 04       		.uleb128 0x4
 583 002a 16       		.uleb128 0x16
 584 002b 00       		.byte	0
 585 002c 03       		.uleb128 0x3
 586 002d 0E       		.uleb128 0xe
 587 002e 3A       		.uleb128 0x3a
 588 002f 0B       		.uleb128 0xb
 589 0030 3B       		.uleb128 0x3b
 590 0031 05       		.uleb128 0x5
 591 0032 49       		.uleb128 0x49
 592 0033 13       		.uleb128 0x13
 593 0034 00       		.byte	0
 594 0035 00       		.byte	0
 595 0036 05       		.uleb128 0x5
 596 0037 35       		.uleb128 0x35
 597 0038 00       		.byte	0
 598 0039 49       		.uleb128 0x49
 599 003a 13       		.uleb128 0x13
 600 003b 00       		.byte	0
 601 003c 00       		.byte	0
 602 003d 06       		.uleb128 0x6
ARM GAS  C:\Users\User\AppData\Local\Temp\ccjIN044.s 			page 17


 603 003e 2E       		.uleb128 0x2e
 604 003f 00       		.byte	0
 605 0040 3F       		.uleb128 0x3f
 606 0041 19       		.uleb128 0x19
 607 0042 03       		.uleb128 0x3
 608 0043 0E       		.uleb128 0xe
 609 0044 3A       		.uleb128 0x3a
 610 0045 0B       		.uleb128 0xb
 611 0046 3B       		.uleb128 0x3b
 612 0047 0B       		.uleb128 0xb
 613 0048 27       		.uleb128 0x27
 614 0049 19       		.uleb128 0x19
 615 004a 11       		.uleb128 0x11
 616 004b 01       		.uleb128 0x1
 617 004c 12       		.uleb128 0x12
 618 004d 06       		.uleb128 0x6
 619 004e 40       		.uleb128 0x40
 620 004f 18       		.uleb128 0x18
 621 0050 9742     		.uleb128 0x2117
 622 0052 19       		.uleb128 0x19
 623 0053 00       		.byte	0
 624 0054 00       		.byte	0
 625 0055 07       		.uleb128 0x7
 626 0056 2E       		.uleb128 0x2e
 627 0057 01       		.byte	0x1
 628 0058 3F       		.uleb128 0x3f
 629 0059 19       		.uleb128 0x19
 630 005a 03       		.uleb128 0x3
 631 005b 0E       		.uleb128 0xe
 632 005c 3A       		.uleb128 0x3a
 633 005d 0B       		.uleb128 0xb
 634 005e 3B       		.uleb128 0x3b
 635 005f 0B       		.uleb128 0xb
 636 0060 27       		.uleb128 0x27
 637 0061 19       		.uleb128 0x19
 638 0062 11       		.uleb128 0x11
 639 0063 01       		.uleb128 0x1
 640 0064 12       		.uleb128 0x12
 641 0065 06       		.uleb128 0x6
 642 0066 40       		.uleb128 0x40
 643 0067 18       		.uleb128 0x18
 644 0068 9742     		.uleb128 0x2117
 645 006a 19       		.uleb128 0x19
 646 006b 01       		.uleb128 0x1
 647 006c 13       		.uleb128 0x13
 648 006d 00       		.byte	0
 649 006e 00       		.byte	0
 650 006f 08       		.uleb128 0x8
 651 0070 05       		.uleb128 0x5
 652 0071 00       		.byte	0
 653 0072 03       		.uleb128 0x3
 654 0073 0E       		.uleb128 0xe
 655 0074 3A       		.uleb128 0x3a
 656 0075 0B       		.uleb128 0xb
 657 0076 3B       		.uleb128 0x3b
 658 0077 0B       		.uleb128 0xb
 659 0078 49       		.uleb128 0x49
ARM GAS  C:\Users\User\AppData\Local\Temp\ccjIN044.s 			page 18


 660 0079 13       		.uleb128 0x13
 661 007a 02       		.uleb128 0x2
 662 007b 17       		.uleb128 0x17
 663 007c 00       		.byte	0
 664 007d 00       		.byte	0
 665 007e 09       		.uleb128 0x9
 666 007f 05       		.uleb128 0x5
 667 0080 00       		.byte	0
 668 0081 03       		.uleb128 0x3
 669 0082 0E       		.uleb128 0xe
 670 0083 3A       		.uleb128 0x3a
 671 0084 0B       		.uleb128 0xb
 672 0085 3B       		.uleb128 0x3b
 673 0086 0B       		.uleb128 0xb
 674 0087 49       		.uleb128 0x49
 675 0088 13       		.uleb128 0x13
 676 0089 02       		.uleb128 0x2
 677 008a 18       		.uleb128 0x18
 678 008b 00       		.byte	0
 679 008c 00       		.byte	0
 680 008d 0A       		.uleb128 0xa
 681 008e 2E       		.uleb128 0x2e
 682 008f 01       		.byte	0x1
 683 0090 3F       		.uleb128 0x3f
 684 0091 19       		.uleb128 0x19
 685 0092 03       		.uleb128 0x3
 686 0093 0E       		.uleb128 0xe
 687 0094 3A       		.uleb128 0x3a
 688 0095 0B       		.uleb128 0xb
 689 0096 3B       		.uleb128 0x3b
 690 0097 05       		.uleb128 0x5
 691 0098 27       		.uleb128 0x27
 692 0099 19       		.uleb128 0x19
 693 009a 11       		.uleb128 0x11
 694 009b 01       		.uleb128 0x1
 695 009c 12       		.uleb128 0x12
 696 009d 06       		.uleb128 0x6
 697 009e 40       		.uleb128 0x40
 698 009f 18       		.uleb128 0x18
 699 00a0 9742     		.uleb128 0x2117
 700 00a2 19       		.uleb128 0x19
 701 00a3 01       		.uleb128 0x1
 702 00a4 13       		.uleb128 0x13
 703 00a5 00       		.byte	0
 704 00a6 00       		.byte	0
 705 00a7 0B       		.uleb128 0xb
 706 00a8 34       		.uleb128 0x34
 707 00a9 00       		.byte	0
 708 00aa 03       		.uleb128 0x3
 709 00ab 0E       		.uleb128 0xe
 710 00ac 3A       		.uleb128 0x3a
 711 00ad 0B       		.uleb128 0xb
 712 00ae 3B       		.uleb128 0x3b
 713 00af 05       		.uleb128 0x5
 714 00b0 49       		.uleb128 0x49
 715 00b1 13       		.uleb128 0x13
 716 00b2 02       		.uleb128 0x2
ARM GAS  C:\Users\User\AppData\Local\Temp\ccjIN044.s 			page 19


 717 00b3 17       		.uleb128 0x17
 718 00b4 00       		.byte	0
 719 00b5 00       		.byte	0
 720 00b6 0C       		.uleb128 0xc
 721 00b7 898201   		.uleb128 0x4109
 722 00ba 00       		.byte	0
 723 00bb 11       		.uleb128 0x11
 724 00bc 01       		.uleb128 0x1
 725 00bd 31       		.uleb128 0x31
 726 00be 13       		.uleb128 0x13
 727 00bf 00       		.byte	0
 728 00c0 00       		.byte	0
 729 00c1 0D       		.uleb128 0xd
 730 00c2 898201   		.uleb128 0x4109
 731 00c5 01       		.byte	0x1
 732 00c6 11       		.uleb128 0x11
 733 00c7 01       		.uleb128 0x1
 734 00c8 31       		.uleb128 0x31
 735 00c9 13       		.uleb128 0x13
 736 00ca 01       		.uleb128 0x1
 737 00cb 13       		.uleb128 0x13
 738 00cc 00       		.byte	0
 739 00cd 00       		.byte	0
 740 00ce 0E       		.uleb128 0xe
 741 00cf 8A8201   		.uleb128 0x410a
 742 00d2 00       		.byte	0
 743 00d3 02       		.uleb128 0x2
 744 00d4 18       		.uleb128 0x18
 745 00d5 9142     		.uleb128 0x2111
 746 00d7 18       		.uleb128 0x18
 747 00d8 00       		.byte	0
 748 00d9 00       		.byte	0
 749 00da 0F       		.uleb128 0xf
 750 00db 898201   		.uleb128 0x4109
 751 00de 01       		.byte	0x1
 752 00df 11       		.uleb128 0x11
 753 00e0 01       		.uleb128 0x1
 754 00e1 31       		.uleb128 0x31
 755 00e2 13       		.uleb128 0x13
 756 00e3 00       		.byte	0
 757 00e4 00       		.byte	0
 758 00e5 10       		.uleb128 0x10
 759 00e6 34       		.uleb128 0x34
 760 00e7 00       		.byte	0
 761 00e8 03       		.uleb128 0x3
 762 00e9 0E       		.uleb128 0xe
 763 00ea 3A       		.uleb128 0x3a
 764 00eb 0B       		.uleb128 0xb
 765 00ec 3B       		.uleb128 0x3b
 766 00ed 0B       		.uleb128 0xb
 767 00ee 49       		.uleb128 0x49
 768 00ef 13       		.uleb128 0x13
 769 00f0 3F       		.uleb128 0x3f
 770 00f1 19       		.uleb128 0x19
 771 00f2 02       		.uleb128 0x2
 772 00f3 18       		.uleb128 0x18
 773 00f4 00       		.byte	0
ARM GAS  C:\Users\User\AppData\Local\Temp\ccjIN044.s 			page 20


 774 00f5 00       		.byte	0
 775 00f6 00       		.byte	0
 776              		.section	.debug_loc,"",%progbits
 777              	.Ldebug_loc0:
 778              	.LLST0:
 779 0000 00000000 		.4byte	.LVL0
 780 0004 10000000 		.4byte	.LVL1
 781 0008 0100     		.2byte	0x1
 782 000a 50       		.byte	0x50
 783 000b 10000000 		.4byte	.LVL1
 784 000f 1C000000 		.4byte	.LFE4
 785 0013 0400     		.2byte	0x4
 786 0015 F3       		.byte	0xf3
 787 0016 01       		.uleb128 0x1
 788 0017 50       		.byte	0x50
 789 0018 9F       		.byte	0x9f
 790 0019 00000000 		.4byte	0
 791 001d 00000000 		.4byte	0
 792              	.LLST1:
 793 0021 08000000 		.4byte	.LVL3
 794 0025 0C000000 		.4byte	.LVL4
 795 0029 0300     		.2byte	0x3
 796 002b 73       		.byte	0x73
 797 002c 06       		.sleb128 6
 798 002d 9F       		.byte	0x9f
 799 002e 0C000000 		.4byte	.LVL4
 800 0032 0E000000 		.4byte	.LVL5
 801 0036 0700     		.2byte	0x7
 802 0038 73       		.byte	0x73
 803 0039 868080B8 		.sleb128 -1224736762
 803      7B
 804 003e 9F       		.byte	0x9f
 805 003f 0E000000 		.4byte	.LVL5
 806 0043 12000000 		.4byte	.LVL6
 807 0047 0700     		.2byte	0x7
 808 0049 73       		.byte	0x73
 809 004a 808080B8 		.sleb128 -1224736768
 809      7B
 810 004f 9F       		.byte	0x9f
 811 0050 00000000 		.4byte	0
 812 0054 00000000 		.4byte	0
 813              	.LLST2:
 814 0058 00000000 		.4byte	.LVL7
 815 005c 12000000 		.4byte	.LVL8
 816 0060 0100     		.2byte	0x1
 817 0062 50       		.byte	0x50
 818 0063 12000000 		.4byte	.LVL8
 819 0067 20000000 		.4byte	.LFE5
 820 006b 0400     		.2byte	0x4
 821 006d F3       		.byte	0xf3
 822 006e 01       		.uleb128 0x1
 823 006f 50       		.byte	0x50
 824 0070 9F       		.byte	0x9f
 825 0071 00000000 		.4byte	0
 826 0075 00000000 		.4byte	0
 827              		.section	.debug_aranges,"",%progbits
 828 0000 54000000 		.4byte	0x54
ARM GAS  C:\Users\User\AppData\Local\Temp\ccjIN044.s 			page 21


 829 0004 0200     		.2byte	0x2
 830 0006 00000000 		.4byte	.Ldebug_info0
 831 000a 04       		.byte	0x4
 832 000b 00       		.byte	0
 833 000c 0000     		.2byte	0
 834 000e 0000     		.2byte	0
 835 0010 00000000 		.4byte	.LFB1
 836 0014 1C000000 		.4byte	.LFE1-.LFB1
 837 0018 00000000 		.4byte	.LFB3
 838 001c 1C000000 		.4byte	.LFE3-.LFB3
 839 0020 00000000 		.4byte	.LFB4
 840 0024 1C000000 		.4byte	.LFE4-.LFB4
 841 0028 00000000 		.4byte	.LFB6
 842 002c 0C000000 		.4byte	.LFE6-.LFB6
 843 0030 00000000 		.4byte	.LFB7
 844 0034 24000000 		.4byte	.LFE7-.LFB7
 845 0038 00000000 		.4byte	.LFB5
 846 003c 20000000 		.4byte	.LFE5-.LFB5
 847 0040 00000000 		.4byte	.LFB0
 848 0044 2C000000 		.4byte	.LFE0-.LFB0
 849 0048 00000000 		.4byte	.LFB2
 850 004c 24000000 		.4byte	.LFE2-.LFB2
 851 0050 00000000 		.4byte	0
 852 0054 00000000 		.4byte	0
 853              		.section	.debug_ranges,"",%progbits
 854              	.Ldebug_ranges0:
 855 0000 00000000 		.4byte	.LFB1
 856 0004 1C000000 		.4byte	.LFE1
 857 0008 00000000 		.4byte	.LFB3
 858 000c 1C000000 		.4byte	.LFE3
 859 0010 00000000 		.4byte	.LFB4
 860 0014 1C000000 		.4byte	.LFE4
 861 0018 00000000 		.4byte	.LFB6
 862 001c 0C000000 		.4byte	.LFE6
 863 0020 00000000 		.4byte	.LFB7
 864 0024 24000000 		.4byte	.LFE7
 865 0028 00000000 		.4byte	.LFB5
 866 002c 20000000 		.4byte	.LFE5
 867 0030 00000000 		.4byte	.LFB0
 868 0034 2C000000 		.4byte	.LFE0
 869 0038 00000000 		.4byte	.LFB2
 870 003c 24000000 		.4byte	.LFE2
 871 0040 00000000 		.4byte	0
 872 0044 00000000 		.4byte	0
 873              		.section	.debug_line,"",%progbits
 874              	.Ldebug_line0:
 875 0000 E6000000 		.section	.debug_str,"MS",%progbits,1
 875      02004B00 
 875      00000201 
 875      FB0E0D00 
 875      01010101 
 876              	.LASF23:
 877 0000 57617665 		.ascii	"WaveDAC8_VDAC8_Init\000"
 877      44414338 
 877      5F564441 
 877      43385F49 
 877      6E697400 
ARM GAS  C:\Users\User\AppData\Local\Temp\ccjIN044.s 			page 22


 878              	.LASF17:
 879 0014 57617665 		.ascii	"WaveDAC8_VDAC8_SetValue\000"
 879      44414338 
 879      5F564441 
 879      43385F53 
 879      65745661 
 880              	.LASF19:
 881 002c 76616C75 		.ascii	"value\000"
 881      6500
 882              	.LASF9:
 883 0032 666C6F61 		.ascii	"float\000"
 883      7400
 884              	.LASF1:
 885 0038 756E7369 		.ascii	"unsigned char\000"
 885      676E6564 
 885      20636861 
 885      7200
 886              	.LASF25:
 887 0046 474E5520 		.ascii	"GNU C11 5.4.1 20160609 (release) [ARM/embedded-5-br"
 887      43313120 
 887      352E342E 
 887      31203230 
 887      31363036 
 888 0079 616E6368 		.ascii	"anch revision 237715] -mcpu=cortex-m3 -mthumb -g -O"
 888      20726576 
 888      6973696F 
 888      6E203233 
 888      37373135 
 889 00ac 67202D66 		.ascii	"g -ffunction-sections -ffat-lto-objects\000"
 889      66756E63 
 889      74696F6E 
 889      2D736563 
 889      74696F6E 
 890              	.LASF13:
 891 00d4 72656738 		.ascii	"reg8\000"
 891      00
 892              	.LASF15:
 893 00d9 57617665 		.ascii	"WaveDAC8_VDAC8_Stop\000"
 893      44414338 
 893      5F564441 
 893      43385F53 
 893      746F7000 
 894              	.LASF5:
 895 00ed 6C6F6E67 		.ascii	"long unsigned int\000"
 895      20756E73 
 895      69676E65 
 895      6420696E 
 895      7400
 896              	.LASF3:
 897 00ff 73686F72 		.ascii	"short unsigned int\000"
 897      7420756E 
 897      7369676E 
 897      65642069 
 897      6E7400
 898              	.LASF24:
 899 0112 57617665 		.ascii	"WaveDAC8_VDAC8_Start\000"
 899      44414338 
ARM GAS  C:\Users\User\AppData\Local\Temp\ccjIN044.s 			page 23


 899      5F564441 
 899      43385F53 
 899      74617274 
 900              	.LASF22:
 901 0127 72616E67 		.ascii	"range\000"
 901      6500
 902              	.LASF10:
 903 012d 646F7562 		.ascii	"double\000"
 903      6C6500
 904              	.LASF26:
 905 0134 47656E65 		.ascii	"Generated_Source\\PSoC5\\WaveDAC8_VDAC8.c\000"
 905      72617465 
 905      645F536F 
 905      75726365 
 905      5C50536F 
 906              	.LASF8:
 907 015c 756E7369 		.ascii	"unsigned int\000"
 907      676E6564 
 907      20696E74 
 907      00
 908              	.LASF7:
 909 0169 6C6F6E67 		.ascii	"long long unsigned int\000"
 909      206C6F6E 
 909      6720756E 
 909      7369676E 
 909      65642069 
 910              	.LASF28:
 911 0180 6D6F6465 		.ascii	"mode\000"
 911      00
 912              	.LASF18:
 913 0185 73706565 		.ascii	"speed\000"
 913      6400
 914              	.LASF6:
 915 018b 6C6F6E67 		.ascii	"long long int\000"
 915      206C6F6E 
 915      6720696E 
 915      7400
 916              	.LASF11:
 917 0199 63686172 		.ascii	"char\000"
 917      00
 918              	.LASF14:
 919 019e 57617665 		.ascii	"WaveDAC8_VDAC8_Enable\000"
 919      44414338 
 919      5F564441 
 919      43385F45 
 919      6E61626C 
 920              	.LASF2:
 921 01b4 73686F72 		.ascii	"short int\000"
 921      7420696E 
 921      7400
 922              	.LASF27:
 923 01be 443A5C73 		.ascii	"D:\\src\\wavetest\\wavetest.cydsn\000"
 923      72635C77 
 923      61766574 
 923      6573745C 
 923      77617665 
 924              	.LASF12:
ARM GAS  C:\Users\User\AppData\Local\Temp\ccjIN044.s 			page 24


 925 01dd 75696E74 		.ascii	"uint8\000"
 925      3800
 926              	.LASF16:
 927 01e3 57617665 		.ascii	"WaveDAC8_VDAC8_SetSpeed\000"
 927      44414338 
 927      5F564441 
 927      43385F53 
 927      65745370 
 928              	.LASF21:
 929 01fb 57617665 		.ascii	"WaveDAC8_VDAC8_SetRange\000"
 929      44414338 
 929      5F564441 
 929      43385F53 
 929      65745261 
 930              	.LASF4:
 931 0213 6C6F6E67 		.ascii	"long int\000"
 931      20696E74 
 931      00
 932              	.LASF20:
 933 021c 57617665 		.ascii	"WaveDAC8_VDAC8_DacTrim\000"
 933      44414338 
 933      5F564441 
 933      43385F44 
 933      61635472 
 934              	.LASF0:
 935 0233 7369676E 		.ascii	"signed char\000"
 935      65642063 
 935      68617200 
 936              	.LASF29:
 937 023f 57617665 		.ascii	"WaveDAC8_VDAC8_initVar\000"
 937      44414338 
 937      5F564441 
 937      43385F69 
 937      6E697456 
 938              		.ident	"GCC: (GNU Tools for ARM Embedded Processors) 5.4.1 20160609 (release) [ARM/embedded-5-bran
