\relax 
\providecommand\hyper@newdestlabel[2]{}
\providecommand\HyperFirstAtBeginDocument{\AtBeginDocument}
\HyperFirstAtBeginDocument{\ifx\hyper@anchor\@undefined
\global\let\oldcontentsline\contentsline
\gdef\contentsline#1#2#3#4{\oldcontentsline{#1}{#2}{#3}}
\global\let\oldnewlabel\newlabel
\gdef\newlabel#1#2{\newlabelxx{#1}#2}
\gdef\newlabelxx#1#2#3#4#5#6{\oldnewlabel{#1}{{#2}{#3}}}
\AtEndDocument{\ifx\hyper@anchor\@undefined
\let\contentsline\oldcontentsline
\let\newlabel\oldnewlabel
\fi}
\fi}
\global\let\hyper@last\relax 
\gdef\HyperFirstAtBeginDocument#1{#1}
\providecommand\HyField@AuxAddToFields[1]{}
\providecommand\HyField@AuxAddToCoFields[2]{}
\abx@aux@refcontext{none/global//global/global}
\catcode `"\active 
\@writefile{toc}{\boolfalse {citerequest}\boolfalse {citetracker}\boolfalse {pagetracker}\boolfalse {backtracker}\relax }
\@writefile{lof}{\boolfalse {citerequest}\boolfalse {citetracker}\boolfalse {pagetracker}\boolfalse {backtracker}\relax }
\@writefile{lot}{\boolfalse {citerequest}\boolfalse {citetracker}\boolfalse {pagetracker}\boolfalse {backtracker}\relax }
\babel@aux{dutch}{}
\abx@aux@cite{sidTech}
\abx@aux@segm{0}{0}{sidTech}
\@writefile{toc}{\contentsline {section}{\numberline {1}Inleiding}{3}{section.1}}
\newlabel{sec:intro}{{1}{3}{Inleiding}{section.1}{}}
\@writefile{toc}{\contentsline {section}{\numberline {2}Input}{4}{section.2}}
\newlabel{sec:input}{{2}{4}{Input}{section.2}{}}
\@writefile{toc}{\contentsline {subsection}{\numberline {2.1}CLI Programma}{4}{subsection.2.1}}
\newlabel{ssec:cli}{{2.1}{4}{CLI Programma}{subsection.2.1}{}}
\@writefile{toc}{\contentsline {subsection}{\numberline {2.2}Fileparser}{4}{subsection.2.2}}
\newlabel{ssec:parser}{{2.2}{4}{Fileparser}{subsection.2.2}{}}
\@writefile{lof}{\contentsline {figure}{\numberline {1}{\ignorespaces Links input bestand, rechts output\relax }}{4}{figure.caption.3}}
\providecommand*\caption@xref[2]{\@setref\relax\@undefined{#1}}
\newlabel{fig:blockex}{{1}{4}{Links input bestand, rechts output\relax }{figure.caption.3}{}}
\@writefile{toc}{\contentsline {section}{\numberline {3}Keyboard}{5}{section.3}}
\newlabel{sec:keyboard}{{3}{5}{Keyboard}{section.3}{}}
\@writefile{toc}{\contentsline {section}{\numberline {4}Communicatie}{6}{section.4}}
\newlabel{sec:comm}{{4}{6}{Communicatie}{section.4}{}}
\@writefile{toc}{\contentsline {subsection}{\numberline {4.1}C-programma}{6}{subsection.4.1}}
\@writefile{toc}{\contentsline {subsection}{\numberline {4.2}UART}{6}{subsection.4.2}}
\abx@aux@segm{0}{0}{sidTech}
\@writefile{toc}{\contentsline {section}{\numberline {5}Toongenerator}{7}{section.5}}
\newlabel{sec:tone}{{5}{7}{Toongenerator}{section.5}{}}
\@writefile{toc}{\contentsline {subsection}{\numberline {5.1}Verilog}{7}{subsection.5.1}}
\newlabel{ssec:verilog}{{5.1}{7}{Verilog}{subsection.5.1}{}}
\@writefile{toc}{\contentsline {subsubsection}{\numberline {5.1.1}Beschrijving van de verilog code}{7}{subsubsection.5.1.1}}
\newlabel{sssec:beschverilog}{{5.1.1}{7}{Beschrijving van de verilog code}{subsubsection.5.1.1}{}}
\@writefile{lof}{\contentsline {figure}{\numberline {2}{\ignorespaces Resultaten van de testbench\relax }}{7}{figure.caption.4}}
\newlabel{fig:verVCD}{{2}{7}{Resultaten van de testbench\relax }{figure.caption.4}{}}
\newlabel{fig:veriInOut}{{\caption@xref {fig:veriInOut}{ on input line 85}}{8}{Beschrijving van de verilog code}{figure.caption.5}{}}
\@writefile{lof}{\contentsline {figure}{\numberline {3}{\ignorespaces Inputs van de verilogblok\relax }}{8}{figure.caption.5}}
\abx@aux@cite{compAuthGuide}
\abx@aux@segm{0}{0}{compAuthGuide}
\@writefile{toc}{\contentsline {subsubsection}{\numberline {5.1.2}Tekortkomingen van de verilogblok}{9}{subsubsection.5.1.2}}
\@writefile{toc}{\contentsline {subsection}{\numberline {5.2}WaveDAC}{9}{subsection.5.2}}
\newlabel{fig:DStonegen}{{\caption@xref {fig:DStonegen}{ on input line 137}}{9}{WaveDAC}{figure.caption.6}{}}
\@writefile{lof}{\contentsline {figure}{\numberline {4}{\ignorespaces Datastructure van de toongeneratoren\relax }}{9}{figure.caption.6}}
\@writefile{lof}{\contentsline {figure}{\numberline {5}{\ignorespaces Schema van de ``WaveDAC'' opstelling\relax }}{10}{figure.caption.7}}
\newlabel{fig:schWD}{{5}{10}{Schema van de ``WaveDAC'' opstelling\relax }{figure.caption.7}{}}
\@writefile{lof}{\contentsline {figure}{\numberline {6}{\ignorespaces Output van de opgetelde signalen\relax }}{11}{figure.caption.8}}
\newlabel{fig:WDaddWF}{{6}{11}{Output van de opgetelde signalen\relax }{figure.caption.8}{}}
\@writefile{lof}{\contentsline {figure}{\numberline {7}{\ignorespaces Output van individuele signalen\relax }}{12}{figure.caption.9}}
\newlabel{fig:WDdiffWF}{{7}{12}{Output van individuele signalen\relax }{figure.caption.9}{}}
\@writefile{toc}{\contentsline {section}{\numberline {6}Conclusie}{13}{section.6}}
\newlabel{sec:conc}{{6}{13}{Conclusie}{section.6}{}}
\@writefile{toc}{\contentsline {section}{Appendices}{15}{section*.11}}
\@writefile{toc}{\contentsline {section}{\numberline {A}Verilog code}{15}{B"ylage.1.A}}
\newlabel{sec:verilog}{{A}{15}{Verilog code}{B"ylage.1.A}{}}
\gdef\minted@oldcachelist{,
  default-pyg-prefix.pygstyle,
  perldoc.pygstyle,
  1327528218349549AFB241DABEB28537CE81611F4B41E936A090F872E233B491.pygtex,
  8F2737FADEEA3BA5BDC74E4047D5DB1DCE81611F4B41E936A090F872E233B491.pygtex,
  FEBDC16F80E7A588EC651A4F663C4E88AF97BE6B164DE46005062C8217DB0FD0.pygtex,
  B10D53CB82B893245CB1F18F7B5E4256CE81611F4B41E936A090F872E233B491.pygtex,
  48AC3902D226C54084D532B2E7E82AB6AF97BE6B164DE46005062C8217DB0FD0.pygtex}
\abx@aux@refcontextdefaultsdone
\abx@aux@defaultrefcontext{0}{sidTech}{none/global//global/global}
\abx@aux@defaultrefcontext{0}{compAuthGuide}{none/global//global/global}
